{"page":3,"resultsPerPage":25,"pageCount":340,"resultCount":8485,"dapps":[{"id":10447,"name":"DeFi Degen Land","slug":"defi-degen-land","new":false,"statistic":{"balance":0.79996632450551,"balanceInFiat":456.78,"totalBalanceInFiat":7209.6,"graph":"https:\/\/s3.amazonaws.com\/dapp-activity.dappradar.com\/bsc_10447_31891614721b7460609855748252ab25.png","exchangeRate":1,"currencyName":"usd","transactionCount":143,"userActivity":290,"volumeInFiat":49.32,"totalVolumeInFiat":57003.33,"totalVolumeChangeInFiat":-7.18,"changes":{"dau":{"status":"+13.73%","label":"positive"},"volume":{"status":"-","label":"neutral"},"tx":{"status":"+31.19%","label":"positive"},"tokenVolume":{"status":"-14.36%","label":"negative"},"totalVolume":{"status":"-7.18%","label":"negative"},"totalBalance":{"status":"+2.73%","label":"positive"}}},"godzillaId":null,"logo":"https:\/\/dashboard-assets.dappradar.com\/document\/10447\/defidegenland-dapp-games-bsc-logo-50x50_1d98dceb418107424bb37cc1567beeee.png","deepLink":"https:\/\/defidegenland.com\/","mobileFriendly":false,"featured":true,"slugs":{"binance-smart-chain":"defi-degen-land"},"protocols":["binance-smart-chain"],"activeProtocols":["binance-smart-chain"],"category":"games","tracked":true},{"id":3396,"name":"Jelly Squish","slug":"jelly-squish","new":false,"statistic":{"balance":580972.83740271,"balanceInFiat":7430.08,"totalBalanceInFiat":7430.08,"graph":"https:\/\/s3.amazonaws.com\/dapp-activity.dappradar.com\/thundercore_3396_e4ce408dfa18447978a5d0797109686a.png","exchangeRate":1,"currencyName":"usd","transactionCount":7169,"userActivity":6184,"volumeInFiat":274.4,"totalVolumeInFiat":274.4,"totalVolumeChangeInFiat":-11.19,"changes":{"dau":{"status":"-26.44%","label":"negative"},"volume":{"status":"-22.37%","label":"negative"},"tx":{"status":"-24.45%","label":"negative"},"tokenVolume":{"status":"-","label":"neutral"},"totalVolume":{"status":"-11.19%","label":"negative"},"totalBalance":{"status":"-","label":"neutral"}}},"godzillaId":17,"slugs":{"thundercore":"jelly-squish"},"logo":"https:\/\/dashboard-assets.dappradar.com\/document\/3396\/jelly-squish-games-thundercore-logo-50x50_bfb92b337bc19b7d6d86e20fb233438c.png","deepLink":"https:\/\/dappradar.com\/deeplink\/3396","mobileFriendly":false,"featured":false,"protocols":["thundercore"],"activeProtocols":["thundercore"],"category":"games","tracked":true},{"id":9245,"name":"HeroFi","slug":"herofi","new":false,"statistic":{"balance":0,"balanceInFiat":0,"totalBalanceInFiat":84026.5,"graph":"https:\/\/s3.amazonaws.com\/dapp-activity.dappradar.com\/bsc_9245_4ac228badc4be7c4b9b9444d77e3473b.png","exchangeRate":1,"currencyName":"usd","transactionCount":9189,"userActivity":5943,"volumeInFiat":4323.74,"totalVolumeInFiat":84428.43,"totalVolumeChangeInFiat":204.73,"changes":{"dau":{"status":"+2239.76%","label":"positive"},"volume":{"status":"+409.46%","label":"positive"},"tx":{"status":"+2012.41%","label":"positive"},"tokenVolume":{"status":"-","label":"neutral"},"totalVolume":{"status":"+204.73%","label":"positive"},"totalBalance":{"status":"-0.74%","label":"negative"}}},"godzillaId":null,"slugs":{"binance-smart-chain":"herofi"},"logo":"https:\/\/dashboard-assets.dappradar.com\/document\/9245\/herofi-dapp-games-bsc-logo-50x50_698a6bdb26948adc780cc47920214f8b.png","deepLink":"https:\/\/dappradar.com\/deeplink\/9245","mobileFriendly":false,"featured":false,"protocols":["binance-smart-chain"],"activeProtocols":["binance-smart-chain"],"category":"games","tracked":true},{"id":4228,"name":"SunSwap","slug":"sunswap","new":false,"statistic":{"balance":2717127424.8245,"balanceInFiat":247899837.73,"totalBalanceInFiat":247899837.73,"graph":"https:\/\/s3.amazonaws.com\/dapp-activity.dappradar.com\/tron_4228_4be35dfe028172457a54e1ea0035c5ba.png","exchangeRate":1,"currencyName":"usd","transactionCount":14142,"userActivity":5809,"volumeInFiat":17886056.08,"totalVolumeInFiat":17886056.08,"totalVolumeChangeInFiat":-18.69,"changes":{"dau":{"status":"+27.11%","label":"positive"},"volume":{"status":"-37.37%","label":"negative"},"tx":{"status":"-4.32%","label":"negative"},"tokenVolume":{"status":"-","label":"neutral"},"totalVolume":{"status":"-18.68%","label":"negative"},"totalBalance":{"status":"-","label":"neutral"}}},"godzillaId":null,"slugs":{"tron":"sunswap"},"logo":"https:\/\/dashboard-assets.dappradar.com\/document\/4228\/sunswap-dapp-exchanges-tron-logo-50x50_f407b7d6acecc916e515b6b7b23437dc.png","deepLink":"https:\/\/dappradar.com\/deeplink\/4228","mobileFriendly":false,"featured":false,"protocols":["tron"],"activeProtocols":["tron"],"category":"exchanges","tracked":true},{"id":10935,"name":"KLAYswap","slug":"klayswap","new":false,"statistic":{"balance":169257162.16608,"balanceInFiat":230189740.55,"totalBalanceInFiat":562517034.56,"graph":"https:\/\/s3.amazonaws.com\/dapp-activity.dappradar.com\/klaytn_10935_ee1852a61f3e2bf4c32270942f114b4f.png","exchangeRate":1,"currencyName":"usd","transactionCount":13005,"userActivity":5619,"volumeInFiat":5661127.78,"totalVolumeInFiat":45727919.52,"totalVolumeChangeInFiat":-23.92,"changes":{"dau":{"status":"-4.76%","label":"negative"},"volume":{"status":"-12.43%","label":"negative"},"tx":{"status":"-5.67%","label":"negative"},"tokenVolume":{"status":"-35.40%","label":"negative"},"totalVolume":{"status":"-23.91%","label":"negative"},"totalBalance":{"status":"+1.11%","label":"positive"}}},"godzillaId":null,"slugs":{"klaytn":"klayswap"},"logo":"https:\/\/dashboard-assets.dappradar.com\/document\/10935\/klayswap-dapp-exchanges-klaytn-logo-50x50_fbfcd8a169dccf0df54e9c8f1c50caa3.png","deepLink":"https:\/\/dappradar.com\/deeplink\/10935","mobileFriendly":false,"featured":false,"protocols":["klaytn"],"activeProtocols":["klaytn"],"category":"exchanges","tracked":true},{"id":7937,"name":"Taco","slug":"taco","new":false,"statistic":{"balance":0,"balanceInFiat":0,"totalBalanceInFiat":0,"graph":"https:\/\/s3.amazonaws.com\/dapp-activity.dappradar.com\/wax_7937_2fb93f1b0b002612a1f0383cdc73f7cf.png","exchangeRate":1,"currencyName":"usd","transactionCount":127642,"userActivity":5444,"volumeInFiat":15.54,"totalVolumeInFiat":15.54,"totalVolumeChangeInFiat":6.92,"changes":{"dau":{"status":"-4.71%","label":"negative"},"volume":{"status":"+13.84%","label":"positive"},"tx":{"status":"+0.05%","label":"positive"},"tokenVolume":{"status":"-","label":"neutral"},"totalVolume":{"status":"+6.92%","label":"positive"},"totalBalance":{"status":"-","label":"neutral"}}},"godzillaId":null,"slugs":{"wax":"taco"},"logo":"https:\/\/dashboard-assets.dappradar.com\/document\/7937\/taco-dapp-other-wax-logo-50x50_4569921a1b8b17c4d5afc16c4307a53e.png","deepLink":"https:\/\/dappradar.com\/deeplink\/7937","mobileFriendly":false,"featured":false,"protocols":["wax"],"activeProtocols":["wax"],"category":"other","tracked":true},{"id":9002,"name":"DNAxCAT","slug":"dnaxcat","new":false,"statistic":{"balance":0,"balanceInFiat":0,"totalBalanceInFiat":15864.76,"graph":"https:\/\/s3.amazonaws.com\/dapp-activity.dappradar.com\/bsc_9002_f27150258daa569c8e1f224960bfa2e9.png","exchangeRate":1,"currencyName":"usd","transactionCount":33858,"userActivity":4805,"volumeInFiat":3234565.76,"totalVolumeInFiat":4179312.18,"totalVolumeChangeInFiat":-3.08,"changes":{"dau":{"status":"-9.58%","label":"negative"},"volume":{"status":"-2.80%","label":"negative"},"tx":{"status":"-3.66%","label":"negative"},"tokenVolume":{"status":"-3.36%","label":"negative"},"totalVolume":{"status":"-3.08%","label":"negative"},"totalBalance":{"status":"-10.34%","label":"negative"}}},"godzillaId":null,"slugs":{"binance-smart-chain":"dnaxcat"},"logo":"https:\/\/dashboard-assets.dappradar.com\/document\/9002\/dnaxcat-dapp-games-bsc-logo-50x50_696562618b0308e33d0cca6737d0918c.png","deepLink":"https:\/\/dappradar.com\/deeplink\/9002","mobileFriendly":false,"featured":false,"protocols":["binance-smart-chain"],"activeProtocols":["binance-smart-chain"],"category":"games","tracked":true},{"id":10198,"name":"Solanart","slug":"solanart","new":false,"statistic":{"balance":223.979187192,"balanceInFiat":42114.81,"totalBalanceInFiat":42114.81,"graph":"https:\/\/s3.amazonaws.com\/dapp-activity.dappradar.com\/solana_10198_ab6429a8b6dbc7c9171e4dd7869cdd68.png","exchangeRate":1,"currencyName":"usd","transactionCount":14617,"userActivity":4736,"volumeInFiat":1333198.98,"totalVolumeInFiat":1333198.98,"totalVolumeChangeInFiat":26.69,"changes":{"dau":{"status":"+11.59%","label":"positive"},"volume":{"status":"+53.37%","label":"positive"},"tx":{"status":"+16.67%","label":"positive"},"tokenVolume":{"status":"-","label":"neutral"},"totalVolume":{"status":"+26.68%","label":"positive"},"totalBalance":{"status":"-","label":"neutral"}}},"godzillaId":null,"slugs":{"solana":"solanart"},"logo":"https:\/\/dashboard-assets.dappradar.com\/document\/10198\/solanart-dapp-marketplaces-solana-logo-50x50_8793ec740f670d2aecd14a5956b5ff05.png","deepLink":"https:\/\/dappradar.com\/deeplink\/10198","mobileFriendly":false,"featured":false,"protocols":["solana"],"activeProtocols":["solana"],"category":"marketplaces","tracked":true},{"id":7077,"name":"TT-PLINKO","slug":"tt-plinko","new":false,"statistic":{"balance":23510.069338868,"balanceInFiat":300.67,"totalBalanceInFiat":300.67,"graph":"https:\/\/s3.amazonaws.com\/dapp-activity.dappradar.com\/thundercore_7077_a8655c14013d040527ba844729d5d93c.png","exchangeRate":1,"currencyName":"usd","transactionCount":11092,"userActivity":4651,"volumeInFiat":548.69,"totalVolumeInFiat":548.69,"totalVolumeChangeInFiat":39.64,"changes":{"dau":{"status":"+8.21%","label":"positive"},"volume":{"status":"+79.27%","label":"positive"},"tx":{"status":"-4.99%","label":"negative"},"tokenVolume":{"status":"-","label":"neutral"},"totalVolume":{"status":"+39.63%","label":"positive"},"totalBalance":{"status":"-","label":"neutral"}}},"godzillaId":null,"slugs":{"thundercore":"tt-plinko"},"logo":"https:\/\/dashboard-assets.dappradar.com\/document\/7077\/ttplinko-dapp-gambling-thundercore-logo-50x50_9f2c169d7311bb12f79c80d694799ac7.png","deepLink":"https:\/\/dappradar.com\/deeplink\/7077","mobileFriendly":false,"featured":false,"protocols":["thundercore"],"activeProtocols":["thundercore"],"category":"gambling","tracked":true},{"id":10216,"name":"Polygon POS Bridge","slug":"polygon-pos-bridge","new":false,"statistic":{"balance":423983.00123934,"balanceInFiat":1831504809.43,"totalBalanceInFiat":7036148504.54,"graph":"https:\/\/s3.amazonaws.com\/dapp-activity.dappradar.com\/ethereum_10216_2cafd93e6cf5f4c14a3cc2b8f7df047c.png","exchangeRate":1,"currencyName":"usd","transactionCount":5824,"userActivity":4569,"volumeInFiat":13965257.74,"totalVolumeInFiat":76774696.54,"totalVolumeChangeInFiat":3.13,"changes":{"dau":{"status":"+22.26%","label":"positive"},"volume":{"status":"+30.10%","label":"positive"},"tx":{"status":"+20.03%","label":"positive"},"tokenVolume":{"status":"-23.85%","label":"negative"},"totalVolume":{"status":"+3.12%","label":"positive"},"totalBalance":{"status":"+0.67%","label":"positive"}}},"godzillaId":null,"slugs":{"ethereum":"polygon-pos-bridge"},"logo":"https:\/\/dashboard-assets.dappradar.com\/document\/10216\/polygonposbridge-dapp-defi-ethereum-logo-50x50_83727727cab53623c0dc7a787498620a.png","deepLink":"https:\/\/dappradar.com\/deeplink\/10216","mobileFriendly":false,"featured":false,"protocols":["ethereum"],"activeProtocols":["ethereum"],"category":"defi","tracked":true},{"id":6674,"name":"TT-KENO","slug":"tt-keno","new":false,"statistic":{"balance":52061.091153246,"balanceInFiat":665.81,"totalBalanceInFiat":665.81,"graph":"https:\/\/s3.amazonaws.com\/dapp-activity.dappradar.com\/thundercore_6674_2de196333c967e8e033b79de9cac9566.png","exchangeRate":1,"currencyName":"usd","transactionCount":50396,"userActivity":4531,"volumeInFiat":6161.83,"totalVolumeInFiat":6161.83,"totalVolumeChangeInFiat":-2.25,"changes":{"dau":{"status":"+1.14%","label":"positive"},"volume":{"status":"-4.50%","label":"negative"},"tx":{"status":"+1.09%","label":"positive"},"tokenVolume":{"status":"-","label":"neutral"},"totalVolume":{"status":"-2.25%","label":"negative"},"totalBalance":{"status":"-","label":"neutral"}}},"godzillaId":null,"slugs":{"thundercore":"tt-keno"},"logo":"https:\/\/dashboard-assets.dappradar.com\/document\/6674\/ttkeno-dapp-gambling-thundercore-logo-50x50_21d2c5164238a0a6f67e939b09527797.png","deepLink":"https:\/\/dappradar.com\/deeplink\/6674","mobileFriendly":false,"featured":false,"protocols":["thundercore"],"activeProtocols":["thundercore"],"category":"gambling","tracked":true},{"id":10431,"name":"BlockchainRPG","slug":"blockchainrpg","new":false,"statistic":{"balance":0,"balanceInFiat":0,"totalBalanceInFiat":0,"graph":"https:\/\/s3.amazonaws.com\/dapp-activity.dappradar.com\/wax_10431_13d334ab8eb4434cd61cb4f10e7c08aa.png","exchangeRate":1,"currencyName":"usd","transactionCount":136270,"userActivity":4457,"volumeInFiat":0,"totalVolumeInFiat":0,"totalVolumeChangeInFiat":0,"changes":{"dau":{"status":"+3.94%","label":"positive"},"volume":{"status":"-","label":"neutral"},"tx":{"status":"+5.65%","label":"positive"},"tokenVolume":{"status":"-","label":"neutral"},"totalVolume":{"status":"-","label":"neutral"},"totalBalance":{"status":"-","label":"neutral"}}},"godzillaId":null,"slugs":{"wax":"blockchainrpg"},"logo":"https:\/\/dashboard-assets.dappradar.com\/document\/10431\/blockchainrpgio-dapp-games-wax-logo-50x50_db676e3c5daba5166a2fb4fdcc5722fc.png","deepLink":"https:\/\/dappradar.com\/deeplink\/10431","mobileFriendly":false,"featured":false,"protocols":["wax"],"activeProtocols":["wax"],"category":"games","tracked":true},{"id":6253,"name":"tofuNFT","slug":"tofunft","new":false,"statistic":{"balance":173.16936262777,"balanceInFiat":98879.71,"totalBalanceInFiat":659192.76,"graph":"https:\/\/s3.amazonaws.com\/dapp-activity.dappradar.com\/bsc_6253_580bcedcd469aa896b82ba78ea20941e.png","exchangeRate":1,"currencyName":"usd","transactionCount":14799,"userActivity":4363,"volumeInFiat":4123265.86,"totalVolumeInFiat":4130605.2399999998,"totalVolumeChangeInFiat":83.6,"changes":{"dau":{"status":"+47.27%","label":"positive"},"volume":{"status":"+118.87%","label":"positive"},"tx":{"status":"+95.87%","label":"positive"},"tokenVolume":{"status":"+48.33%","label":"positive"},"totalVolume":{"status":"+83.60%","label":"positive"},"totalBalance":{"status":"-0.10%","label":"negative"}}},"godzillaId":null,"slugs":{"binance-smart-chain":"tofunft","ethereum":"tofunft","avalanche":"tofunft","polygon":"tofunft"},"logo":"https:\/\/dashboard-assets.dappradar.com\/document\/6253\/tofunft-dapp-marketplaces-bsc-logo-50x50_3c2e6a84c45b12777b38e29a29aaa7e3.png","deepLink":"https:\/\/dappradar.com\/deeplink\/6253","mobileFriendly":false,"featured":false,"protocols":["binance-smart-chain","ethereum","avalanche","polygon"],"activeProtocols":["binance-smart-chain","ethereum","avalanche","polygon"],"category":"marketplaces","tracked":true},{"id":3697,"name":"Steemit","slug":"steemit","new":false,"statistic":{"balance":6429191.882,"balanceInFiat":3145855.02,"totalBalanceInFiat":3145855.02,"graph":"https:\/\/s3.amazonaws.com\/dapp-activity.dappradar.com\/steem_3697_10204298b3c8fe24bdfa269ec424ad46.png","exchangeRate":1,"currencyName":"usd","transactionCount":20221,"userActivity":4284,"volumeInFiat":8.47,"totalVolumeInFiat":8.47,"totalVolumeChangeInFiat":-2.13,"changes":{"dau":{"status":"+1.64%","label":"positive"},"volume":{"status":"-4.26%","label":"negative"},"tx":{"status":"+5.44%","label":"positive"},"tokenVolume":{"status":"-","label":"neutral"},"totalVolume":{"status":"-2.13%","label":"negative"},"totalBalance":{"status":"-","label":"neutral"}}},"godzillaId":9,"slugs":{"steem":"steemit"},"logo":"https:\/\/dashboard-assets.dappradar.com\/document\/3697\/steemit-dapp-social-steem-logo-50x50_65bd763aaf5075756809133e3af2d731.png","deepLink":"https:\/\/dappradar.com\/deeplink\/3697","mobileFriendly":false,"featured":false,"protocols":["steem"],"activeProtocols":["steem"],"category":"social","tracked":true},{"id":9843,"name":"SAMURAI","slug":"samurai","new":false,"statistic":{"balance":0,"balanceInFiat":0,"totalBalanceInFiat":0,"graph":"https:\/\/s3.amazonaws.com\/dapp-activity.dappradar.com\/okexchain_9843_fee6dbed7b3f075b0e07eb07668bb414.png","exchangeRate":1,"currencyName":"usd","transactionCount":4511,"userActivity":4158,"volumeInFiat":0,"totalVolumeInFiat":0,"totalVolumeChangeInFiat":-50,"changes":{"dau":{"status":"-0.05%","label":"negative"},"volume":{"status":"-100.00%","label":"negative"},"tx":{"status":"-26.61%","label":"negative"},"tokenVolume":{"status":"-","label":"neutral"},"totalVolume":{"status":"-50.00%","label":"negative"},"totalBalance":{"status":"-","label":"neutral"}}},"godzillaId":null,"slugs":{"okexchain":"samurai"},"logo":"https:\/\/dashboard-assets.dappradar.com\/document\/9843\/samurai-dapp-games-okexchain-logo-50x50_81d66b392c71948bce356259b60cea9f.png","deepLink":"https:\/\/dappradar.com\/deeplink\/9843","mobileFriendly":false,"featured":false,"protocols":["okexchain"],"activeProtocols":["okexchain"],"category":"games","tracked":true},{"id":10267,"name":"Saber","slug":"saber","new":false,"statistic":{"balance":799852.06746287,"balanceInFiat":150396184.25,"totalBalanceInFiat":665097329.74,"graph":"https:\/\/s3.amazonaws.com\/dapp-activity.dappradar.com\/solana_10267_6f462c67b8f54d57f524d2e383455b10.png","exchangeRate":1,"currencyName":"usd","transactionCount":7547,"userActivity":4042,"volumeInFiat":729.11,"totalVolumeInFiat":43665753.81,"totalVolumeChangeInFiat":-19.28,"changes":{"dau":{"status":"-20.39%","label":"negative"},"volume":{"status":"-17.64%","label":"negative"},"tx":{"status":"-12.85%","label":"negative"},"tokenVolume":{"status":"-20.91%","label":"negative"},"totalVolume":{"status":"-19.27%","label":"negative"},"totalBalance":{"status":"-2.81%","label":"negative"}}},"godzillaId":null,"slugs":{"solana":"saber"},"logo":"https:\/\/dashboard-assets.dappradar.com\/document\/10267\/saber-dapp-defi-solana-logo-50x50_1603b5d0f9f774dfb41d4d21e71c97e5.png","deepLink":"https:\/\/dappradar.com\/deeplink\/10267","mobileFriendly":false,"featured":false,"protocols":["solana"],"activeProtocols":["solana"],"category":"defi","tracked":true},{"id":10308,"name":"NFT Panda: World of Fantasy","slug":"nft-panda-world-of-fantasy","new":false,"statistic":{"balance":0,"balanceInFiat":0,"totalBalanceInFiat":0,"graph":"https:\/\/s3.amazonaws.com\/dapp-activity.dappradar.com\/wax_10308_0e0811fa415301ad0fcb3bed277857be.png","exchangeRate":1,"currencyName":"usd","transactionCount":131462,"userActivity":4007,"volumeInFiat":0,"totalVolumeInFiat":0,"totalVolumeChangeInFiat":0,"changes":{"dau":{"status":"-0.60%","label":"negative"},"volume":{"status":"-","label":"neutral"},"tx":{"status":"+0.85%","label":"positive"},"tokenVolume":{"status":"-","label":"neutral"},"totalVolume":{"status":"-","label":"neutral"},"totalBalance":{"status":"-","label":"neutral"}}},"godzillaId":null,"slugs":{"wax":"nft-panda-world-of-fantasy"},"logo":"https:\/\/dashboard-assets.dappradar.com\/document\/10308\/nftpandaworldoffantasy-dapp-games-wax-logo-50x50_20241dfd84470694f45ec540a40074b8.png","deepLink":"https:\/\/dappradar.com\/deeplink\/10308","mobileFriendly":false,"featured":false,"protocols":["wax"],"activeProtocols":["wax"],"category":"games","tracked":true},{"id":7055,"name":"Pangolin Exchange","slug":"pangolin-exchange","new":false,"statistic":{"balance":0.05,"balanceInFiat":4.49,"totalBalanceInFiat":4.49,"graph":"https:\/\/s3.amazonaws.com\/dapp-activity.dappradar.com\/avalanche_7055_3c885986949f4f1f14fe188aacb8b758.png","exchangeRate":1,"currencyName":"usd","transactionCount":10930,"userActivity":4005,"volumeInFiat":11676959.15,"totalVolumeInFiat":11676959.15,"totalVolumeChangeInFiat":-14.65,"changes":{"dau":{"status":"-15.47%","label":"negative"},"volume":{"status":"-29.29%","label":"negative"},"tx":{"status":"-22.72%","label":"negative"},"tokenVolume":{"status":"-","label":"neutral"},"totalVolume":{"status":"-14.64%","label":"negative"},"totalBalance":{"status":"-","label":"neutral"}}},"godzillaId":null,"slugs":{"avalanche":"pangolin-exchange"},"logo":"https:\/\/dashboard-assets.dappradar.com\/document\/7055\/pangolinexchange-dapp-defi-avalanche-logo-50x50_6ea4c088a7cd6dcae3c30a051d0684d0.png","deepLink":"https:\/\/dappradar.com\/deeplink\/7055","mobileFriendly":false,"featured":false,"protocols":["avalanche"],"activeProtocols":["avalanche"],"category":"defi","tracked":true},{"id":8972,"name":"Dice Planet","slug":"dice-planet","new":false,"statistic":{"balance":1588101,"balanceInFiat":20310.29,"totalBalanceInFiat":20310.29,"graph":"https:\/\/s3.amazonaws.com\/dapp-activity.dappradar.com\/thundercore_8972_766e62435de703c24f62d857dc833f07.png","exchangeRate":1,"currencyName":"usd","transactionCount":6325,"userActivity":3983,"volumeInFiat":3694.91,"totalVolumeInFiat":3694.91,"totalVolumeChangeInFiat":3.73,"changes":{"dau":{"status":"+3.27%","label":"positive"},"volume":{"status":"+7.46%","label":"positive"},"tx":{"status":"-11.98%","label":"negative"},"tokenVolume":{"status":"-","label":"neutral"},"totalVolume":{"status":"+3.73%","label":"positive"},"totalBalance":{"status":"-","label":"neutral"}}},"godzillaId":null,"slugs":{"thundercore":"dice-planet"},"logo":"https:\/\/dashboard-assets.dappradar.com\/document\/8972\/diceplanet-dapp-gambling-thundercore-logo-50x50_066159405a007a61c556e8f5191be9b9.png","deepLink":"https:\/\/dappradar.com\/deeplink\/8972","mobileFriendly":false,"featured":false,"protocols":["thundercore"],"activeProtocols":["thundercore"],"category":"gambling","tracked":true},{"id":7357,"name":"Hic et Nunc","slug":"hic-et-nunc","new":false,"statistic":{"balance":22.45351,"balanceInFiat":128.21,"totalBalanceInFiat":128.21,"graph":"https:\/\/s3.amazonaws.com\/dapp-activity.dappradar.com\/tezos_7357_ece1c96676f1026dc838a02ad3d73adf.png","exchangeRate":1,"currencyName":"usd","transactionCount":22513,"userActivity":3951,"volumeInFiat":99028.48,"totalVolumeInFiat":99028.48,"totalVolumeChangeInFiat":-14.07,"changes":{"dau":{"status":"+3.48%","label":"positive"},"volume":{"status":"-28.13%","label":"negative"},"tx":{"status":"+5.63%","label":"positive"},"tokenVolume":{"status":"-","label":"neutral"},"totalVolume":{"status":"-14.06%","label":"negative"},"totalBalance":{"status":"-","label":"neutral"}}},"godzillaId":null,"slugs":{"tezos":"hic-et-nunc"},"logo":"https:\/\/dashboard-assets.dappradar.com\/document\/7357\/hicetnunc-dapp-marketplaces-tezos-logo-50x50_04e8e99ff9e01febbed2f4c69f8b9f19.png","deepLink":"https:\/\/dappradar.com\/deeplink\/7357","mobileFriendly":false,"featured":false,"protocols":["tezos"],"activeProtocols":["tezos"],"category":"marketplaces","tracked":false},{"id":6874,"name":"NeftyBlocks","slug":"neftyblocks","new":false,"statistic":{"balance":0,"balanceInFiat":0,"totalBalanceInFiat":0,"graph":"https:\/\/s3.amazonaws.com\/dapp-activity.dappradar.com\/wax_6874_11dcae47f9ac191e03f635f9c6bf8b9a.png","exchangeRate":1,"currencyName":"usd","transactionCount":13764,"userActivity":3941,"volumeInFiat":61927.77,"totalVolumeInFiat":61927.77,"totalVolumeChangeInFiat":193.3,"changes":{"dau":{"status":"-9.94%","label":"negative"},"volume":{"status":"+386.59%","label":"positive"},"tx":{"status":"-1.61%","label":"negative"},"tokenVolume":{"status":"-","label":"neutral"},"totalVolume":{"status":"+193.29%","label":"positive"},"totalBalance":{"status":"-","label":"neutral"}}},"godzillaId":null,"slugs":{"wax":"neftyblocks"},"logo":"https:\/\/dashboard-assets.dappradar.com\/document\/6874\/neftyblocks-dapp-marketplaces-wax-logo-50x50_9086a2f0e5612c5ef6754acf5c33e402.png","deepLink":"https:\/\/dappradar.com\/deeplink\/6874","mobileFriendly":false,"featured":false,"protocols":["wax"],"activeProtocols":["wax"],"category":"marketplaces","tracked":true},{"id":8014,"name":"ShibaSwap","slug":"shibaswap","new":false,"statistic":{"balance":181.25947080368,"balanceInFiat":103499.16,"totalBalanceInFiat":1958956892.1399999,"graph":"https:\/\/s3.amazonaws.com\/dapp-activity.dappradar.com\/ethereum_8014_738537cd27586f85b9b98154930fef8b.png","exchangeRate":1,"currencyName":"usd","transactionCount":6706,"userActivity":3924,"volumeInFiat":0,"totalVolumeInFiat":2981768.23,"totalVolumeChangeInFiat":41.78,"changes":{"dau":{"status":"+12.78%","label":"positive"},"volume":{"status":"-2.32%","label":"negative"},"tx":{"status":"+8.05%","label":"positive"},"tokenVolume":{"status":"+85.88%","label":"positive"},"totalVolume":{"status":"+41.78%","label":"positive"},"totalBalance":{"status":"-0.78%","label":"negative"}}},"godzillaId":null,"slugs":{"ethereum":"shibaswap","binance-smart-chain":"shibaswap-1"},"logo":"https:\/\/dashboard-assets.dappradar.com\/document\/8014\/shibaswap-dapp-defi-ethereum-logo-50x50_e87fa74f86cfe276d16ae5259d1c10ea.png","deepLink":"https:\/\/dappradar.com\/deeplink\/8014","mobileFriendly":false,"featured":false,"protocols":["ethereum","binance-smart-chain"],"activeProtocols":["ethereum","binance-smart-chain"],"category":"defi","tracked":true},{"id":9095,"name":"Mars Ecosystem","slug":"mars-ecosystem","new":false,"statistic":{"balance":0,"balanceInFiat":0,"totalBalanceInFiat":11619238.38,"graph":"https:\/\/s3.amazonaws.com\/dapp-activity.dappradar.com\/bsc_9095_78e13d715d66919be4312d1d919bc569.png","exchangeRate":1,"currencyName":"usd","transactionCount":6955,"userActivity":3751,"volumeInFiat":1512795.6,"totalVolumeInFiat":46223521.22,"totalVolumeChangeInFiat":106.54,"changes":{"dau":{"status":"+12.37%","label":"positive"},"volume":{"status":"+170.93%","label":"positive"},"tx":{"status":"+12.14%","label":"positive"},"tokenVolume":{"status":"+42.14%","label":"positive"},"totalVolume":{"status":"+106.53%","label":"positive"},"totalBalance":{"status":"-12.66%","label":"negative"}}},"godzillaId":null,"slugs":{"binance-smart-chain":"mars-ecosystem"},"logo":"https:\/\/dashboard-assets.dappradar.com\/document\/9095\/marsecosystem-dapp-defi-bsc-logo-50x50_34439940e9559156943baabafe0ef6c8.png","deepLink":"https:\/\/dappradar.com\/deeplink\/9095","mobileFriendly":false,"featured":false,"protocols":["binance-smart-chain"],"activeProtocols":["binance-smart-chain"],"category":"defi","tracked":true},{"id":6969,"name":"Nine Chronicles","slug":"nine-chronicles","new":false,"statistic":{"balance":0,"balanceInFiat":0,"totalBalanceInFiat":0,"graph":"https:\/\/s3.amazonaws.com\/dapp-activity.dappradar.com\/other_6969_ab3dbeaee69a66a0f8c5079e8e16d4f4.png","exchangeRate":1,"currencyName":"usd","transactionCount":126832,"userActivity":3704,"volumeInFiat":1381884.34,"totalVolumeInFiat":1381884.34,"totalVolumeChangeInFiat":105.75,"changes":{"dau":{"status":"+7.08%","label":"positive"},"volume":{"status":"+211.50%","label":"positive"},"tx":{"status":"+3.69%","label":"positive"},"tokenVolume":{"status":"-","label":"neutral"},"totalVolume":{"status":"+105.75%","label":"positive"},"totalBalance":{"status":"-","label":"neutral"}}},"godzillaId":null,"slugs":{"other":"nine-chronicles"},"logo":"https:\/\/dashboard-assets.dappradar.com\/document\/6969\/ninechronicles-dapp-games-other-logo-50x50_59d66f054d090e69595858b1d78afa8f.png","deepLink":"https:\/\/dappradar.com\/deeplink\/6969","mobileFriendly":false,"featured":false,"protocols":["other"],"activeProtocols":["other"],"category":"games","tracked":false},{"id":10575,"name":"CryptoPlanes","slug":"cryptoplanes","new":false,"statistic":{"balance":0,"balanceInFiat":0,"totalBalanceInFiat":14350.03,"graph":"https:\/\/s3.amazonaws.com\/dapp-activity.dappradar.com\/bsc_10575_8282ec5a557c35656b1320fa79cf652a.png","exchangeRate":1,"currencyName":"usd","transactionCount":9517,"userActivity":3638,"volumeInFiat":0,"totalVolumeInFiat":663.51,"totalVolumeChangeInFiat":150.67,"changes":{"dau":{"status":"+36.25%","label":"positive"},"volume":{"status":"-","label":"neutral"},"tx":{"status":"+30.93%","label":"positive"},"tokenVolume":{"status":"+301.34%","label":"positive"},"totalVolume":{"status":"+150.67%","label":"positive"},"totalBalance":{"status":"-1.34%","label":"negative"}}},"godzillaId":null,"slugs":{"binance-smart-chain":"cryptoplanes"},"logo":"https:\/\/dashboard-assets.dappradar.com\/document\/10575\/cryptoplanes-dapp-games-bsc-logo-50x50_a4201a9e13bfe267041a3c573516da09.png","deepLink":"https:\/\/dappradar.com\/deeplink\/10575","mobileFriendly":false,"featured":false,"protocols":["binance-smart-chain"],"activeProtocols":["binance-smart-chain"],"category":"games","tracked":true},{"id":3340,"name":"Aave","slug":"aave","new":false,"statistic":{"balance":18707.380328998,"balanceInFiat":80287025.38,"totalBalanceInFiat":177668575.07999998,"graph":"https:\/\/s3.amazonaws.com\/dapp-activity.dappradar.com\/ethereum_3340_57b9be2ea947ffe87d9d34d02cd3aeaf.png","exchangeRate":1,"currencyName":"usd","transactionCount":6706,"userActivity":3316,"volumeInFiat":58796.7,"totalVolumeInFiat":34972828.16,"totalVolumeChangeInFiat":617.84,"changes":{"dau":{"status":"+15.00%","label":"positive"},"volume":{"status":"+1255.52%","label":"positive"},"tx":{"status":"+9.28%","label":"positive"},"tokenVolume":{"status":"-19.83%","label":"negative"},"totalVolume":{"status":"+617.84%","label":"positive"},"totalBalance":{"status":"-0.16%","label":"negative"}}},"godzillaId":1823,"slugs":{"ethereum":"aave","avalanche":"aave","polygon":"aave"},"logo":"https:\/\/dashboard-assets.dappradar.com\/document\/3340\/aave-marketplaces-eth-logo-50x50_7cd48aeb25a32d2acf96d1f6104f9a6a.png","deepLink":"https:\/\/dappradar.com\/deeplink\/3340","mobileFriendly":false,"featured":false,"protocols":["ethereum","avalanche","polygon"],"activeProtocols":["ethereum","avalanche","polygon"],"category":"defi","tracked":true}],"ad":{"title":"VodkaToken","text":"\u0421ollectible Play-to-Earn NFT game based on DeFi. ","image":"\/2021\/11\/19\/619779cb3b8d5Screenshot-2021-11-19-at-12.17.37.png","url":"https:\/\/vodkatoken.com\/?utm_source=DappRadar\u0026utm_medium=deeplink\u0026utm_campaign=visit-website","label":"BUY VODKA TOKEN!","geo":null}}