{"page":8,"resultsPerPage":25,"pageCount":340,"resultCount":8485,"dapps":[{"id":11004,"name":"The Dynasty","slug":"the-dynasty","new":false,"statistic":{"balance":5.4602327168146,"balanceInFiat":3117.79,"totalBalanceInFiat":9130.8,"graph":"https:\/\/s3.amazonaws.com\/dapp-activity.dappradar.com\/bsc_11004_49e9acae9337a809829251dd5e562f12.png","exchangeRate":1,"currencyName":"usd","transactionCount":8,"userActivity":450,"volumeInFiat":0,"totalVolumeInFiat":10025.18,"totalVolumeChangeInFiat":-49.06,"changes":{"dau":{"status":"-5.06%","label":"negative"},"volume":{"status":"-100.00%","label":"negative"},"tx":{"status":"-42.86%","label":"negative"},"tokenVolume":{"status":"+1.88%","label":"positive"},"totalVolume":{"status":"-49.06%","label":"negative"},"totalBalance":{"status":"+274.44%","label":"positive"}}},"godzillaId":null,"logo":"https:\/\/dashboard-assets.dappradar.com\/document\/11004\/thedynasty-dapp-games-bsc-logo-50x50_c490369840e47d596e27f6cdadb15e5e.png","deepLink":"https:\/\/www.thedynasty.app\/","mobileFriendly":false,"featured":true,"slugs":{"binance-smart-chain":"the-dynasty"},"protocols":["binance-smart-chain"],"activeProtocols":["binance-smart-chain"],"category":"games","tracked":true},{"id":8371,"name":"LZ Swap","slug":"lz-swap","new":false,"statistic":{"balance":0,"balanceInFiat":0,"totalBalanceInFiat":625.63,"graph":"https:\/\/s3.amazonaws.com\/dapp-activity.dappradar.com\/bsc_8371_09f0c20b24bfb5258ddd97c508361e3a.png","exchangeRate":1,"currencyName":"usd","transactionCount":1090,"userActivity":576,"volumeInFiat":164601.57,"totalVolumeInFiat":164601.57,"totalVolumeChangeInFiat":144.92,"changes":{"dau":{"status":"-35.50%","label":"negative"},"volume":{"status":"+289.84%","label":"positive"},"tx":{"status":"-19.38%","label":"negative"},"tokenVolume":{"status":"-","label":"neutral"},"totalVolume":{"status":"+144.92%","label":"positive"},"totalBalance":{"status":"-0.17%","label":"negative"}}},"godzillaId":null,"slugs":{"binance-smart-chain":"lz-swap"},"logo":"https:\/\/dashboard-assets.dappradar.com\/document\/8371\/lzswap-dapp-exchanges-bsc-logo-50x50_42afd2b313238be14337ec02f7769cf7.png","deepLink":"https:\/\/dappradar.com\/deeplink\/8371","mobileFriendly":false,"featured":false,"protocols":["binance-smart-chain"],"activeProtocols":["binance-smart-chain"],"category":"exchanges","tracked":true},{"id":2151,"name":"Crypto Dynasty (EOS)","slug":"crypto-dynasty-eos","new":false,"statistic":{"balance":2418.8624,"balanceInFiat":7667.79,"totalBalanceInFiat":7772.93,"graph":"https:\/\/s3.amazonaws.com\/dapp-activity.dappradar.com\/eos_2151_8b47177d0919a9297f0f4bb2c4ab5ff6.png","exchangeRate":1,"currencyName":"usd","transactionCount":12679,"userActivity":574,"volumeInFiat":185.37,"totalVolumeInFiat":185.37,"totalVolumeChangeInFiat":49.83,"changes":{"dau":{"status":"+12.11%","label":"positive"},"volume":{"status":"+99.65%","label":"positive"},"tx":{"status":"+48.87%","label":"positive"},"tokenVolume":{"status":"-","label":"neutral"},"totalVolume":{"status":"+49.83%","label":"positive"},"totalBalance":{"status":"-","label":"neutral"}}},"godzillaId":1059,"slugs":{"eos":"crypto-dynasty-eos"},"logo":"https:\/\/dashboard-assets.dappradar.com\/document\/2151\/cryptodynastyeos-dapp-games-eos-logo-50x50_aaf48643211031a4a0f5f79dbebe5b05.png","deepLink":"https:\/\/dappradar.com\/deeplink\/2151","mobileFriendly":false,"featured":false,"protocols":["eos"],"activeProtocols":["eos"],"category":"games","tracked":true},{"id":6621,"name":"NFTb","slug":"nftb","new":false,"statistic":{"balance":11.6665,"balanceInFiat":6661.57,"totalBalanceInFiat":16545926.33,"graph":"https:\/\/s3.amazonaws.com\/dapp-activity.dappradar.com\/bsc_6621_bd4e3efed097dcec2028f8c7aa19dd2d.png","exchangeRate":1,"currencyName":"usd","transactionCount":905,"userActivity":566,"volumeInFiat":2090.19,"totalVolumeInFiat":607323.12,"totalVolumeChangeInFiat":7.25,"changes":{"dau":{"status":"+12.75%","label":"positive"},"volume":{"status":"+19.66%","label":"positive"},"tx":{"status":"+3.67%","label":"positive"},"tokenVolume":{"status":"-5.16%","label":"negative"},"totalVolume":{"status":"+7.25%","label":"positive"},"totalBalance":{"status":"+3901.79%","label":"positive"}}},"godzillaId":null,"slugs":{"binance-smart-chain":"nftb"},"logo":"https:\/\/dashboard-assets.dappradar.com\/document\/6621\/nftb-dapp-marketplaces-bsc-logo-50x50_9becc2b2586f70f5b494471011e0036a.png","deepLink":"https:\/\/dappradar.com\/deeplink\/6621","mobileFriendly":false,"featured":false,"protocols":["binance-smart-chain"],"activeProtocols":["binance-smart-chain"],"category":"marketplaces","tracked":true},{"id":11488,"name":"Buffer Finance","slug":"buffer-finance-1","new":true,"statistic":{"balance":0,"balanceInFiat":0,"totalBalanceInFiat":773547.28,"graph":"https:\/\/s3.amazonaws.com\/dapp-activity.dappradar.com\/bsc_11488_9c059030c07808bff7edd7e96188c293.png","exchangeRate":1,"currencyName":"usd","transactionCount":0,"userActivity":564,"volumeInFiat":0,"totalVolumeInFiat":3979117.83,"totalVolumeChangeInFiat":0.6,"changes":{"dau":{"status":"+17.01%","label":"positive"},"volume":{"status":"-","label":"neutral"},"tx":{"status":"-","label":"neutral"},"tokenVolume":{"status":"+1.19%","label":"positive"},"totalVolume":{"status":"+0.59%","label":"positive"},"totalBalance":{"status":"+0.57%","label":"positive"}}},"godzillaId":null,"slugs":{"binance-smart-chain":"buffer-finance-1"},"logo":"https:\/\/dashboard-assets.dappradar.com\/document\/11488\/bufferfinance-dapp-defi-bsc-logo-50x50_12ae2fe36be88a8dbf2dc8a22a019e35.png","deepLink":"https:\/\/dappradar.com\/deeplink\/11488","mobileFriendly":false,"featured":false,"protocols":["binance-smart-chain"],"activeProtocols":["binance-smart-chain"],"category":"defi","tracked":true},{"id":6717,"name":"QiDao","slug":"qidao","new":false,"statistic":{"balance":4526315.0365128,"balanceInFiat":10138945.68,"totalBalanceInFiat":227943178.16,"graph":"https:\/\/s3.amazonaws.com\/dapp-activity.dappradar.com\/matic_6717_1340322e3daa96b93aeb044194457197.png","exchangeRate":1,"currencyName":"usd","transactionCount":1310,"userActivity":560,"volumeInFiat":327131,"totalVolumeInFiat":1270628.1,"totalVolumeChangeInFiat":40.23,"changes":{"dau":{"status":"+2.56%","label":"positive"},"volume":{"status":"+30.09%","label":"positive"},"tx":{"status":"+14.71%","label":"positive"},"tokenVolume":{"status":"+50.36%","label":"positive"},"totalVolume":{"status":"+40.23%","label":"positive"},"totalBalance":{"status":"+1.33%","label":"positive"}}},"godzillaId":null,"slugs":{"polygon":"qidao"},"logo":"https:\/\/dashboard-assets.dappradar.com\/document\/6717\/qidao-dapp-defi-matic-logo-50x50_f7c56c48d995cc21cf1959df8096ac4d.png","deepLink":"https:\/\/dappradar.com\/deeplink\/6717","mobileFriendly":false,"featured":false,"protocols":["polygon"],"activeProtocols":["polygon"],"category":"defi","tracked":true},{"id":10225,"name":"Bunicorn Game","slug":"bunicorn-game","new":false,"statistic":{"balance":0,"balanceInFiat":0,"totalBalanceInFiat":19106.31,"graph":"https:\/\/s3.amazonaws.com\/dapp-activity.dappradar.com\/bsc_10225_8608d86105220cdae07c729e0ca9b7d8.png","exchangeRate":1,"currencyName":"usd","transactionCount":1262,"userActivity":557,"volumeInFiat":0,"totalVolumeInFiat":0,"totalVolumeChangeInFiat":-50,"changes":{"dau":{"status":"+3.92%","label":"positive"},"volume":{"status":"-","label":"neutral"},"tx":{"status":"+10.80%","label":"positive"},"tokenVolume":{"status":"-100.00%","label":"negative"},"totalVolume":{"status":"-50.00%","label":"negative"},"totalBalance":{"status":"-2.17%","label":"negative"}}},"godzillaId":null,"slugs":{"binance-smart-chain":"bunicorn-game"},"logo":"https:\/\/dashboard-assets.dappradar.com\/document\/10225\/bunicorngame-dapp-games-bsc-logo-50x50_a6d59e508da7b58f8a86bf6684ece66a.png","deepLink":"https:\/\/dappradar.com\/deeplink\/10225","mobileFriendly":false,"featured":false,"protocols":["binance-smart-chain"],"activeProtocols":["binance-smart-chain"],"category":"games","tracked":true},{"id":1713,"name":"HEX","slug":"hex","new":false,"statistic":{"balance":3.9633758133618,"balanceInFiat":17009.74,"totalBalanceInFiat":3683044.38,"graph":"https:\/\/s3.amazonaws.com\/dapp-activity.dappradar.com\/ethereum_1713_6f185a0c4e760407ced91f020914b97f.png","exchangeRate":1,"currencyName":"usd","transactionCount":800,"userActivity":555,"volumeInFiat":294.04,"totalVolumeInFiat":10273.85,"totalVolumeChangeInFiat":0,"changes":{"dau":{"status":"-3.48%","label":"negative"},"volume":{"status":"-","label":"neutral"},"tx":{"status":"-4.19%","label":"negative"},"tokenVolume":{"status":"-","label":"neutral"},"totalVolume":{"status":"-","label":"neutral"},"totalBalance":{"status":"-0.57%","label":"negative"}}},"godzillaId":1747,"slugs":{"ethereum":"hex"},"logo":"https:\/\/dashboard-assets.dappradar.com\/document\/1713\/hex-dapp-high-risk-eth-logo-50x50_dc6054e32412980028857f9dd699394c.png","deepLink":"https:\/\/dappradar.com\/deeplink\/1713","mobileFriendly":false,"featured":false,"protocols":["ethereum"],"activeProtocols":["ethereum"],"category":"defi","tracked":true},{"id":10616,"name":"Larix","slug":"larix","new":false,"statistic":{"balance":63968.709426188,"balanceInFiat":12028036.43,"totalBalanceInFiat":201314967.32,"graph":"https:\/\/s3.amazonaws.com\/dapp-activity.dappradar.com\/solana_10616_130245061659d3ce79b06223584bc6cd.png","exchangeRate":1,"currencyName":"usd","transactionCount":0,"userActivity":555,"volumeInFiat":0,"totalVolumeInFiat":12556080.94,"totalVolumeChangeInFiat":-4.47,"changes":{"dau":{"status":"-20.26%","label":"negative"},"volume":{"status":"-","label":"neutral"},"tx":{"status":"-","label":"neutral"},"tokenVolume":{"status":"-8.93%","label":"negative"},"totalVolume":{"status":"-4.46%","label":"negative"},"totalBalance":{"status":"-1.33%","label":"negative"}}},"godzillaId":null,"slugs":{"solana":"larix"},"logo":"https:\/\/dashboard-assets.dappradar.com\/document\/10616\/larix-dapp-defi-solana-logo-50x50_ef931139c37d752491be2e643e6cccb3.png","deepLink":"https:\/\/dappradar.com\/deeplink\/10616","mobileFriendly":false,"featured":false,"protocols":["solana"],"activeProtocols":["solana"],"category":"defi","tracked":true},{"id":11179,"name":"KnightSwap","slug":"knightswap","new":true,"statistic":{"balance":0,"balanceInFiat":0,"totalBalanceInFiat":3812541.78,"graph":"https:\/\/s3.amazonaws.com\/dapp-activity.dappradar.com\/bsc_11179_ec23e6b8d6307c66ae8ce8972de7f129.png","exchangeRate":1,"currencyName":"usd","transactionCount":2259,"userActivity":551,"volumeInFiat":441257.9,"totalVolumeInFiat":1787949.44,"totalVolumeChangeInFiat":135.85,"changes":{"dau":{"status":"+5.15%","label":"positive"},"volume":{"status":"+106.46%","label":"positive"},"tx":{"status":"+6.36%","label":"positive"},"tokenVolume":{"status":"+165.23%","label":"positive"},"totalVolume":{"status":"+135.84%","label":"positive"},"totalBalance":{"status":"+3.15%","label":"positive"}}},"godzillaId":null,"slugs":{"binance-smart-chain":"knightswap"},"logo":"https:\/\/dashboard-assets.dappradar.com\/document\/11179\/knightswap-dapp-exchanges-bsc-logo-50x50_df29bb4af9be314f842da5c78c3f0032.png","deepLink":"https:\/\/dappradar.com\/deeplink\/11179","mobileFriendly":false,"featured":false,"protocols":["binance-smart-chain"],"activeProtocols":["binance-smart-chain"],"category":"exchanges","tracked":true},{"id":10823,"name":"Mysterium VPN","slug":"mysterium-vpn","new":false,"statistic":{"balance":0,"balanceInFiat":0,"totalBalanceInFiat":0,"graph":"https:\/\/s3.amazonaws.com\/dapp-activity.dappradar.com\/matic_10823_4fde9a7d5939f64ff2c53404231860e0.png","exchangeRate":1,"currencyName":"usd","transactionCount":2844,"userActivity":545,"volumeInFiat":0,"totalVolumeInFiat":0,"totalVolumeChangeInFiat":0,"changes":{"dau":{"status":"-26.45%","label":"negative"},"volume":{"status":"-","label":"neutral"},"tx":{"status":"-14.21%","label":"negative"},"tokenVolume":{"status":"-","label":"neutral"},"totalVolume":{"status":"-","label":"neutral"},"totalBalance":{"status":"-","label":"neutral"}}},"godzillaId":null,"slugs":{"polygon":"mysterium-vpn"},"logo":"https:\/\/dashboard-assets.dappradar.com\/document\/10823\/mysteriumvpn-dapp-other-matic-logo-50x50_82b764af4fad6fe425c132282e69fa45.png","deepLink":"https:\/\/dappradar.com\/deeplink\/10823","mobileFriendly":false,"featured":false,"protocols":["polygon"],"activeProtocols":["polygon"],"category":"other","tracked":true},{"id":9853,"name":"Olympus DAO","slug":"olympus-dao","new":false,"statistic":{"balance":0,"balanceInFiat":0,"totalBalanceInFiat":25696575727.98,"graph":"https:\/\/s3.amazonaws.com\/dapp-activity.dappradar.com\/ethereum_9853_482eb9f3885080e78b9429d9a4e35bfb.png","exchangeRate":1,"currencyName":"usd","transactionCount":542,"userActivity":529,"volumeInFiat":0,"totalVolumeInFiat":54974320.78,"totalVolumeChangeInFiat":-17.71,"changes":{"dau":{"status":"-21.63%","label":"negative"},"volume":{"status":"-","label":"neutral"},"tx":{"status":"-22.79%","label":"negative"},"tokenVolume":{"status":"-35.41%","label":"negative"},"totalVolume":{"status":"-17.70%","label":"negative"},"totalBalance":{"status":"-2.12%","label":"negative"}}},"godzillaId":null,"slugs":{"ethereum":"olympus-dao"},"logo":"https:\/\/dashboard-assets.dappradar.com\/document\/9853\/olympusdao-dapp-defi-ethereum-logo-50x50_6ca73c7ab7235851a3dc63d5432ce5ae.png","deepLink":"https:\/\/dappradar.com\/deeplink\/9853","mobileFriendly":false,"featured":false,"protocols":["ethereum"],"activeProtocols":["ethereum"],"category":"defi","tracked":true},{"id":3394,"name":"Brain Warp","slug":"brain-warp","new":false,"statistic":{"balance":12943.576209152,"balanceInFiat":165.54,"totalBalanceInFiat":165.54,"graph":"https:\/\/s3.amazonaws.com\/dapp-activity.dappradar.com\/thundercore_3394_53c7117a859e98861ac1a641fed81d0d.png","exchangeRate":1,"currencyName":"usd","transactionCount":559,"userActivity":525,"volumeInFiat":7.25,"totalVolumeInFiat":7.25,"totalVolumeChangeInFiat":10.45,"changes":{"dau":{"status":"+22.66%","label":"positive"},"volume":{"status":"+20.89%","label":"positive"},"tx":{"status":"+21.52%","label":"positive"},"tokenVolume":{"status":"-","label":"neutral"},"totalVolume":{"status":"+10.45%","label":"positive"},"totalBalance":{"status":"-","label":"neutral"}}},"godzillaId":19,"slugs":{"thundercore":"brain-warp"},"logo":"https:\/\/dashboard-assets.dappradar.com\/document\/3394\/brain-warp-games-thundercore-logo-50x50_bf06ba9ed15a3e63260e335ce43d7a0e.png","deepLink":"https:\/\/dappradar.com\/deeplink\/3394","mobileFriendly":false,"featured":false,"protocols":["thundercore"],"activeProtocols":["thundercore"],"category":"games","tracked":true},{"id":10090,"name":"Gswap by Gravis Finance","slug":"gswap-by-gravis-finance","new":false,"statistic":{"balance":0,"balanceInFiat":0,"totalBalanceInFiat":755991.2200000001,"graph":"https:\/\/s3.amazonaws.com\/dapp-activity.dappradar.com\/bsc_10090_2ca524f6b57970c97199050016f1b7b4.png","exchangeRate":1,"currencyName":"usd","transactionCount":550,"userActivity":523,"volumeInFiat":673.64,"totalVolumeInFiat":39745.28,"totalVolumeChangeInFiat":106.72,"changes":{"dau":{"status":"+1.52%","label":"positive"},"volume":{"status":"+201.90%","label":"positive"},"tx":{"status":"+15.89%","label":"positive"},"tokenVolume":{"status":"+11.54%","label":"positive"},"totalVolume":{"status":"+106.72%","label":"positive"},"totalBalance":{"status":"-0.14%","label":"negative"}}},"godzillaId":null,"slugs":{"binance-smart-chain":"gswap-by-gravis-finance","polygon":"gswap-by-gravis-finance","other":"gswap-by-gravis-finance"},"logo":"https:\/\/dashboard-assets.dappradar.com\/document\/10090\/gswap-dapp-exchanges-bsc-logo-50x50_30072d5d4d532e256fbe7dd3486f1ebd.png","deepLink":"https:\/\/dappradar.com\/deeplink\/10090","mobileFriendly":false,"featured":false,"protocols":["binance-smart-chain","polygon","other"],"activeProtocols":["binance-smart-chain","polygon","other"],"category":"exchanges","tracked":true},{"id":5814,"name":"Alpaca Finance","slug":"alpaca-finance","new":false,"statistic":{"balance":3.010693145,"balanceInFiat":1719.11,"totalBalanceInFiat":79215536.95,"graph":"https:\/\/s3.amazonaws.com\/dapp-activity.dappradar.com\/bsc_5814_de697d44014995d03b7ba73e0aff20ff.png","exchangeRate":1,"currencyName":"usd","transactionCount":790,"userActivity":521,"volumeInFiat":1512128.76,"totalVolumeInFiat":17255786.72,"totalVolumeChangeInFiat":-55.33,"changes":{"dau":{"status":"-28.04%","label":"negative"},"volume":{"status":"-91.14%","label":"negative"},"tx":{"status":"-38.18%","label":"negative"},"tokenVolume":{"status":"-19.52%","label":"negative"},"totalVolume":{"status":"-55.33%","label":"negative"},"totalBalance":{"status":"-4.50%","label":"negative"}}},"godzillaId":null,"slugs":{"binance-smart-chain":"alpaca-finance"},"logo":"https:\/\/dashboard-assets.dappradar.com\/document\/5814\/alpacafinance-dapp-defi-bsc-logo-50x50_89aca3679c1bf1dbbe229ecceb2e16b5.png","deepLink":"https:\/\/dappradar.com\/deeplink\/5814","mobileFriendly":false,"featured":false,"protocols":["binance-smart-chain"],"activeProtocols":["binance-smart-chain"],"category":"defi","tracked":true},{"id":10448,"name":"MaticVerse","slug":"maticverse","new":false,"statistic":{"balance":7.1126506955249,"balanceInFiat":4061.32,"totalBalanceInFiat":6750.35,"graph":"https:\/\/s3.amazonaws.com\/dapp-activity.dappradar.com\/bsc_10448_1c33c45ea3a6a8fb23b57e557434bd07.png","exchangeRate":1,"currencyName":"usd","transactionCount":60,"userActivity":520,"volumeInFiat":0,"totalVolumeInFiat":35237.85,"totalVolumeChangeInFiat":-8.62,"changes":{"dau":{"status":"-10.96%","label":"negative"},"volume":{"status":"-","label":"neutral"},"tx":{"status":"+11.11%","label":"positive"},"tokenVolume":{"status":"-17.23%","label":"negative"},"totalVolume":{"status":"-8.62%","label":"negative"},"totalBalance":{"status":"-1.07%","label":"negative"}}},"godzillaId":null,"slugs":{"binance-smart-chain":"maticverse"},"logo":"https:\/\/dashboard-assets.dappradar.com\/document\/10448\/maticverse-dapp-games-bsc-logo-50x50_7d72d8e1fe15ed4a4956614242369da4.png","deepLink":"https:\/\/dappradar.com\/deeplink\/10448","mobileFriendly":false,"featured":false,"protocols":["binance-smart-chain"],"activeProtocols":["binance-smart-chain"],"category":"games","tracked":true},{"id":6781,"name":"Sorbet Finance by Gelato","slug":"sorbet-finance-by-gelato","new":false,"statistic":{"balance":97866.12537158,"balanceInFiat":219220.12,"totalBalanceInFiat":219220.12,"graph":"https:\/\/s3.amazonaws.com\/dapp-activity.dappradar.com\/matic_6781_39031937f78f178974b997bee83e9c12.png","exchangeRate":1,"currencyName":"usd","transactionCount":650,"userActivity":515,"volumeInFiat":203892.32,"totalVolumeInFiat":344972.58,"totalVolumeChangeInFiat":31.81,"changes":{"dau":{"status":"-1.34%","label":"negative"},"volume":{"status":"+125.36%","label":"positive"},"tx":{"status":"-2.84%","label":"negative"},"tokenVolume":{"status":"-61.74%","label":"negative"},"totalVolume":{"status":"+31.81%","label":"positive"},"totalBalance":{"status":"-","label":"neutral"}}},"godzillaId":null,"slugs":{"polygon":"sorbet-finance-by-gelato"},"logo":"https:\/\/dashboard-assets.dappradar.com\/document\/6781\/sorbetfinancebygelato-dapp-defi-matic-logo-50x50_f4c8e5a50284f660aa25a40e5bc709cf.png","deepLink":"https:\/\/dappradar.com\/deeplink\/6781","mobileFriendly":false,"featured":false,"protocols":["polygon"],"activeProtocols":["polygon"],"category":"defi","tracked":true},{"id":7826,"name":"Ellipsis Finance","slug":"ellipsis-finance","new":false,"statistic":{"balance":0,"balanceInFiat":0,"totalBalanceInFiat":66798466.67,"graph":"https:\/\/s3.amazonaws.com\/dapp-activity.dappradar.com\/bsc_7826_62570053e72506db050bcccde8c014bd.png","exchangeRate":1,"currencyName":"usd","transactionCount":1057,"userActivity":514,"volumeInFiat":0,"totalVolumeInFiat":262971.43,"totalVolumeChangeInFiat":-41.19,"changes":{"dau":{"status":"-6.72%","label":"negative"},"volume":{"status":"-","label":"neutral"},"tx":{"status":"-4.00%","label":"negative"},"tokenVolume":{"status":"-82.38%","label":"negative"},"totalVolume":{"status":"-41.19%","label":"negative"},"totalBalance":{"status":"-2.33%","label":"negative"}}},"godzillaId":null,"slugs":{"binance-smart-chain":"ellipsis-finance"},"logo":"https:\/\/dashboard-assets.dappradar.com\/document\/7826\/ellipsisfinance-dapp-defi-bsc-logo-50x50_79408ef2fb9eded6b0e21a8958b7865e.png","deepLink":"https:\/\/dappradar.com\/deeplink\/7826","mobileFriendly":false,"featured":false,"protocols":["binance-smart-chain"],"activeProtocols":["binance-smart-chain"],"category":"defi","tracked":true},{"id":3551,"name":"Curve","slug":"curve","new":false,"statistic":{"balance":546802.82679731,"balanceInFiat":2346730095.85,"totalBalanceInFiat":12070606160.17,"graph":"https:\/\/s3.amazonaws.com\/dapp-activity.dappradar.com\/ethereum_3551_20450e7ff57c48c63cbaf66368f8b9b0.png","exchangeRate":1,"currencyName":"usd","transactionCount":1218,"userActivity":502,"volumeInFiat":4385881.77,"totalVolumeInFiat":265861928,"totalVolumeChangeInFiat":-15.11,"changes":{"dau":{"status":"-4.23%","label":"negative"},"volume":{"status":"-18.34%","label":"negative"},"tx":{"status":"-9.77%","label":"negative"},"tokenVolume":{"status":"-11.88%","label":"negative"},"totalVolume":{"status":"-15.11%","label":"negative"},"totalBalance":{"status":"-0.05%","label":"negative"}}},"godzillaId":1911,"slugs":{"ethereum":"curve","avalanche":"curve","polygon":"curve"},"logo":"https:\/\/dashboard-assets.dappradar.com\/document\/3551\/curve-dapp-exchanges-eth-logo-50x50_ebc37b9cb02ecd59dbc97bf00f87e378.png","deepLink":"https:\/\/dappradar.com\/deeplink\/3551","mobileFriendly":false,"featured":false,"protocols":["ethereum","avalanche","polygon"],"activeProtocols":["ethereum","avalanche","polygon"],"category":"defi","tracked":true},{"id":7034,"name":"Jetswap","slug":"jetswap","new":false,"statistic":{"balance":0,"balanceInFiat":0,"totalBalanceInFiat":1985077.71,"graph":"https:\/\/s3.amazonaws.com\/dapp-activity.dappradar.com\/bsc_7034_593619ba2b2fde2a4012cc5221cc4e25.png","exchangeRate":1,"currencyName":"usd","transactionCount":795,"userActivity":501,"volumeInFiat":29095.59,"totalVolumeInFiat":134373.04,"totalVolumeChangeInFiat":-32.92,"changes":{"dau":{"status":"+11.43%","label":"positive"},"volume":{"status":"-55.19%","label":"negative"},"tx":{"status":"+7.96%","label":"positive"},"tokenVolume":{"status":"-10.66%","label":"negative"},"totalVolume":{"status":"-32.92%","label":"negative"},"totalBalance":{"status":"-0.44%","label":"negative"}}},"godzillaId":null,"slugs":{"binance-smart-chain":"jetswap","polygon":"jetswap"},"logo":"https:\/\/dashboard-assets.dappradar.com\/document\/7034\/jetswap-dapp-exchanges-bsc-logo-50x50_8537cbf634dd09c59699059d76ec49fe.png","deepLink":"https:\/\/dappradar.com\/deeplink\/7034","mobileFriendly":false,"featured":false,"protocols":["binance-smart-chain","polygon"],"activeProtocols":["binance-smart-chain","polygon"],"category":"exchanges","tracked":true},{"id":10085,"name":"Devikins","slug":"devikins","new":false,"statistic":{"balance":1588.934886,"balanceInFiat":144.97,"totalBalanceInFiat":144.97,"graph":"https:\/\/s3.amazonaws.com\/dapp-activity.dappradar.com\/tron_10085_bbc8710fe7f8ea52fcbbb31020be374f.png","exchangeRate":1,"currencyName":"usd","transactionCount":1442,"userActivity":501,"volumeInFiat":0,"totalVolumeInFiat":0,"totalVolumeChangeInFiat":0,"changes":{"dau":{"status":"-3.65%","label":"negative"},"volume":{"status":"-","label":"neutral"},"tx":{"status":"-1.77%","label":"negative"},"tokenVolume":{"status":"-","label":"neutral"},"totalVolume":{"status":"-","label":"neutral"},"totalBalance":{"status":"-","label":"neutral"}}},"godzillaId":null,"slugs":{"tron":"devikins"},"logo":"https:\/\/dashboard-assets.dappradar.com\/document\/10085\/devikins-dapp-games-tron-logo-50x50_e4949134a9408665ed47e5e6cc40d6ae.png","deepLink":"https:\/\/dappradar.com\/deeplink\/10085","mobileFriendly":false,"featured":false,"protocols":["tron"],"activeProtocols":["tron"],"category":"games","tracked":true},{"id":7448,"name":"PixelPotus","slug":"pixelpotus","new":false,"statistic":{"balance":1319.617,"balanceInFiat":7535.01,"totalBalanceInFiat":7535.01,"graph":"https:\/\/s3.amazonaws.com\/dapp-activity.dappradar.com\/tezos_7448_74b74f3236d91bed8166b73472c56583.png","exchangeRate":1,"currencyName":"usd","transactionCount":2038,"userActivity":497,"volumeInFiat":269.49,"totalVolumeInFiat":269.49,"totalVolumeChangeInFiat":-21.74,"changes":{"dau":{"status":"+49.70%","label":"positive"},"volume":{"status":"-43.48%","label":"negative"},"tx":{"status":"+65.02%","label":"positive"},"tokenVolume":{"status":"-","label":"neutral"},"totalVolume":{"status":"-21.74%","label":"negative"},"totalBalance":{"status":"-","label":"neutral"}}},"godzillaId":null,"slugs":{"tezos":"pixelpotus"},"logo":"https:\/\/dashboard-assets.dappradar.com\/document\/7448\/pixelpotus-dapp-collectibles-tezos-logo-50x50_2a2894dd33f15171bd481c80bc104407.png","deepLink":"https:\/\/dappradar.com\/deeplink\/7448","mobileFriendly":false,"featured":false,"protocols":["tezos"],"activeProtocols":["tezos"],"category":"collectibles","tracked":false},{"id":8905,"name":"LEONICORN SWAP","slug":"leonicorn-swap","new":false,"statistic":{"balance":0,"balanceInFiat":0,"totalBalanceInFiat":22082900.95,"graph":"https:\/\/s3.amazonaws.com\/dapp-activity.dappradar.com\/bsc_8905_45f22e2709658eae07681c17dfb452ce.png","exchangeRate":1,"currencyName":"usd","transactionCount":895,"userActivity":475,"volumeInFiat":34624.46,"totalVolumeInFiat":339381.96,"totalVolumeChangeInFiat":-18.79,"changes":{"dau":{"status":"+5.09%","label":"positive"},"volume":{"status":"-35.99%","label":"negative"},"tx":{"status":"+6.17%","label":"positive"},"tokenVolume":{"status":"-1.59%","label":"negative"},"totalVolume":{"status":"-18.79%","label":"negative"},"totalBalance":{"status":"-1.12%","label":"negative"}}},"godzillaId":null,"slugs":{"binance-smart-chain":"leonicorn-swap"},"logo":"https:\/\/dashboard-assets.dappradar.com\/document\/8905\/leonicornswap-dapp-defi-bsc-logo-50x50_45ee80b99db570d8bdb6ef82dfd3862b.png","deepLink":"https:\/\/dappradar.com\/deeplink\/8905","mobileFriendly":false,"featured":false,"protocols":["binance-smart-chain"],"activeProtocols":["binance-smart-chain"],"category":"defi","tracked":true},{"id":7052,"name":"Lydia Finance","slug":"lydia-finance","new":false,"statistic":{"balance":0,"balanceInFiat":0,"totalBalanceInFiat":0,"graph":"https:\/\/s3.amazonaws.com\/dapp-activity.dappradar.com\/avalanche_7052_ec3235994f27ba14f15bac8f204171fc.png","exchangeRate":1,"currencyName":"usd","transactionCount":911,"userActivity":473,"volumeInFiat":153854.18,"totalVolumeInFiat":153854.18,"totalVolumeChangeInFiat":13.68,"changes":{"dau":{"status":"-","label":"neutral"},"volume":{"status":"+27.36%","label":"positive"},"tx":{"status":"+8.32%","label":"positive"},"tokenVolume":{"status":"-","label":"neutral"},"totalVolume":{"status":"+13.68%","label":"positive"},"totalBalance":{"status":"-","label":"neutral"}}},"godzillaId":null,"slugs":{"avalanche":"lydia-finance"},"logo":"https:\/\/dashboard-assets.dappradar.com\/document\/7052\/lydiafinance-dapp-defi-avalanche-logo-50x50_a440b3c984cb0dfaa5feb0d2af4642cb.png","deepLink":"https:\/\/dappradar.com\/deeplink\/7052","mobileFriendly":false,"featured":false,"protocols":["avalanche"],"activeProtocols":["avalanche"],"category":"defi","tracked":true},{"id":6054,"name":"ComethSwap","slug":"comethswap","new":false,"statistic":{"balance":0,"balanceInFiat":0,"totalBalanceInFiat":2243643.14,"graph":"https:\/\/s3.amazonaws.com\/dapp-activity.dappradar.com\/matic_6054_350212d664d84ac1c8f61c0fd18bf5fd.png","exchangeRate":1,"currencyName":"usd","transactionCount":515,"userActivity":472,"volumeInFiat":13969.03,"totalVolumeInFiat":150575.1,"totalVolumeChangeInFiat":12.49,"changes":{"dau":{"status":"+11.06%","label":"positive"},"volume":{"status":"+33.17%","label":"positive"},"tx":{"status":"-14.45%","label":"negative"},"tokenVolume":{"status":"-8.20%","label":"negative"},"totalVolume":{"status":"+12.48%","label":"positive"},"totalBalance":{"status":"+0.23%","label":"positive"}}},"godzillaId":null,"slugs":{"polygon":"comethswap"},"logo":"https:\/\/dashboard-assets.dappradar.com\/document\/6054\/comethswap-dapp-exchanges-matic-logo-50x50_4288eb8427cef442ef832eebb6c355e8.png","deepLink":"https:\/\/dappradar.com\/deeplink\/6054","mobileFriendly":false,"featured":false,"protocols":["polygon"],"activeProtocols":["polygon"],"category":"exchanges","tracked":true},{"id":5134,"name":"Decentral Games","slug":"decentral-games","new":false,"statistic":{"balance":0,"balanceInFiat":0,"totalBalanceInFiat":747889.43,"graph":"https:\/\/s3.amazonaws.com\/dapp-activity.dappradar.com\/matic_5134_e394454f904c0d9498b8a32f3d1caeb4.png","exchangeRate":1,"currencyName":"usd","transactionCount":1562,"userActivity":468,"volumeInFiat":0,"totalVolumeInFiat":1941971.89,"totalVolumeChangeInFiat":13.95,"changes":{"dau":{"status":"+1.96%","label":"positive"},"volume":{"status":"-","label":"neutral"},"tx":{"status":"+1.76%","label":"positive"},"tokenVolume":{"status":"+27.89%","label":"positive"},"totalVolume":{"status":"+13.95%","label":"positive"},"totalBalance":{"status":"+3.04%","label":"positive"}}},"godzillaId":null,"slugs":{"polygon":"decentral-games"},"logo":"https:\/\/dashboard-assets.dappradar.com\/document\/5134\/decentralgames-dapp-gambling-matic-logo-50x50_53d0def5478f516da3de001a4f675c62.png","deepLink":"https:\/\/dappradar.com\/deeplink\/5134","mobileFriendly":false,"featured":false,"protocols":["polygon"],"activeProtocols":["polygon"],"category":"gambling","tracked":true}],"ad":{"title":"ForthBox","text":"Free to get a Ham NFT and share 1,000,000 FBX from ForthBox. 1000%+ APY Here!","image":"\/2021\/12\/03\/61a9ffca613f4ForthBox.jpg","url":" https:\/\/www.forthbox.io\/#\/minting","label":"Buy Ham NFT Now!","geo":{"backup":{"url":"","text":"","label":"","title":""}}}}