{"page":6,"resultsPerPage":25,"pageCount":340,"resultCount":8485,"dapps":[{"id":11096,"name":"NFT Craft","slug":"nft-craft","new":false,"statistic":{"balance":0,"balanceInFiat":0,"totalBalanceInFiat":37802.69,"graph":"https:\/\/s3.amazonaws.com\/dapp-activity.dappradar.com\/matic_11096_f9c16e5b1d1faf36eedcdae6ee24b256.png","exchangeRate":1,"currencyName":"usd","transactionCount":102,"userActivity":35,"volumeInFiat":0,"totalVolumeInFiat":2396,"totalVolumeChangeInFiat":328.12,"changes":{"dau":{"status":"+218.18%","label":"positive"},"volume":{"status":"-","label":"neutral"},"tx":{"status":"+500.00%","label":"positive"},"tokenVolume":{"status":"+656.24%","label":"positive"},"totalVolume":{"status":"+328.12%","label":"positive"},"totalBalance":{"status":"+1.11%","label":"positive"}}},"godzillaId":null,"logo":"https:\/\/dashboard-assets.dappradar.com\/document\/11096\/nftcraftgame-dapp-games-matic-logo-50x50_f18a76939d00227d52f3e16dc6de46c8.png","deepLink":"https:\/\/nftcraft.game\/?utm_source=dappradar","mobileFriendly":false,"featured":true,"slugs":{"polygon":"nft-craft"},"protocols":["polygon"],"activeProtocols":["polygon"],"category":"games","tracked":true},{"id":9814,"name":"Dinosaur Eggs","slug":"dinosaur-eggs","new":false,"statistic":{"balance":0,"balanceInFiat":0,"totalBalanceInFiat":33937811.55,"graph":"https:\/\/s3.amazonaws.com\/dapp-activity.dappradar.com\/bsc_9814_0aa9549a96cb22b010261d87a65ad8b4.png","exchangeRate":1,"currencyName":"usd","transactionCount":2222,"userActivity":1176,"volumeInFiat":1144919.79,"totalVolumeInFiat":7138068.56,"totalVolumeChangeInFiat":761.68,"changes":{"dau":{"status":"+64.25%","label":"positive"},"volume":{"status":"+1319.00%","label":"positive"},"tx":{"status":"+145.52%","label":"positive"},"tokenVolume":{"status":"+204.36%","label":"positive"},"totalVolume":{"status":"+761.68%","label":"positive"},"totalBalance":{"status":"+24.75%","label":"positive"}}},"godzillaId":null,"slugs":{"binance-smart-chain":"dinosaur-eggs"},"logo":"https:\/\/dashboard-assets.dappradar.com\/document\/9814\/dinosaureggs-dapp-marketplaces-bsc-logo-50x50_748c3723c7f079b910073692f5cda5ac.png","deepLink":"https:\/\/dappradar.com\/deeplink\/9814","mobileFriendly":false,"featured":false,"protocols":["binance-smart-chain"],"activeProtocols":["binance-smart-chain"],"category":"marketplaces","tracked":true},{"id":10971,"name":"Train of the Century","slug":"train-of-the-century","new":false,"statistic":{"balance":0,"balanceInFiat":0,"totalBalanceInFiat":0,"graph":"https:\/\/s3.amazonaws.com\/dapp-activity.dappradar.com\/wax_10971_a6d43464e246305f225853ee257e297f.png","exchangeRate":1,"currencyName":"usd","transactionCount":18432,"userActivity":1175,"volumeInFiat":0,"totalVolumeInFiat":0,"totalVolumeChangeInFiat":0,"changes":{"dau":{"status":"-0.59%","label":"negative"},"volume":{"status":"-","label":"neutral"},"tx":{"status":"-0.68%","label":"negative"},"tokenVolume":{"status":"-","label":"neutral"},"totalVolume":{"status":"-","label":"neutral"},"totalBalance":{"status":"-","label":"neutral"}}},"godzillaId":null,"slugs":{"wax":"train-of-the-century"},"logo":"https:\/\/dashboard-assets.dappradar.com\/document\/10971\/trainofthecentury-dapp-games-wax-logo-50x50_cd9a9632f914fc2c30a77b2b217ea453.png","deepLink":"https:\/\/dappradar.com\/deeplink\/10971","mobileFriendly":false,"featured":false,"protocols":["wax"],"activeProtocols":["wax"],"category":"games","tracked":true},{"id":8769,"name":"StarCrazy","slug":"starcrazy","new":false,"statistic":{"balance":0,"balanceInFiat":0,"totalBalanceInFiat":0,"graph":"https:\/\/s3.amazonaws.com\/dapp-activity.dappradar.com\/iotex_8769_9e57d1d0ee2104d7c323dc6d0c0693ef.png","exchangeRate":1,"currencyName":"usd","transactionCount":27167,"userActivity":1149,"volumeInFiat":0,"totalVolumeInFiat":0,"totalVolumeChangeInFiat":0,"changes":{"dau":{"status":"+0.88%","label":"positive"},"volume":{"status":"-","label":"neutral"},"tx":{"status":"+0.26%","label":"positive"},"tokenVolume":{"status":"-","label":"neutral"},"totalVolume":{"status":"-","label":"neutral"},"totalBalance":{"status":"-","label":"neutral"}}},"godzillaId":null,"slugs":{"iotex":"starcrazy"},"logo":"https:\/\/dashboard-assets.dappradar.com\/document\/8769\/linkstar-dapp-games-iotex-logo-50x50_17ec32b38ef4dc9049f51fdc817d69f0.png","deepLink":"https:\/\/dappradar.com\/deeplink\/8769","mobileFriendly":false,"featured":false,"protocols":["iotex"],"activeProtocols":["iotex"],"category":"games","tracked":true},{"id":10052,"name":"BXH","slug":"bxh","new":false,"statistic":{"balance":0,"balanceInFiat":0,"totalBalanceInFiat":0,"graph":"https:\/\/s3.amazonaws.com\/dapp-activity.dappradar.com\/okexchain_10052_6ae9d430d0c996c49a5505a1911ffb8b.png","exchangeRate":1,"currencyName":"usd","transactionCount":1072,"userActivity":1148,"volumeInFiat":0,"totalVolumeInFiat":0,"totalVolumeChangeInFiat":0,"changes":{"dau":{"status":"-2.13%","label":"negative"},"volume":{"status":"-","label":"neutral"},"tx":{"status":"-1.56%","label":"negative"},"tokenVolume":{"status":"-","label":"neutral"},"totalVolume":{"status":"-","label":"neutral"},"totalBalance":{"status":"-","label":"neutral"}}},"godzillaId":null,"slugs":{"okexchain":"bxh"},"logo":"https:\/\/dashboard-assets.dappradar.com\/document\/10052\/bxh-dapp-exchanges-okexchain-logo-50x50_d92ef7ba599acd4a467408ea428b4e1e.png","deepLink":"https:\/\/dappradar.com\/deeplink\/10052","mobileFriendly":false,"featured":false,"protocols":["okexchain"],"activeProtocols":["okexchain"],"category":"exchanges","tracked":true},{"id":9128,"name":"Mirandus","slug":"mirandus","new":false,"statistic":{"balance":0,"balanceInFiat":0,"totalBalanceInFiat":45338.57,"graph":"https:\/\/s3.amazonaws.com\/dapp-activity.dappradar.com\/ethereum_9128_7eab8bb2e02133231c33fc65a1f1820a.png","exchangeRate":1,"currencyName":"usd","transactionCount":5367,"userActivity":1120,"volumeInFiat":0,"totalVolumeInFiat":0,"totalVolumeChangeInFiat":0,"changes":{"dau":{"status":"+180.00%","label":"positive"},"volume":{"status":"-","label":"neutral"},"tx":{"status":"+164.51%","label":"positive"},"tokenVolume":{"status":"-","label":"neutral"},"totalVolume":{"status":"-","label":"neutral"},"totalBalance":{"status":"-0.28%","label":"negative"}}},"godzillaId":null,"slugs":{"ethereum":"mirandus"},"logo":"https:\/\/dashboard-assets.dappradar.com\/document\/9128\/mirandus-dapp-games-ethereum-logo-50x50_755119e94886f7c171549a9059fd0c54.png","deepLink":"https:\/\/dappradar.com\/deeplink\/9128","mobileFriendly":false,"featured":false,"protocols":["ethereum"],"activeProtocols":["ethereum"],"category":"games","tracked":true},{"id":8543,"name":"Mimoswap v2","slug":"mimoswap-v2","new":false,"statistic":{"balance":0,"balanceInFiat":0,"totalBalanceInFiat":0,"graph":"https:\/\/s3.amazonaws.com\/dapp-activity.dappradar.com\/iotex_8543_dd7506c1e0ced1a7795045c79e22f6e5.png","exchangeRate":1,"currencyName":"usd","transactionCount":3828,"userActivity":1047,"volumeInFiat":205197.23,"totalVolumeInFiat":205197.23,"totalVolumeChangeInFiat":-18.16,"changes":{"dau":{"status":"+8.16%","label":"positive"},"volume":{"status":"-36.31%","label":"negative"},"tx":{"status":"+0.98%","label":"positive"},"tokenVolume":{"status":"-","label":"neutral"},"totalVolume":{"status":"-18.16%","label":"negative"},"totalBalance":{"status":"-","label":"neutral"}}},"godzillaId":null,"slugs":{"iotex":"mimoswap-v2"},"logo":"https:\/\/dashboard-assets.dappradar.com\/document\/8543\/mimoswapv2-dapp-exchanges-iotex-logo-50x50_bd98c0ad2655f5b7625f119af6f6d069.png","deepLink":"https:\/\/dappradar.com\/deeplink\/8543","mobileFriendly":false,"featured":false,"protocols":["iotex"],"activeProtocols":["iotex"],"category":"exchanges","tracked":true},{"id":9969,"name":"HeroCatGamefi","slug":"herocatgamefi","new":false,"statistic":{"balance":62.82779235,"balanceInFiat":35874.67,"totalBalanceInFiat":5705252.55,"graph":"https:\/\/s3.amazonaws.com\/dapp-activity.dappradar.com\/bsc_9969_6f74cc319016a7197d2e743ee4280367.png","exchangeRate":1,"currencyName":"usd","transactionCount":2472,"userActivity":1040,"volumeInFiat":0,"totalVolumeInFiat":114947.44,"totalVolumeChangeInFiat":-11.82,"changes":{"dau":{"status":"-29.54%","label":"negative"},"volume":{"status":"-","label":"neutral"},"tx":{"status":"+0.41%","label":"positive"},"tokenVolume":{"status":"-23.64%","label":"negative"},"totalVolume":{"status":"-11.82%","label":"negative"},"totalBalance":{"status":"-0.12%","label":"negative"}}},"godzillaId":null,"slugs":{"binance-smart-chain":"herocatgamefi"},"logo":"https:\/\/dashboard-assets.dappradar.com\/document\/9969\/herocatgamefi-dapp-games-bsc-logo-50x50_92f1d37978f959fedccc21bc21a568ed.png","deepLink":"https:\/\/dappradar.com\/deeplink\/9969","mobileFriendly":false,"featured":false,"protocols":["binance-smart-chain"],"activeProtocols":["binance-smart-chain"],"category":"games","tracked":true},{"id":8882,"name":"Vulcan Market","slug":"vulcan-market","new":false,"statistic":{"balance":0,"balanceInFiat":0,"totalBalanceInFiat":0,"graph":"https:\/\/s3.amazonaws.com\/dapp-activity.dappradar.com\/vulcanforged_8882_dc69c9ac384c4afe88143590e537c0a2.png","exchangeRate":1,"currencyName":"usd","transactionCount":1292,"userActivity":1010,"volumeInFiat":126538.3,"totalVolumeInFiat":126538.3,"totalVolumeChangeInFiat":-29.05,"changes":{"dau":{"status":"+6.43%","label":"positive"},"volume":{"status":"-58.09%","label":"negative"},"tx":{"status":"+4.28%","label":"positive"},"tokenVolume":{"status":"-","label":"neutral"},"totalVolume":{"status":"-29.05%","label":"negative"},"totalBalance":{"status":"-","label":"neutral"}}},"godzillaId":null,"slugs":{"vulcanforged":"vulcan-market"},"logo":"https:\/\/dashboard-assets.dappradar.com\/document\/8882\/vulcanmarket-dapp-marketplaces-vulcanforged-logo-50x50_6afce3b11fc9a9e11576558bff35b790.png","deepLink":"https:\/\/dappradar.com\/deeplink\/8882","mobileFriendly":false,"featured":false,"protocols":["vulcanforged"],"activeProtocols":["vulcanforged"],"category":"marketplaces","tracked":true},{"id":9777,"name":"Celestial","slug":"celestial","new":false,"statistic":{"balance":5.916210512683,"balanceInFiat":348.46,"totalBalanceInFiat":66670.40000000001,"graph":"https:\/\/s3.amazonaws.com\/dapp-activity.dappradar.com\/okexchain_9777_25690841578e8299c27435f2d771496d.png","exchangeRate":1,"currencyName":"usd","transactionCount":6464,"userActivity":976,"volumeInFiat":10.69,"totalVolumeInFiat":392.36,"totalVolumeChangeInFiat":1.34,"changes":{"dau":{"status":"-1.09%","label":"negative"},"volume":{"status":"+16.73%","label":"positive"},"tx":{"status":"-27.32%","label":"negative"},"tokenVolume":{"status":"-14.05%","label":"negative"},"totalVolume":{"status":"+1.34%","label":"positive"},"totalBalance":{"status":"-0.07%","label":"negative"}}},"godzillaId":null,"slugs":{"okexchain":"celestial","binance-smart-chain":"celestial"},"logo":"https:\/\/dashboard-assets.dappradar.com\/document\/9777\/celestial-dapp-games-okexchain-logo-50x50_f481909e78c3fda3810f7d1552efe885.png","deepLink":"https:\/\/dappradar.com\/deeplink\/9777","mobileFriendly":false,"featured":false,"protocols":["okexchain","binance-smart-chain"],"activeProtocols":["okexchain","binance-smart-chain"],"category":"games","tracked":true},{"id":11138,"name":"Beast Garden","slug":"beast-garden","new":false,"statistic":{"balance":0,"balanceInFiat":0,"totalBalanceInFiat":0,"graph":"https:\/\/s3.amazonaws.com\/dapp-activity.dappradar.com\/wax_11138_8f8397fced9567dea5e594921efdb77d.png","exchangeRate":1,"currencyName":"usd","transactionCount":6434,"userActivity":968,"volumeInFiat":0,"totalVolumeInFiat":0,"totalVolumeChangeInFiat":0,"changes":{"dau":{"status":"-","label":"neutral"},"volume":{"status":"-","label":"neutral"},"tx":{"status":"-0.77%","label":"negative"},"tokenVolume":{"status":"-","label":"neutral"},"totalVolume":{"status":"-","label":"neutral"},"totalBalance":{"status":"-","label":"neutral"}}},"godzillaId":null,"slugs":{"wax":"beast-garden"},"logo":"https:\/\/dashboard-assets.dappradar.com\/document\/11138\/beastgarden-dapp-games-wax-logo-50x50_0dddbd167ddfc34300ff1242f5978969.png","deepLink":"https:\/\/dappradar.com\/deeplink\/11138","mobileFriendly":false,"featured":false,"protocols":["wax"],"activeProtocols":["wax"],"category":"games","tracked":true},{"id":5966,"name":"Foundation","slug":"foundation","new":false,"statistic":{"balance":173.51499,"balanceInFiat":749543.11,"totalBalanceInFiat":751250.78,"graph":"https:\/\/s3.amazonaws.com\/dapp-activity.dappradar.com\/ethereum_5966_ab0f4b32b032acb48a2f29b0ff9d7706.png","exchangeRate":1,"currencyName":"usd","transactionCount":1907,"userActivity":945,"volumeInFiat":1011808.74,"totalVolumeInFiat":1011808.74,"totalVolumeChangeInFiat":8.79,"changes":{"dau":{"status":"+28.05%","label":"positive"},"volume":{"status":"+17.58%","label":"positive"},"tx":{"status":"+21.54%","label":"positive"},"tokenVolume":{"status":"-","label":"neutral"},"totalVolume":{"status":"+8.79%","label":"positive"},"totalBalance":{"status":"+0.43%","label":"positive"}}},"godzillaId":null,"slugs":{"ethereum":"foundation"},"logo":"https:\/\/dashboard-assets.dappradar.com\/document\/5966\/foundation-dapp-collectibles-ethereum-logo-50x50_435a26f0bedb656a8c99647ce28af49f.png","deepLink":"https:\/\/dappradar.com\/deeplink\/5966","mobileFriendly":false,"featured":false,"protocols":["ethereum"],"activeProtocols":["ethereum"],"category":"marketplaces","tracked":true},{"id":8414,"name":"Forsage BUSD","slug":"forsage-busd","new":false,"statistic":{"balance":0,"balanceInFiat":0,"totalBalanceInFiat":10.06,"graph":"https:\/\/s3.amazonaws.com\/dapp-activity.dappradar.com\/bsc_8414_a949347e2244ccd4984511245e2096ed.png","exchangeRate":1,"currencyName":"usd","transactionCount":2214,"userActivity":918,"volumeInFiat":0,"totalVolumeInFiat":50865.69,"totalVolumeChangeInFiat":-1.93,"changes":{"dau":{"status":"+2.57%","label":"positive"},"volume":{"status":"-","label":"neutral"},"tx":{"status":"+4.73%","label":"positive"},"tokenVolume":{"status":"-3.86%","label":"negative"},"totalVolume":{"status":"-1.93%","label":"negative"},"totalBalance":{"status":"-0.17%","label":"negative"}}},"godzillaId":null,"slugs":{"binance-smart-chain":"forsage-busd"},"logo":"https:\/\/dashboard-assets.dappradar.com\/document\/8414\/forsagebusd-dapp-high-risk-bsc-logo-50x50_a6806d867e19aa6ad5e447c1c8d72d7f.png","deepLink":"https:\/\/dappradar.com\/deeplink\/8414","mobileFriendly":false,"featured":false,"protocols":["binance-smart-chain"],"activeProtocols":["binance-smart-chain"],"category":"high-risk","tracked":true},{"id":10335,"name":"Port Finance","slug":"port-finance","new":false,"statistic":{"balance":123871.91027619,"balanceInFiat":23291635.29,"totalBalanceInFiat":165787148.92,"graph":"https:\/\/s3.amazonaws.com\/dapp-activity.dappradar.com\/solana_10335_46230922d6764aeb250bf5d367f51cb5.png","exchangeRate":1,"currencyName":"usd","transactionCount":1305,"userActivity":906,"volumeInFiat":0,"totalVolumeInFiat":21937256.66,"totalVolumeChangeInFiat":0.25,"changes":{"dau":{"status":"-15.33%","label":"negative"},"volume":{"status":"-","label":"neutral"},"tx":{"status":"+0.15%","label":"positive"},"tokenVolume":{"status":"+0.50%","label":"positive"},"totalVolume":{"status":"+0.25%","label":"positive"},"totalBalance":{"status":"-0.49%","label":"negative"}}},"godzillaId":null,"slugs":{"solana":"port-finance"},"logo":"https:\/\/dashboard-assets.dappradar.com\/document\/10335\/portfinance-dapp-defi-solana-logo-50x50_cd14465cf84f66244af61106d9fd8b9b.png","deepLink":"https:\/\/dappradar.com\/deeplink\/10335","mobileFriendly":false,"featured":false,"protocols":["solana"],"activeProtocols":["solana"],"category":"defi","tracked":true},{"id":7822,"name":"Mirror","slug":"mirror","new":false,"statistic":{"balance":0,"balanceInFiat":0,"totalBalanceInFiat":326049.45,"graph":"https:\/\/s3.amazonaws.com\/dapp-activity.dappradar.com\/ethereum_7822_3c04a2ff7448e39f205d2386bdeb8480.png","exchangeRate":1,"currencyName":"usd","transactionCount":1142,"userActivity":901,"volumeInFiat":0,"totalVolumeInFiat":0,"totalVolumeChangeInFiat":-50,"changes":{"dau":{"status":"-13.97%","label":"negative"},"volume":{"status":"-","label":"neutral"},"tx":{"status":"-17.18%","label":"negative"},"tokenVolume":{"status":"-100.00%","label":"negative"},"totalVolume":{"status":"-50.00%","label":"negative"},"totalBalance":{"status":"+0.47%","label":"positive"}}},"godzillaId":null,"slugs":{"ethereum":"mirror","binance-smart-chain":"mirror"},"logo":"https:\/\/dashboard-assets.dappradar.com\/document\/7822\/mirror-dapp-defi-ethereum-logo-50x50_1eb757f467d042c9daec4ee380c440fd.png","deepLink":"https:\/\/dappradar.com\/deeplink\/7822","mobileFriendly":false,"featured":false,"protocols":["ethereum","binance-smart-chain"],"activeProtocols":["ethereum","binance-smart-chain"],"category":"defi","tracked":true},{"id":11221,"name":"SpaceCraftX","slug":"spacecraftx","new":true,"statistic":{"balance":0,"balanceInFiat":0,"totalBalanceInFiat":0,"graph":"https:\/\/s3.amazonaws.com\/dapp-activity.dappradar.com\/wax_11221_861185f14844b493f56171494575b97b.png","exchangeRate":1,"currencyName":"usd","transactionCount":71105,"userActivity":886,"volumeInFiat":0,"totalVolumeInFiat":0,"totalVolumeChangeInFiat":0,"changes":{"dau":{"status":"+7.39%","label":"positive"},"volume":{"status":"-","label":"neutral"},"tx":{"status":"+0.93%","label":"positive"},"tokenVolume":{"status":"-","label":"neutral"},"totalVolume":{"status":"-","label":"neutral"},"totalBalance":{"status":"-","label":"neutral"}}},"godzillaId":null,"slugs":{"wax":"spacecraftx"},"logo":"https:\/\/dashboard-assets.dappradar.com\/document\/11221\/spacecraftx-dapp-games-wax-logo-50x50_19891981fb2f332283147f10234f5301.png","deepLink":"https:\/\/dappradar.com\/deeplink\/11221","mobileFriendly":false,"featured":false,"protocols":["wax"],"activeProtocols":["wax"],"category":"games","tracked":true},{"id":6775,"name":"PolyLion","slug":"polylion","new":false,"statistic":{"balance":0,"balanceInFiat":0,"totalBalanceInFiat":2171788.62,"graph":"https:\/\/s3.amazonaws.com\/dapp-activity.dappradar.com\/matic_6775_9a95aafbaee4aacd49af8f0dc50192e9.png","exchangeRate":1,"currencyName":"usd","transactionCount":3678,"userActivity":880,"volumeInFiat":0,"totalVolumeInFiat":86304.11,"totalVolumeChangeInFiat":31.35,"changes":{"dau":{"status":"-1.12%","label":"negative"},"volume":{"status":"-","label":"neutral"},"tx":{"status":"-4.19%","label":"negative"},"tokenVolume":{"status":"+31.35%","label":"positive"},"totalVolume":{"status":"+31.35%","label":"positive"},"totalBalance":{"status":"+3.89%","label":"positive"}}},"godzillaId":null,"slugs":{"polygon":"polylion"},"logo":"https:\/\/dashboard-assets.dappradar.com\/document\/6775\/polylion-dapp-defi-matic-logo-50x50_e2de3f90a24c0ac5be97a805393b192f.png","deepLink":"https:\/\/dappradar.com\/deeplink\/6775","mobileFriendly":false,"featured":false,"protocols":["polygon"],"activeProtocols":["polygon"],"category":"defi","tracked":true},{"id":623,"name":"0xUniverse","slug":"0xuniverse","new":false,"statistic":{"balance":772.753493890168,"balanceInFiat":84203.98999999999,"totalBalanceInFiat":86378.51,"graph":"https:\/\/s3.amazonaws.com\/dapp-activity.dappradar.com\/ethereum_623_c5ef466b39d61a031b2eee6c026aa143.png","exchangeRate":1,"currencyName":"usd","transactionCount":2664,"userActivity":877,"volumeInFiat":0,"totalVolumeInFiat":302.07,"totalVolumeChangeInFiat":7.76,"changes":{"dau":{"status":"-","label":"neutral"},"volume":{"status":"+15.52%","label":"positive"},"tx":{"status":"+6.85%","label":"positive"},"tokenVolume":{"status":"-","label":"neutral"},"totalVolume":{"status":"+7.76%","label":"positive"},"totalBalance":{"status":"-0.65%","label":"negative"}}},"godzillaId":644,"slugs":{"ethereum":"0xuniverse","polygon":"0xuniverse"},"logo":"https:\/\/dashboard-assets.dappradar.com\/document\/623\/0xuniverse-dapp-games-eth-logo-50x50_f7d5c45fc153342ccd2fcd691ab784ac.png","deepLink":"https:\/\/dappradar.com\/deeplink\/623","mobileFriendly":false,"featured":false,"protocols":["ethereum","polygon"],"activeProtocols":["ethereum","polygon"],"category":"games","tracked":true},{"id":6402,"name":"Polychain Monsters","slug":"polychain-monsters","new":false,"statistic":{"balance":0.07661986,"balanceInFiat":43.75,"totalBalanceInFiat":5721850.859999999,"graph":"https:\/\/s3.amazonaws.com\/dapp-activity.dappradar.com\/ethereum_6402_857ce8c20ac850fee23eee51eb101e3c.png","exchangeRate":1,"currencyName":"usd","transactionCount":3868,"userActivity":851,"volumeInFiat":0,"totalVolumeInFiat":78066.76000000001,"totalVolumeChangeInFiat":40.8,"changes":{"dau":{"status":"+68.75%","label":"positive"},"volume":{"status":"-","label":"neutral"},"tx":{"status":"+78.05%","label":"positive"},"tokenVolume":{"status":"+81.59%","label":"positive"},"totalVolume":{"status":"+40.80%","label":"positive"},"totalBalance":{"status":"-1.62%","label":"negative"}}},"godzillaId":null,"slugs":{"ethereum":"polychain-monsters","binance-smart-chain":"polychain-monsters"},"logo":"https:\/\/dashboard-assets.dappradar.com\/document\/6402\/polychainmonsters-dapp-collectibles-ethereum-logo-50x50_d9e2498b03752cd64a36630e643f81a4.png","deepLink":"https:\/\/dappradar.com\/deeplink\/6402","mobileFriendly":false,"featured":false,"protocols":["ethereum","binance-smart-chain"],"activeProtocols":["ethereum","binance-smart-chain"],"category":"collectibles","tracked":true},{"id":8791,"name":"Idle Mystic","slug":"idle-mystic","new":false,"statistic":{"balance":12.400281265596,"balanceInFiat":27.78,"totalBalanceInFiat":205943.13,"graph":"https:\/\/s3.amazonaws.com\/dapp-activity.dappradar.com\/matic_8791_9f9cb92415fe5ace7d53912370ac7585.png","exchangeRate":1,"currencyName":"usd","transactionCount":2825,"userActivity":836,"volumeInFiat":0,"totalVolumeInFiat":2748.34,"totalVolumeChangeInFiat":-23.53,"changes":{"dau":{"status":"-14.08%","label":"negative"},"volume":{"status":"-","label":"neutral"},"tx":{"status":"-24.75%","label":"negative"},"tokenVolume":{"status":"-47.05%","label":"negative"},"totalVolume":{"status":"-23.52%","label":"negative"},"totalBalance":{"status":"-0.47%","label":"negative"}}},"godzillaId":null,"slugs":{"polygon":"idle-mystic"},"logo":"https:\/\/dashboard-assets.dappradar.com\/document\/8791\/idlemystic-dapp-games-matic-logo-50x50_a76a87b381ba7b0977a073bdb5ce07a7.png","deepLink":"https:\/\/dappradar.com\/deeplink\/8791","mobileFriendly":false,"featured":false,"protocols":["polygon"],"activeProtocols":["polygon"],"category":"games","tracked":true},{"id":9212,"name":"EpicHero","slug":"epichero","new":false,"statistic":{"balance":63.634714326969,"balanceInFiat":36335.42,"totalBalanceInFiat":415964680.11,"graph":"https:\/\/s3.amazonaws.com\/dapp-activity.dappradar.com\/bsc_9212_59df7655dead8f25e846ac48234d16da.png","exchangeRate":1,"currencyName":"usd","transactionCount":4228,"userActivity":827,"volumeInFiat":0,"totalVolumeInFiat":215460.35,"totalVolumeChangeInFiat":-22.27,"changes":{"dau":{"status":"-23.57%","label":"negative"},"volume":{"status":"-","label":"neutral"},"tx":{"status":"-44.28%","label":"negative"},"tokenVolume":{"status":"-44.53%","label":"negative"},"totalVolume":{"status":"-22.27%","label":"negative"},"totalBalance":{"status":"-2.16%","label":"negative"}}},"godzillaId":null,"slugs":{"binance-smart-chain":"epichero"},"logo":"https:\/\/dashboard-assets.dappradar.com\/document\/9212\/epichero-dapp-defi-bsc-logo-50x50_f35a8a635c160641380a07bf3103b7cb.png","deepLink":"https:\/\/dappradar.com\/deeplink\/9212","mobileFriendly":false,"featured":false,"protocols":["binance-smart-chain"],"activeProtocols":["binance-smart-chain"],"category":"games","tracked":true},{"id":5159,"name":"Pancake Bunny","slug":"pancake-bunny","new":false,"statistic":{"balance":138.93489597176,"balanceInFiat":79331.83,"totalBalanceInFiat":697858.41,"graph":"https:\/\/s3.amazonaws.com\/dapp-activity.dappradar.com\/bsc_5159_24aa19797182bd21188d0cb12af894df.png","exchangeRate":1,"currencyName":"usd","transactionCount":1804,"userActivity":818,"volumeInFiat":59397.91,"totalVolumeInFiat":21603102.19,"totalVolumeChangeInFiat":263.92,"changes":{"dau":{"status":"-3.88%","label":"negative"},"volume":{"status":"+117.20%","label":"positive"},"tx":{"status":"-8.61%","label":"negative"},"tokenVolume":{"status":"+410.64%","label":"positive"},"totalVolume":{"status":"+263.92%","label":"positive"},"totalBalance":{"status":"-5.88%","label":"negative"}}},"godzillaId":null,"slugs":{"binance-smart-chain":"pancake-bunny"},"logo":"https:\/\/dashboard-assets.dappradar.com\/document\/5159\/pancakebunny-dapp-defi-bsc-logo-50x50_84f83c63ecf5b59a940a77e24ccf7697.png","deepLink":"https:\/\/dappradar.com\/deeplink\/5159","mobileFriendly":false,"featured":false,"protocols":["binance-smart-chain"],"activeProtocols":["binance-smart-chain"],"category":"defi","tracked":true},{"id":6734,"name":"CAIT","slug":"cait","new":false,"statistic":{"balance":0,"balanceInFiat":0,"totalBalanceInFiat":0,"graph":"https:\/\/s3.amazonaws.com\/dapp-activity.dappradar.com\/wax_6734_e14381c94698fcdc69e082c68ca13f0c.png","exchangeRate":1,"currencyName":"usd","transactionCount":3691,"userActivity":794,"volumeInFiat":75.64,"totalVolumeInFiat":75.64,"totalVolumeChangeInFiat":-36.33,"changes":{"dau":{"status":"+3.79%","label":"positive"},"volume":{"status":"-72.66%","label":"negative"},"tx":{"status":"+1.32%","label":"positive"},"tokenVolume":{"status":"-","label":"neutral"},"totalVolume":{"status":"-36.33%","label":"negative"},"totalBalance":{"status":"-","label":"neutral"}}},"godzillaId":null,"slugs":{"wax":"cait"},"logo":"https:\/\/dashboard-assets.dappradar.com\/document\/6734\/cait-dapp-defi-wax-logo-50x50_3837de32c0bf8f9813cdd7ad7e186f8f.png","deepLink":"https:\/\/dappradar.com\/deeplink\/6734","mobileFriendly":false,"featured":false,"protocols":["wax"],"activeProtocols":["wax"],"category":"defi","tracked":true},{"id":8411,"name":"Black Eye Galaxy","slug":"black-eye-galaxy","new":false,"statistic":{"balance":0,"balanceInFiat":0,"totalBalanceInFiat":5202722.46,"graph":"https:\/\/s3.amazonaws.com\/dapp-activity.dappradar.com\/bsc_8411_0673558715eb5e1dc3b98aee859d4105.png","exchangeRate":1,"currencyName":"usd","transactionCount":5827,"userActivity":783,"volumeInFiat":28.67,"totalVolumeInFiat":44602.65,"totalVolumeChangeInFiat":-30.28,"changes":{"dau":{"status":"+35.70%","label":"positive"},"volume":{"status":"-","label":"neutral"},"tx":{"status":"+33.59%","label":"positive"},"tokenVolume":{"status":"-60.56%","label":"negative"},"totalVolume":{"status":"-30.28%","label":"negative"},"totalBalance":{"status":"+0.07%","label":"positive"}}},"godzillaId":null,"slugs":{"binance-smart-chain":"black-eye-galaxy"},"logo":"https:\/\/dashboard-assets.dappradar.com\/document\/8411\/blackeyegalaxy-dapp-games-bsc-logo-50x50_5f6b3994f1dbb34caa8b77d7c447c96a.png","deepLink":"https:\/\/dappradar.com\/deeplink\/8411","mobileFriendly":false,"featured":false,"protocols":["binance-smart-chain"],"activeProtocols":["binance-smart-chain"],"category":"games","tracked":true},{"id":9015,"name":"Faraland","slug":"faraland","new":false,"statistic":{"balance":1277.7601867267,"balanceInFiat":729601.07,"totalBalanceInFiat":15415416.46,"graph":"https:\/\/s3.amazonaws.com\/dapp-activity.dappradar.com\/bsc_9015_3c3a26ef1e04342da8243d700eee1401.png","exchangeRate":1,"currencyName":"usd","transactionCount":3808,"userActivity":757,"volumeInFiat":44703.03,"totalVolumeInFiat":2679964.22,"totalVolumeChangeInFiat":-13.18,"changes":{"dau":{"status":"+2.71%","label":"positive"},"volume":{"status":"-9.49%","label":"negative"},"tx":{"status":"-0.86%","label":"negative"},"tokenVolume":{"status":"-16.86%","label":"negative"},"totalVolume":{"status":"-13.18%","label":"negative"},"totalBalance":{"status":"-4.29%","label":"negative"}}},"godzillaId":null,"slugs":{"binance-smart-chain":"faraland"},"logo":"https:\/\/dashboard-assets.dappradar.com\/document\/9015\/faraland-dapp-games-bsc-logo-50x50_b138904cd0a3120674b8d3cc9f58c624.png","deepLink":"https:\/\/dappradar.com\/deeplink\/9015","mobileFriendly":false,"featured":false,"protocols":["binance-smart-chain"],"activeProtocols":["binance-smart-chain"],"category":"games","tracked":true},{"id":7616,"name":"Pa\u00e7oca","slug":"pacoca","new":false,"statistic":{"balance":0,"balanceInFiat":0,"totalBalanceInFiat":12147711.11,"graph":"https:\/\/s3.amazonaws.com\/dapp-activity.dappradar.com\/bsc_7616_dfc38e88c86c739f3cc8dde02390fa44.png","exchangeRate":1,"currencyName":"usd","transactionCount":1194,"userActivity":753,"volumeInFiat":0,"totalVolumeInFiat":940714.02,"totalVolumeChangeInFiat":15.64,"changes":{"dau":{"status":"+3.29%","label":"positive"},"volume":{"status":"-","label":"neutral"},"tx":{"status":"+1.88%","label":"positive"},"tokenVolume":{"status":"+31.28%","label":"positive"},"totalVolume":{"status":"+15.64%","label":"positive"},"totalBalance":{"status":"-1.45%","label":"negative"}}},"godzillaId":null,"slugs":{"binance-smart-chain":"pacoca"},"logo":"https:\/\/dashboard-assets.dappradar.com\/document\/7616\/paoca-dapp-defi-bsc-logo-50x50_525f89cc25f30436924b405a588a7e84.png","deepLink":"https:\/\/dappradar.com\/deeplink\/7616","mobileFriendly":false,"featured":false,"protocols":["binance-smart-chain"],"activeProtocols":["binance-smart-chain"],"category":"defi","tracked":true}],"ad":{"title":"ForthBox","text":"Free to get a Ham NFT and share 1,000,000 FBX from ForthBox. 1000%+ APY Here!","image":"\/2021\/12\/03\/61a9ffca613f4ForthBox.jpg","url":" https:\/\/www.forthbox.io\/#\/minting","label":"Buy Ham NFT Now!","geo":{"backup":{"url":"","text":"","label":"","title":""}}}}