{"page":7,"resultsPerPage":25,"pageCount":340,"resultCount":8485,"dapps":[{"id":6605,"name":"PrivacySwap","slug":"privacyswap","new":false,"statistic":{"balance":0,"balanceInFiat":0,"totalBalanceInFiat":248488.42,"graph":"https:\/\/s3.amazonaws.com\/dapp-activity.dappradar.com\/bsc_6605_1b0ac9c7d25aece8399dbb542f914206.png","exchangeRate":1,"currencyName":"usd","transactionCount":0,"userActivity":0,"volumeInFiat":0,"totalVolumeInFiat":0,"totalVolumeChangeInFiat":0,"changes":{"dau":{"status":"-","label":"neutral"},"volume":{"status":"-","label":"neutral"},"tx":{"status":"-","label":"neutral"},"tokenVolume":{"status":"-","label":"neutral"},"totalVolume":{"status":"-","label":"neutral"},"totalBalance":{"status":"-5.50%","label":"negative"}}},"godzillaId":null,"logo":"https:\/\/dashboard-assets.dappradar.com\/document\/6605\/privacyswap-dapp-defi-bsc-logo-50x50_e8bc8e7e237a8a903c0b7b7bace9195f.png","deepLink":"https:\/\/bit.ly\/DappradarRanking","mobileFriendly":false,"featured":true,"slugs":{"binance-smart-chain":"privacyswap"},"protocols":["binance-smart-chain"],"activeProtocols":["binance-smart-chain"],"category":"defi","tracked":true},{"id":8359,"name":"Coinpirates","slug":"coinpirates","new":false,"statistic":{"balance":0,"balanceInFiat":0,"totalBalanceInFiat":0,"graph":"https:\/\/s3.amazonaws.com\/dapp-activity.dappradar.com\/wax_8359_dae17d4b885ec90275630f1b586213c7.png","exchangeRate":1,"currencyName":"usd","transactionCount":1768,"userActivity":749,"volumeInFiat":0,"totalVolumeInFiat":0,"totalVolumeChangeInFiat":0,"changes":{"dau":{"status":"+16.12%","label":"positive"},"volume":{"status":"-","label":"neutral"},"tx":{"status":"+37.05%","label":"positive"},"tokenVolume":{"status":"-","label":"neutral"},"totalVolume":{"status":"-","label":"neutral"},"totalBalance":{"status":"-","label":"neutral"}}},"godzillaId":null,"slugs":{"wax":"coinpirates"},"logo":"https:\/\/dashboard-assets.dappradar.com\/document\/8359\/coinpirates-dapp-games-wax-logo-50x50_87b21d9078f7e973f78a8a8198baaace.png","deepLink":"https:\/\/dappradar.com\/deeplink\/8359","mobileFriendly":false,"featured":false,"protocols":["wax"],"activeProtocols":["wax"],"category":"games","tracked":true},{"id":10045,"name":"MicroPETS","slug":"micropets","new":false,"statistic":{"balance":0,"balanceInFiat":0,"totalBalanceInFiat":3148991.02,"graph":"https:\/\/s3.amazonaws.com\/dapp-activity.dappradar.com\/bsc_10045_90ec8566c90b81328556b76697d2bb86.png","exchangeRate":1,"currencyName":"usd","transactionCount":2,"userActivity":737,"volumeInFiat":191.4,"totalVolumeInFiat":26624.66,"totalVolumeChangeInFiat":1.13,"changes":{"dau":{"status":"-0.94%","label":"negative"},"volume":{"status":"-","label":"neutral"},"tx":{"status":"-","label":"neutral"},"tokenVolume":{"status":"+2.26%","label":"positive"},"totalVolume":{"status":"+1.13%","label":"positive"},"totalBalance":{"status":"-1.43%","label":"negative"}}},"godzillaId":null,"slugs":{"binance-smart-chain":"micropets"},"logo":"https:\/\/dashboard-assets.dappradar.com\/document\/10045\/micropets-dapp-defi-bsc-logo-50x50_4fc178bf256e41a70899aa712866aca5.png","deepLink":"https:\/\/dappradar.com\/deeplink\/10045","mobileFriendly":false,"featured":false,"protocols":["binance-smart-chain"],"activeProtocols":["binance-smart-chain"],"category":"defi","tracked":true},{"id":10815,"name":"Ref Finance","slug":"ref-finance-1","new":false,"statistic":{"balance":702.07525571496,"balanceInFiat":5342.79,"totalBalanceInFiat":5342.79,"graph":"https:\/\/s3.amazonaws.com\/dapp-activity.dappradar.com\/near_10815_b6a331340d3622a368014363cf4d16b3.png","exchangeRate":1,"currencyName":"usd","transactionCount":6508,"userActivity":733,"volumeInFiat":0,"totalVolumeInFiat":0,"totalVolumeChangeInFiat":0,"changes":{"dau":{"status":"-6.39%","label":"negative"},"volume":{"status":"-","label":"neutral"},"tx":{"status":"-9.04%","label":"negative"},"tokenVolume":{"status":"-","label":"neutral"},"totalVolume":{"status":"-","label":"neutral"},"totalBalance":{"status":"-","label":"neutral"}}},"godzillaId":null,"slugs":{"near":"ref-finance-1"},"logo":"https:\/\/dashboard-assets.dappradar.com\/document\/10815\/reffinance-dapp-exchanges-near-logo-50x50_ac44d7ae779f299ad7744a662d9b2df3.png","deepLink":"https:\/\/dappradar.com\/deeplink\/10815","mobileFriendly":false,"featured":false,"protocols":["near"],"activeProtocols":["near"],"category":"exchanges","tracked":true},{"id":5294,"name":"Autofarm","slug":"autofarm","new":false,"statistic":{"balance":4.946973868124,"balanceInFiat":2824.72,"totalBalanceInFiat":2237289.92,"graph":"https:\/\/s3.amazonaws.com\/dapp-activity.dappradar.com\/bsc_5294_9a07b3b8304bc3ffd1475b835ab8a1c6.png","exchangeRate":1,"currencyName":"usd","transactionCount":670,"userActivity":727,"volumeInFiat":0,"totalVolumeInFiat":1117944.19,"totalVolumeChangeInFiat":5.22,"changes":{"dau":{"status":"-6.71%","label":"negative"},"volume":{"status":"-","label":"neutral"},"tx":{"status":"-1.41%","label":"negative"},"tokenVolume":{"status":"+10.44%","label":"positive"},"totalVolume":{"status":"+5.22%","label":"positive"},"totalBalance":{"status":"-0.22%","label":"negative"}}},"godzillaId":null,"slugs":{"binance-smart-chain":"autofarm","okexchain":"autofarm","avalanche":"autofarm","polygon":"autofarm"},"logo":"https:\/\/dashboard-assets.dappradar.com\/document\/5294\/autofarm-dapp-defi-bsc-logo-50x50_35668cc4ab897c59ac0f442d7b6b49b1.png","deepLink":"https:\/\/dappradar.com\/deeplink\/5294","mobileFriendly":false,"featured":false,"protocols":["binance-smart-chain","okexchain","avalanche","polygon"],"activeProtocols":["binance-smart-chain","okexchain","avalanche","polygon"],"category":"defi","tracked":true},{"id":3201,"name":"TTSwap","slug":"ttswap","new":false,"statistic":{"balance":187542780.21499,"balanceInFiat":2398492.12,"totalBalanceInFiat":3752553.49,"graph":"https:\/\/s3.amazonaws.com\/dapp-activity.dappradar.com\/thundercore_3201_49994cf65a6f49061e35339c8a9fc832.png","exchangeRate":1,"currencyName":"usd","transactionCount":7424,"userActivity":716,"volumeInFiat":622381.04,"totalVolumeInFiat":827680.89,"totalVolumeChangeInFiat":-38.6,"changes":{"dau":{"status":"-7.85%","label":"negative"},"volume":{"status":"-28.46%","label":"negative"},"tx":{"status":"-28.26%","label":"negative"},"tokenVolume":{"status":"-48.73%","label":"negative"},"totalVolume":{"status":"-38.59%","label":"negative"},"totalBalance":{"status":"-0.34%","label":"negative"}}},"godzillaId":13,"slugs":{"thundercore":"ttswap"},"logo":"https:\/\/dashboard-assets.dappradar.com\/document\/3201\/logo_50_a468bbad44ea6078bbe2f1a3ca7410eb.png","deepLink":"https:\/\/dappradar.com\/deeplink\/3201","mobileFriendly":false,"featured":false,"protocols":["thundercore"],"activeProtocols":["thundercore"],"category":"exchanges","tracked":true},{"id":10579,"name":"Hashland","slug":"hashland","new":false,"statistic":{"balance":0,"balanceInFiat":0,"totalBalanceInFiat":480062.74,"graph":"https:\/\/s3.amazonaws.com\/dapp-activity.dappradar.com\/bsc_10579_c3bfb1835c57ce8ac1cadbf0a2ed7132.png","exchangeRate":1,"currencyName":"usd","transactionCount":1018,"userActivity":716,"volumeInFiat":0,"totalVolumeInFiat":116522.25,"totalVolumeChangeInFiat":8.09,"changes":{"dau":{"status":"+26.95%","label":"positive"},"volume":{"status":"-","label":"neutral"},"tx":{"status":"+4.41%","label":"positive"},"tokenVolume":{"status":"+16.17%","label":"positive"},"totalVolume":{"status":"+8.09%","label":"positive"},"totalBalance":{"status":"+3.60%","label":"positive"}}},"godzillaId":null,"slugs":{"binance-smart-chain":"hashland"},"logo":"https:\/\/dashboard-assets.dappradar.com\/document\/10579\/hashland-dapp-games-bsc-logo-50x50_b52f113588481ba4ac1574ea41cea4ec.png","deepLink":"https:\/\/dappradar.com\/deeplink\/10579","mobileFriendly":false,"featured":false,"protocols":["binance-smart-chain"],"activeProtocols":["binance-smart-chain"],"category":"games","tracked":true},{"id":7596,"name":"GNO City","slug":"gno-city","new":false,"statistic":{"balance":0,"balanceInFiat":0,"totalBalanceInFiat":0,"graph":"https:\/\/s3.amazonaws.com\/dapp-activity.dappradar.com\/wax_7596_87b84c1b0a5616163c23098708a1798c.png","exchangeRate":1,"currencyName":"usd","transactionCount":4187,"userActivity":686,"volumeInFiat":0,"totalVolumeInFiat":0,"totalVolumeChangeInFiat":0,"changes":{"dau":{"status":"+1.93%","label":"positive"},"volume":{"status":"-","label":"neutral"},"tx":{"status":"+15.19%","label":"positive"},"tokenVolume":{"status":"-","label":"neutral"},"totalVolume":{"status":"-","label":"neutral"},"totalBalance":{"status":"-","label":"neutral"}}},"godzillaId":null,"slugs":{"wax":"gno-city"},"logo":"https:\/\/dashboard-assets.dappradar.com\/document\/7596\/gnocity-dapp-games-wax-logo-50x50_c3a8a63eee54304df8435b0a30ac3c99.png","deepLink":"https:\/\/dappradar.com\/deeplink\/7596","mobileFriendly":false,"featured":false,"protocols":["wax"],"activeProtocols":["wax"],"category":"games","tracked":true},{"id":6542,"name":"BunnyPark","slug":"bunnypark","new":false,"statistic":{"balance":34.383420029036,"balanceInFiat":19632.93,"totalBalanceInFiat":1536496.54,"graph":"https:\/\/s3.amazonaws.com\/dapp-activity.dappradar.com\/bsc_6542_e25858ccd0e0240b8771a12f04722f16.png","exchangeRate":1,"currencyName":"usd","transactionCount":1396,"userActivity":679,"volumeInFiat":122346.28,"totalVolumeInFiat":122420.04,"totalVolumeChangeInFiat":126.66,"changes":{"dau":{"status":"+86.03%","label":"positive"},"volume":{"status":"+328.86%","label":"positive"},"tx":{"status":"+96.62%","label":"positive"},"tokenVolume":{"status":"-75.55%","label":"negative"},"totalVolume":{"status":"+126.66%","label":"positive"},"totalBalance":{"status":"+15.82%","label":"positive"}}},"godzillaId":null,"slugs":{"binance-smart-chain":"bunnypark"},"logo":"https:\/\/dashboard-assets.dappradar.com\/document\/6542\/bunnypark-dapp-defi-bsc-logo-50x50_455146a92899b5a71ecce79b200cb7c0.png","deepLink":"https:\/\/dappradar.com\/deeplink\/6542","mobileFriendly":false,"featured":false,"protocols":["binance-smart-chain"],"activeProtocols":["binance-smart-chain"],"category":"defi","tracked":true},{"id":6855,"name":"Dfyn Network","slug":"dfyn-network","new":false,"statistic":{"balance":0,"balanceInFiat":0,"totalBalanceInFiat":99.67,"graph":"https:\/\/s3.amazonaws.com\/dapp-activity.dappradar.com\/matic_6855_764907cacfbafaeba83cf40b58446d87.png","exchangeRate":1,"currencyName":"usd","transactionCount":1920,"userActivity":672,"volumeInFiat":52137.94,"totalVolumeInFiat":215709321.72,"totalVolumeChangeInFiat":-18.68,"changes":{"dau":{"status":"+9.62%","label":"positive"},"volume":{"status":"-12.18%","label":"negative"},"tx":{"status":"-3.61%","label":"negative"},"tokenVolume":{"status":"-25.17%","label":"negative"},"totalVolume":{"status":"-18.68%","label":"negative"},"totalBalance":{"status":"-0.14%","label":"negative"}}},"godzillaId":null,"slugs":{"polygon":"dfyn-network"},"logo":"https:\/\/dashboard-assets.dappradar.com\/document\/6855\/dfynnetwork-dapp-exchanges-matic-logo-50x50_f4469a958dc6e2d6babd06f5bb314f01.png","deepLink":"https:\/\/dappradar.com\/deeplink\/6855","mobileFriendly":false,"featured":false,"protocols":["polygon"],"activeProtocols":["polygon"],"category":"exchanges","tracked":true},{"id":10400,"name":"BeGlobal.finance","slug":"beglobal-finance","new":false,"statistic":{"balance":0,"balanceInFiat":0,"totalBalanceInFiat":913415.3,"graph":"https:\/\/s3.amazonaws.com\/dapp-activity.dappradar.com\/bsc_10400_5f01dc4f89ce8c603c0749a16d353799.png","exchangeRate":1,"currencyName":"usd","transactionCount":1790,"userActivity":666,"volumeInFiat":122225.37,"totalVolumeInFiat":371233.81,"totalVolumeChangeInFiat":30.88,"changes":{"dau":{"status":"-8.26%","label":"negative"},"volume":{"status":"+77.98%","label":"positive"},"tx":{"status":"-5.14%","label":"negative"},"tokenVolume":{"status":"-16.22%","label":"negative"},"totalVolume":{"status":"+30.88%","label":"positive"},"totalBalance":{"status":"-0.14%","label":"negative"}}},"godzillaId":null,"slugs":{"binance-smart-chain":"beglobal-finance"},"logo":"https:\/\/dashboard-assets.dappradar.com\/document\/10400\/beglobalfinance-dapp-defi-bsc-logo-50x50_02eebdd910d6a69382ab8933e46949fd.png","deepLink":"https:\/\/dappradar.com\/deeplink\/10400","mobileFriendly":false,"featured":false,"protocols":["binance-smart-chain"],"activeProtocols":["binance-smart-chain"],"category":"defi","tracked":true},{"id":10828,"name":"Dontplaywithkitty","slug":"dontplaywithkitty","new":false,"statistic":{"balance":244.9612251,"balanceInFiat":139872.86,"totalBalanceInFiat":859348.08,"graph":"https:\/\/s3.amazonaws.com\/dapp-activity.dappradar.com\/bsc_10828_8065658581df65b71843b7ba93d90e4c.png","exchangeRate":1,"currencyName":"usd","transactionCount":2522,"userActivity":665,"volumeInFiat":234296.12,"totalVolumeInFiat":298333.85,"totalVolumeChangeInFiat":31.51,"changes":{"dau":{"status":"+23.15%","label":"positive"},"volume":{"status":"+15.13%","label":"positive"},"tx":{"status":"+28.48%","label":"positive"},"tokenVolume":{"status":"+47.89%","label":"positive"},"totalVolume":{"status":"+31.51%","label":"positive"},"totalBalance":{"status":"-0.07%","label":"negative"}}},"godzillaId":null,"slugs":{"binance-smart-chain":"dontplaywithkitty"},"logo":"https:\/\/dashboard-assets.dappradar.com\/document\/10828\/dontplaywithkittyio-dapp-games-bsc-logo-50x50_86ce9bffd1d27b48d2d3113208489914.png","deepLink":"https:\/\/dappradar.com\/deeplink\/10828","mobileFriendly":false,"featured":false,"protocols":["binance-smart-chain"],"activeProtocols":["binance-smart-chain"],"category":"games","tracked":true},{"id":8795,"name":"Berserk: Vulcanites Unleashed","slug":"berserk-vulcanites-unleashed","new":false,"statistic":{"balance":0,"balanceInFiat":0,"totalBalanceInFiat":0,"graph":"https:\/\/s3.amazonaws.com\/dapp-activity.dappradar.com\/vulcanforged_8795_3c609d0a903ac780978549216307c860.png","exchangeRate":1,"currencyName":"usd","transactionCount":887,"userActivity":653,"volumeInFiat":0,"totalVolumeInFiat":0,"totalVolumeChangeInFiat":0,"changes":{"dau":{"status":"+7.58%","label":"positive"},"volume":{"status":"-","label":"neutral"},"tx":{"status":"+18.58%","label":"positive"},"tokenVolume":{"status":"-","label":"neutral"},"totalVolume":{"status":"-","label":"neutral"},"totalBalance":{"status":"-","label":"neutral"}}},"godzillaId":null,"slugs":{"vulcanforged":"berserk-vulcanites-unleashed"},"logo":"https:\/\/dashboard-assets.dappradar.com\/document\/8795\/berserkvulcanitesunleashed-dapp-games-vulcanforged-logo-50x50_b9e9efbd7ee79d819af81371ff10d589.png","deepLink":"https:\/\/dappradar.com\/deeplink\/8795","mobileFriendly":false,"featured":false,"protocols":["vulcanforged"],"activeProtocols":["vulcanforged"],"category":"games","tracked":true},{"id":9745,"name":"Neo Tokyo Identities","slug":"neo-tokyo-identities","new":false,"statistic":{"balance":0,"balanceInFiat":0,"totalBalanceInFiat":0,"graph":"https:\/\/s3.amazonaws.com\/dapp-activity.dappradar.com\/ethereum_9745_c0e79a79fad03e23dd1208c3503c907a.png","exchangeRate":1,"currencyName":"usd","transactionCount":2061,"userActivity":652,"volumeInFiat":0,"totalVolumeInFiat":0,"totalVolumeChangeInFiat":0,"changes":{"dau":{"status":"-42.66%","label":"negative"},"volume":{"status":"-","label":"neutral"},"tx":{"status":"-42.64%","label":"negative"},"tokenVolume":{"status":"-","label":"neutral"},"totalVolume":{"status":"-","label":"neutral"},"totalBalance":{"status":"-","label":"neutral"}}},"godzillaId":null,"slugs":{"ethereum":"neo-tokyo-identities"},"logo":"https:\/\/dashboard-assets.dappradar.com\/document\/9745\/neotokyoidentities-dapp-collectibles-ethereum-logo-50x50_50e07ab73924b76256cbd83d57d4d82a.png","deepLink":"https:\/\/dappradar.com\/deeplink\/9745","mobileFriendly":false,"featured":false,"protocols":["ethereum"],"activeProtocols":["ethereum"],"category":"collectibles","tracked":true},{"id":10313,"name":"Atrix","slug":"atrix","new":false,"statistic":{"balance":51481.891766813,"balanceInFiat":9680140.11,"totalBalanceInFiat":114050876.69,"graph":"https:\/\/s3.amazonaws.com\/dapp-activity.dappradar.com\/solana_10313_1171279db4476ef1548d6b91e43691f4.png","exchangeRate":1,"currencyName":"usd","transactionCount":89423,"userActivity":645,"volumeInFiat":16845.34,"totalVolumeInFiat":854348004759.21,"totalVolumeChangeInFiat":271,"changes":{"dau":{"status":"+3.53%","label":"positive"},"volume":{"status":"+487.37%","label":"positive"},"tx":{"status":"+489.82%","label":"positive"},"tokenVolume":{"status":"+54.62%","label":"positive"},"totalVolume":{"status":"+271.00%","label":"positive"},"totalBalance":{"status":"-1.04%","label":"negative"}}},"godzillaId":null,"slugs":{"solana":"atrix"},"logo":"https:\/\/dashboard-assets.dappradar.com\/document\/10313\/atrix-dapp-defi-solana-logo-50x50_22a9093a9c40db933322c374f09a0bdc.png","deepLink":"https:\/\/dappradar.com\/deeplink\/10313","mobileFriendly":false,"featured":false,"protocols":["solana"],"activeProtocols":["solana"],"category":"defi","tracked":true},{"id":8310,"name":"Green Rabbit Game","slug":"green-rabbit-game","new":false,"statistic":{"balance":0,"balanceInFiat":0,"totalBalanceInFiat":0,"graph":"https:\/\/s3.amazonaws.com\/dapp-activity.dappradar.com\/wax_8310_bc68579b4d649e3da31bc1dad4d6d12d.png","exchangeRate":1,"currencyName":"usd","transactionCount":12387,"userActivity":643,"volumeInFiat":0,"totalVolumeInFiat":0,"totalVolumeChangeInFiat":0,"changes":{"dau":{"status":"-2.87%","label":"negative"},"volume":{"status":"-","label":"neutral"},"tx":{"status":"-0.67%","label":"negative"},"tokenVolume":{"status":"-","label":"neutral"},"totalVolume":{"status":"-","label":"neutral"},"totalBalance":{"status":"-","label":"neutral"}}},"godzillaId":null,"slugs":{"wax":"green-rabbit-game"},"logo":"https:\/\/dashboard-assets.dappradar.com\/document\/8310\/greenrabbitgame-dapp-games-wax-logo-50x50_a3b574d194c159f31ab82c96ac09a033.png","deepLink":"https:\/\/dappradar.com\/deeplink\/8310","mobileFriendly":false,"featured":false,"protocols":["wax"],"activeProtocols":["wax"],"category":"games","tracked":true},{"id":5217,"name":"ACryptoS","slug":"acryptos","new":false,"statistic":{"balance":0,"balanceInFiat":0,"totalBalanceInFiat":7054418.54,"graph":"https:\/\/s3.amazonaws.com\/dapp-activity.dappradar.com\/bsc_5217_d2f36a860e23d48fc568587eb69e2015.png","exchangeRate":1,"currencyName":"usd","transactionCount":1509,"userActivity":635,"volumeInFiat":79640.14,"totalVolumeInFiat":42054555.13,"totalVolumeChangeInFiat":24.09,"changes":{"dau":{"status":"-8.24%","label":"negative"},"volume":{"status":"-0.02%","label":"negative"},"tx":{"status":"-6.45%","label":"negative"},"tokenVolume":{"status":"+48.19%","label":"positive"},"totalVolume":{"status":"+24.09%","label":"positive"},"totalBalance":{"status":"-3.92%","label":"negative"}}},"godzillaId":null,"slugs":{"binance-smart-chain":"acryptos"},"logo":"https:\/\/dashboard-assets.dappradar.com\/document\/5217\/acryptos-dapp-defi-bsc-logo-50x50_c6c9267ac5d91764abbe2e3c00ba1a4d.png","deepLink":"https:\/\/dappradar.com\/deeplink\/5217","mobileFriendly":false,"featured":false,"protocols":["binance-smart-chain"],"activeProtocols":["binance-smart-chain"],"category":"defi","tracked":true},{"id":9323,"name":"Nova Rally","slug":"nova-rally","new":false,"statistic":{"balance":0,"balanceInFiat":0,"totalBalanceInFiat":0,"graph":"https:\/\/s3.amazonaws.com\/dapp-activity.dappradar.com\/wax_9323_a42465e7e30bdc94d2cbd8478e1b68ae.png","exchangeRate":1,"currencyName":"usd","transactionCount":11864,"userActivity":634,"volumeInFiat":0,"totalVolumeInFiat":0,"totalVolumeChangeInFiat":0,"changes":{"dau":{"status":"+1.28%","label":"positive"},"volume":{"status":"-","label":"neutral"},"tx":{"status":"+6.24%","label":"positive"},"tokenVolume":{"status":"-","label":"neutral"},"totalVolume":{"status":"-","label":"neutral"},"totalBalance":{"status":"-","label":"neutral"}}},"godzillaId":null,"slugs":{"wax":"nova-rally"},"logo":"https:\/\/dashboard-assets.dappradar.com\/document\/9323\/novarally-dapp-games-wax-logo-50x50_c9ddc1632ef674716b6edb3e7ddadf17.png","deepLink":"https:\/\/dappradar.com\/deeplink\/9323","mobileFriendly":false,"featured":false,"protocols":["wax"],"activeProtocols":["wax"],"category":"games","tracked":true},{"id":5489,"name":"Trade Race Manager","slug":"trade-race-manager","new":false,"statistic":{"balance":8.4354641e-5,"balanceInFiat":0,"totalBalanceInFiat":0,"graph":"https:\/\/s3.amazonaws.com\/dapp-activity.dappradar.com\/matic_5489_14f055c61cc12eac841bdad5b8689154.png","exchangeRate":1,"currencyName":"usd","transactionCount":631,"userActivity":631,"volumeInFiat":0,"totalVolumeInFiat":0,"totalVolumeChangeInFiat":18.89,"changes":{"dau":{"status":"+59.34%","label":"positive"},"volume":{"status":"+37.77%","label":"positive"},"tx":{"status":"+37.77%","label":"positive"},"tokenVolume":{"status":"-","label":"neutral"},"totalVolume":{"status":"+18.89%","label":"positive"},"totalBalance":{"status":"-","label":"neutral"}}},"godzillaId":null,"slugs":{"polygon":"trade-race-manager"},"logo":"https:\/\/dashboard-assets.dappradar.com\/document\/5489\/traderacemanager-dapp-games-matic-logo-50x50_8e6036f4dc1e60825b6c184d8cdccb00.png","deepLink":"https:\/\/dappradar.com\/deeplink\/5489","mobileFriendly":false,"featured":false,"protocols":["polygon"],"activeProtocols":["polygon"],"category":"games","tracked":true},{"id":10261,"name":"Sunny Aggregator","slug":"sunny-aggregator","new":false,"statistic":{"balance":0.39822336,"balanceInFiat":74.88,"totalBalanceInFiat":54287.42,"graph":"https:\/\/s3.amazonaws.com\/dapp-activity.dappradar.com\/solana_10261_253fdcbbe4c55e7e6de24badbcd28a6c.png","exchangeRate":1,"currencyName":"usd","transactionCount":11,"userActivity":628,"volumeInFiat":0.48,"totalVolumeInFiat":0.48,"totalVolumeChangeInFiat":0,"changes":{"dau":{"status":"+3.46%","label":"positive"},"volume":{"status":"-","label":"neutral"},"tx":{"status":"-","label":"neutral"},"tokenVolume":{"status":"-","label":"neutral"},"totalVolume":{"status":"-","label":"neutral"},"totalBalance":{"status":"+14.73%","label":"positive"}}},"godzillaId":null,"slugs":{"solana":"sunny-aggregator"},"logo":"https:\/\/dashboard-assets.dappradar.com\/document\/10261\/sunnyaggregator-dapp-defi-solana-logo-50x50_a579ddac608f939f7f7bf90c63927695.png","deepLink":"https:\/\/dappradar.com\/deeplink\/10261","mobileFriendly":false,"featured":false,"protocols":["solana"],"activeProtocols":["solana"],"category":"defi","tracked":true},{"id":3393,"name":"Color Craze","slug":"color-craze","new":false,"statistic":{"balance":14156.779755518,"balanceInFiat":181.05,"totalBalanceInFiat":181.05,"graph":"https:\/\/s3.amazonaws.com\/dapp-activity.dappradar.com\/thundercore_3393_6770a6f1e100bf8eb5ce0e28c1005b2c.png","exchangeRate":1,"currencyName":"usd","transactionCount":690,"userActivity":622,"volumeInFiat":9.33,"totalVolumeInFiat":9.33,"totalVolumeChangeInFiat":18.59,"changes":{"dau":{"status":"+32.91%","label":"positive"},"volume":{"status":"+37.17%","label":"positive"},"tx":{"status":"+34.24%","label":"positive"},"tokenVolume":{"status":"-","label":"neutral"},"totalVolume":{"status":"+18.59%","label":"positive"},"totalBalance":{"status":"-","label":"neutral"}}},"godzillaId":20,"slugs":{"thundercore":"color-craze"},"logo":"https:\/\/dashboard-assets.dappradar.com\/document\/3393\/color-craze-games-thundercore-logo-50x50_d83a3c5c628592240c802debe835da37.png","deepLink":"https:\/\/dappradar.com\/deeplink\/3393","mobileFriendly":false,"featured":false,"protocols":["thundercore"],"activeProtocols":["thundercore"],"category":"games","tracked":true},{"id":3391,"name":"Math War","slug":"math-war","new":false,"statistic":{"balance":17647.343576461,"balanceInFiat":225.69,"totalBalanceInFiat":225.69,"graph":"https:\/\/s3.amazonaws.com\/dapp-activity.dappradar.com\/thundercore_3391_1882054e8386b7e3bc9094b2893663f0.png","exchangeRate":1,"currencyName":"usd","transactionCount":703,"userActivity":621,"volumeInFiat":9.58,"totalVolumeInFiat":9.58,"totalVolumeChangeInFiat":10.47,"changes":{"dau":{"status":"+21.29%","label":"positive"},"volume":{"status":"+20.93%","label":"positive"},"tx":{"status":"+26.21%","label":"positive"},"tokenVolume":{"status":"-","label":"neutral"},"totalVolume":{"status":"+10.46%","label":"positive"},"totalBalance":{"status":"-","label":"neutral"}}},"godzillaId":22,"slugs":{"thundercore":"math-war"},"logo":"https:\/\/dashboard-assets.dappradar.com\/document\/3391\/math-war-games-thundercore-logo-50x50_f976ecfe9d5a57b8e86d8e446f5995bd.png","deepLink":"https:\/\/dappradar.com\/deeplink\/3391","mobileFriendly":false,"featured":false,"protocols":["thundercore"],"activeProtocols":["thundercore"],"category":"games","tracked":true},{"id":3465,"name":"WAXTycoon","slug":"waxtycoon","new":false,"statistic":{"balance":0,"balanceInFiat":0,"totalBalanceInFiat":0,"graph":"https:\/\/s3.amazonaws.com\/dapp-activity.dappradar.com\/wax_3465_9d9d3591c85f5a62db20ec442b79b053.png","exchangeRate":1,"currencyName":"usd","transactionCount":17508,"userActivity":621,"volumeInFiat":0,"totalVolumeInFiat":0,"totalVolumeChangeInFiat":0,"changes":{"dau":{"status":"+2.99%","label":"positive"},"volume":{"status":"-","label":"neutral"},"tx":{"status":"-1.81%","label":"negative"},"tokenVolume":{"status":"-","label":"neutral"},"totalVolume":{"status":"-","label":"neutral"},"totalBalance":{"status":"-","label":"neutral"}}},"godzillaId":38,"slugs":{"wax":"waxtycoon"},"logo":"https:\/\/dashboard-assets.dappradar.com\/document\/3465\/waxtycoon-games-wax-logo-50x50_14896ba8a2bb15d461813fba16c71bb6.png","deepLink":"https:\/\/dappradar.com\/deeplink\/3465","mobileFriendly":false,"featured":false,"protocols":["wax"],"activeProtocols":["wax"],"category":"games","tracked":true},{"id":10263,"name":"Marinade Finance","slug":"marinade-finance","new":false,"statistic":{"balance":786913.01015115,"balanceInFiat":147963253.3,"totalBalanceInFiat":151537580.09,"graph":"https:\/\/s3.amazonaws.com\/dapp-activity.dappradar.com\/solana_10263_e100f7252b7660e66935fa042141d276.png","exchangeRate":1,"currencyName":"usd","transactionCount":996,"userActivity":619,"volumeInFiat":10809907.22,"totalVolumeInFiat":15814150.23,"totalVolumeChangeInFiat":-14.83,"changes":{"dau":{"status":"-25.42%","label":"negative"},"volume":{"status":"-41.50%","label":"negative"},"tx":{"status":"-19.16%","label":"negative"},"tokenVolume":{"status":"+11.85%","label":"positive"},"totalVolume":{"status":"-14.82%","label":"negative"},"totalBalance":{"status":"+0.25%","label":"positive"}}},"godzillaId":null,"slugs":{"solana":"marinade-finance"},"logo":"https:\/\/dashboard-assets.dappradar.com\/document\/10263\/marinadefinance-dapp-defi-solana-logo-50x50_0ee0041a9ae22ef036c971a01f410718.png","deepLink":"https:\/\/dappradar.com\/deeplink\/10263","mobileFriendly":false,"featured":false,"protocols":["solana"],"activeProtocols":["solana"],"category":"defi","tracked":true},{"id":917,"name":"My Crypto Heroes","slug":"my-crypto-heroes","new":false,"statistic":{"balance":112.08093097672,"balanceInFiat":481021.09,"totalBalanceInFiat":1077441.16,"graph":"https:\/\/s3.amazonaws.com\/dapp-activity.dappradar.com\/ethereum_917_65af3158ba76b034271b0bd46587fc1c.png","exchangeRate":1,"currencyName":"usd","transactionCount":812,"userActivity":617,"volumeInFiat":1306.83,"totalVolumeInFiat":1306.83,"totalVolumeChangeInFiat":4.87,"changes":{"dau":{"status":"-27.78%","label":"negative"},"volume":{"status":"+9.73%","label":"positive"},"tx":{"status":"-26.74%","label":"negative"},"tokenVolume":{"status":"-","label":"neutral"},"totalVolume":{"status":"+4.87%","label":"positive"},"totalBalance":{"status":"+0.34%","label":"positive"}}},"godzillaId":944,"slugs":{"ethereum":"my-crypto-heroes","polygon":"my-crypto-heroes"},"logo":"https:\/\/dashboard-assets.dappradar.com\/document\/917\/mycryptoheroes-dapp-games-eth-logo-50x50_2cc401d00a620c25809ae4a969eb60d2.png","deepLink":"https:\/\/dappradar.com\/deeplink\/917","mobileFriendly":false,"featured":false,"protocols":["ethereum","polygon"],"activeProtocols":["ethereum","polygon"],"category":"games","tracked":true},{"id":8638,"name":"Crypto Egg","slug":"crypto-egg","new":false,"statistic":{"balance":189.64278077055,"balanceInFiat":108286.03,"totalBalanceInFiat":129193.03,"graph":"https:\/\/s3.amazonaws.com\/dapp-activity.dappradar.com\/bsc_8638_01f0353a00eb6cee6e5a146f12f04126.png","exchangeRate":1,"currencyName":"usd","transactionCount":669,"userActivity":591,"volumeInFiat":3322.6,"totalVolumeInFiat":3392.36,"totalVolumeChangeInFiat":572.6,"changes":{"dau":{"status":"+4.79%","label":"positive"},"volume":{"status":"+349.47%","label":"positive"},"tx":{"status":"+3.72%","label":"positive"},"tokenVolume":{"status":"+795.73%","label":"positive"},"totalVolume":{"status":"+572.60%","label":"positive"},"totalBalance":{"status":"-0.97%","label":"negative"}}},"godzillaId":null,"slugs":{"binance-smart-chain":"crypto-egg"},"logo":"https:\/\/dashboard-assets.dappradar.com\/document\/8638\/cryptoegg-dapp-high-risk-bsc-logo-50x50_9a6d1b6b102b05059486ef7ad24e1522.png","deepLink":"https:\/\/dappradar.com\/deeplink\/8638","mobileFriendly":false,"featured":false,"protocols":["binance-smart-chain"],"activeProtocols":["binance-smart-chain"],"category":"high-risk","tracked":true}],"ad":{"title":"VodkaToken","text":"\u0421ollectible Play-to-Earn NFT game based on DeFi. ","image":"\/2021\/11\/19\/619779cb3b8d5Screenshot-2021-11-19-at-12.17.37.png","url":"https:\/\/vodkatoken.com\/?utm_source=DappRadar\u0026utm_medium=deeplink\u0026utm_campaign=visit-website","label":"BUY VODKA TOKEN!","geo":null}}