{"page":1,"resultsPerPage":25,"pageCount":340,"resultCount":8485,"dapps":[{"id":6928,"name":"Autoshark Finance","slug":"autoshark-finance-1","new":false,"statistic":{"balance":0,"balanceInFiat":0,"totalBalanceInFiat":1236719.66,"graph":"https:\/\/s3.amazonaws.com\/dapp-activity.dappradar.com\/bsc_6928_caa326508bcbc66238bbfb156b814056.png","exchangeRate":1,"currencyName":"usd","transactionCount":9311,"userActivity":4587,"volumeInFiat":0,"totalVolumeInFiat":285432.92,"totalVolumeChangeInFiat":63.4,"changes":{"dau":{"status":"+130.39%","label":"positive"},"volume":{"status":"-","label":"neutral"},"tx":{"status":"+237.36%","label":"positive"},"tokenVolume":{"status":"+63.40%","label":"positive"},"totalVolume":{"status":"+63.40%","label":"positive"},"totalBalance":{"status":"-4.84%","label":"negative"}}},"godzillaId":null,"logo":"https:\/\/dashboard-assets.dappradar.com\/document\/6928\/autosharkfinance-dapp-defi-bsc-logo-50x50_c08c2dc959d636df390f9551605d20e6.png","deepLink":"https:\/\/bit.ly\/2ZtBNuz","mobileFriendly":false,"featured":true,"slugs":{"binance-smart-chain":"autoshark-finance-1"},"protocols":["binance-smart-chain"],"activeProtocols":["binance-smart-chain"],"category":"defi","tracked":true},{"id":4600,"name":"PancakeSwap","slug":"pancakeswap","new":false,"statistic":{"balance":0,"balanceInFiat":0,"totalBalanceInFiat":2542936476.64,"graph":"https:\/\/s3.amazonaws.com\/dapp-activity.dappradar.com\/a2e4822a98337283e39f7b60acf85ec9.png","exchangeRate":1,"currencyName":"usd","transactionCount":1373087,"userActivity":542570,"volumeInFiat":281089797.27,"totalVolumeInFiat":629865082.76,"totalVolumeChangeInFiat":-11.74,"changes":{"dau":{"status":"+16.09%","label":"positive"},"volume":{"status":"+13.98%","label":"positive"},"tx":{"status":"+21.18%","label":"positive"},"tokenVolume":{"status":"-37.46%","label":"negative"},"totalVolume":{"status":"-11.74%","label":"negative"},"totalBalance":{"status":"-1.90%","label":"negative"}}},"godzillaId":null,"slugs":{"binance-smart-chain":"pancakeswap"},"logo":"https:\/\/dashboard-assets.dappradar.com\/document\/4600\/pancakeswap-dapp-defi-bsc-logo-50x50_20e5d8b6c50c2cead9eb33120e4e1417.png","deepLink":"https:\/\/dappradar.com\/deeplink\/4600","mobileFriendly":false,"featured":false,"protocols":["binance-smart-chain"],"activeProtocols":["binance-smart-chain"],"category":"defi","tracked":true},{"id":3803,"name":"Splinterlands","slug":"splinterlands","new":false,"statistic":{"balance":177538.727,"balanceInFiat":292938.9,"totalBalanceInFiat":292938.9,"graph":"https:\/\/s3.amazonaws.com\/dapp-activity.dappradar.com\/hive_3803_f4080b58e0396f39f4e6ba94a0fd5884.png","exchangeRate":1,"currencyName":"usd","transactionCount":2978432,"userActivity":330478,"volumeInFiat":7113.17,"totalVolumeInFiat":7235.99,"totalVolumeChangeInFiat":0.23,"changes":{"dau":{"status":"-3.08%","label":"negative"},"volume":{"status":"+0.47%","label":"positive"},"tx":{"status":"-0.98%","label":"negative"},"tokenVolume":{"status":"-","label":"neutral"},"totalVolume":{"status":"+0.23%","label":"positive"},"totalBalance":{"status":"-","label":"neutral"}}},"godzillaId":20,"slugs":{"hive":"splinterlands","wax":"splinterlands"},"logo":"https:\/\/dashboard-assets.dappradar.com\/document\/3803\/splinterlands-dapp-games-hive-logo-50x50_a226c66bc5a85c250400e213a02de3a0.png","deepLink":"https:\/\/dappradar.com\/deeplink\/3803","mobileFriendly":false,"featured":false,"protocols":["hive","wax"],"activeProtocols":["hive","wax"],"category":"games","tracked":true},{"id":5314,"name":"Alien Worlds","slug":"alien-worlds-1","new":false,"statistic":{"balance":0,"balanceInFiat":0,"totalBalanceInFiat":13002519.14,"graph":"https:\/\/s3.amazonaws.com\/dapp-activity.dappradar.com\/wax_5314_f7d222dc85596eab5a1666bb5d9398f0.png","exchangeRate":1,"currencyName":"usd","transactionCount":9925942,"userActivity":231294,"volumeInFiat":0,"totalVolumeInFiat":1224129.91,"totalVolumeChangeInFiat":44.38,"changes":{"dau":{"status":"-5.05%","label":"negative"},"volume":{"status":"-","label":"neutral"},"tx":{"status":"+25.16%","label":"positive"},"tokenVolume":{"status":"+88.77%","label":"positive"},"totalVolume":{"status":"+44.38%","label":"positive"},"totalBalance":{"status":"-1.42%","label":"negative"}}},"godzillaId":null,"slugs":{"wax":"alien-worlds-1","binance-smart-chain":"alien-worlds-1"},"logo":"https:\/\/dashboard-assets.dappradar.com\/document\/5314\/alienworlds-dapp-games-wax-logo-50x50_7eb46e879e197fbebc312a031961d539.png","deepLink":"https:\/\/dappradar.com\/deeplink\/5314","mobileFriendly":false,"featured":false,"protocols":["wax","binance-smart-chain"],"activeProtocols":["wax","binance-smart-chain"],"category":"games","tracked":true},{"id":9382,"name":"CryptoMines","slug":"cryptomines","new":false,"statistic":{"balance":0.194,"balanceInFiat":110.77,"totalBalanceInFiat":156630.33,"graph":"https:\/\/s3.amazonaws.com\/dapp-activity.dappradar.com\/bsc_9382_8f56333cf6bd500407336c6863a1e639.png","exchangeRate":1,"currencyName":"usd","transactionCount":916258,"userActivity":203647,"volumeInFiat":1365696.79,"totalVolumeInFiat":9780657.42,"totalVolumeChangeInFiat":167.17,"changes":{"dau":{"status":"-2.80%","label":"negative"},"volume":{"status":"+13.95%","label":"positive"},"tx":{"status":"-6.99%","label":"negative"},"tokenVolume":{"status":"+320.38%","label":"positive"},"totalVolume":{"status":"+167.16%","label":"positive"},"totalBalance":{"status":"-49.88%","label":"negative"}}},"godzillaId":null,"slugs":{"binance-smart-chain":"cryptomines"},"logo":"https:\/\/dashboard-assets.dappradar.com\/document\/9382\/cryptomines-dapp-games-bsc-logo-50x50_18e9ceb7dd2eb44ff9d3b9c91bc395bb.png","deepLink":"https:\/\/dappradar.com\/deeplink\/9382","mobileFriendly":false,"featured":false,"protocols":["binance-smart-chain"],"activeProtocols":["binance-smart-chain"],"category":"games","tracked":true},{"id":9495,"name":"Axie Infinity","slug":"axie-infinity","new":false,"statistic":{"balance":34.590964607283,"balanceInFiat":137116.68,"totalBalanceInFiat":4918491473.610001,"graph":"https:\/\/s3.amazonaws.com\/dapp-activity.dappradar.com\/ronin_9495_41dd8d5cfd545d4340ec61aa9d6fc072.png","exchangeRate":1,"currencyName":"usd","transactionCount":407398,"userActivity":106702,"volumeInFiat":0,"totalVolumeInFiat":45623092.21,"totalVolumeChangeInFiat":-9.69,"changes":{"dau":{"status":"-0.17%","label":"negative"},"volume":{"status":"-","label":"neutral"},"tx":{"status":"-0.79%","label":"negative"},"tokenVolume":{"status":"-19.38%","label":"negative"},"totalVolume":{"status":"-9.69%","label":"negative"},"totalBalance":{"status":"+2.30%","label":"positive"}}},"godzillaId":null,"slugs":{"ronin":"axie-infinity","ethereum":"axie-infinity"},"logo":"https:\/\/dashboard-assets.dappradar.com\/document\/266\/axieinfinity-dapp-games-eth-logo-50x50_29c76363b3775610e92c2ac9737572b6.png","deepLink":"https:\/\/dappradar.com\/deeplink\/9495","mobileFriendly":false,"featured":false,"protocols":["ronin","ethereum"],"activeProtocols":["ronin","ethereum"],"category":"games","tracked":true},{"id":4098,"name":"AtomicAssets","slug":"atomicassets","new":false,"statistic":{"balance":351.8168,"balanceInFiat":1115.26,"totalBalanceInFiat":1115.26,"graph":"https:\/\/s3.amazonaws.com\/dapp-activity.dappradar.com\/wax_4098_5fc5dc3b0234cbfb438d68c7958c74cb.png","exchangeRate":1,"currencyName":"usd","transactionCount":630778,"userActivity":106162,"volumeInFiat":572413.84,"totalVolumeInFiat":572414.13,"totalVolumeChangeInFiat":2.06,"changes":{"dau":{"status":"-6.57%","label":"negative"},"volume":{"status":"+4.11%","label":"positive"},"tx":{"status":"+18.87%","label":"positive"},"tokenVolume":{"status":"-","label":"neutral"},"totalVolume":{"status":"+2.05%","label":"positive"},"totalBalance":{"status":"-","label":"neutral"}}},"godzillaId":47,"slugs":{"wax":"atomicassets","eos":"atomicassets-1"},"logo":"https:\/\/dashboard-assets.dappradar.com\/document\/4098\/atomicassets-dapp-other-wax-logo-50x50_0b09297a60fe708557fb504c0de8a6c7.png","deepLink":"https:\/\/dappradar.com\/deeplink\/4098","mobileFriendly":false,"featured":false,"protocols":["wax","eos"],"activeProtocols":["wax","eos"],"category":"other","tracked":true},{"id":8430,"name":"Farmers World","slug":"farmers-world","new":false,"statistic":{"balance":0,"balanceInFiat":0,"totalBalanceInFiat":0,"graph":"https:\/\/s3.amazonaws.com\/dapp-activity.dappradar.com\/wax_8430_9a6a61dfbdb9a5904fe1253fd86052f1.png","exchangeRate":1,"currencyName":"usd","transactionCount":2102525,"userActivity":70538,"volumeInFiat":0,"totalVolumeInFiat":0,"totalVolumeChangeInFiat":0,"changes":{"dau":{"status":"+11.43%","label":"positive"},"volume":{"status":"-","label":"neutral"},"tx":{"status":"+2.21%","label":"positive"},"tokenVolume":{"status":"-","label":"neutral"},"totalVolume":{"status":"-","label":"neutral"},"totalBalance":{"status":"-","label":"neutral"}}},"godzillaId":null,"slugs":{"wax":"farmers-world"},"logo":"https:\/\/dashboard-assets.dappradar.com\/document\/8430\/farmersworld-dapp-games-wax-logo-50x50_81f91937d65e727d9601165d9a61848e.png","deepLink":"https:\/\/dappradar.com\/deeplink\/8430","mobileFriendly":false,"featured":false,"protocols":["wax"],"activeProtocols":["wax"],"category":"games","tracked":true},{"id":3388,"name":"Upland","slug":"upland","new":false,"statistic":{"balance":12419.2061,"balanceInFiat":39368.88,"totalBalanceInFiat":39368.88,"graph":"https:\/\/s3.amazonaws.com\/dapp-activity.dappradar.com\/eos_3388_7d7b564d6231858405bc39967b0d5083.png","exchangeRate":1,"currencyName":"usd","transactionCount":267232,"userActivity":55013,"volumeInFiat":0,"totalVolumeInFiat":0,"totalVolumeChangeInFiat":0,"changes":{"dau":{"status":"+6.87%","label":"positive"},"volume":{"status":"-","label":"neutral"},"tx":{"status":"+10.16%","label":"positive"},"tokenVolume":{"status":"-","label":"neutral"},"totalVolume":{"status":"-","label":"neutral"},"totalBalance":{"status":"-","label":"neutral"}}},"godzillaId":1211,"slugs":{"eos":"upland"},"logo":"https:\/\/dashboard-assets.dappradar.com\/document\/3388\/upland-games-eos-logo-50x50_e6b347dd682126c7dceb525b4e414d9a.png","deepLink":"https:\/\/dappradar.com\/deeplink\/3388","mobileFriendly":false,"featured":false,"protocols":["eos"],"activeProtocols":["eos"],"category":"games","tracked":true},{"id":5551,"name":"NBA TopShot","slug":"nba-topshot","new":false,"statistic":{"balance":0,"balanceInFiat":0,"totalBalanceInFiat":0,"graph":"https:\/\/s3.amazonaws.com\/dapp-activity.dappradar.com\/flow_5551_de8863a8276082a26b5386f8c38d1244.png","exchangeRate":1,"currencyName":"usd","transactionCount":199489,"userActivity":50533,"volumeInFiat":0,"totalVolumeInFiat":766231.17,"totalVolumeChangeInFiat":1.62,"changes":{"dau":{"status":"+359.56%","label":"positive"},"volume":{"status":"-","label":"neutral"},"tx":{"status":"+89.37%","label":"positive"},"tokenVolume":{"status":"+3.24%","label":"positive"},"totalVolume":{"status":"+1.62%","label":"positive"},"totalBalance":{"status":"-","label":"neutral"}}},"godzillaId":null,"slugs":{"flow":"nba-topshot"},"logo":"https:\/\/dashboard-assets.dappradar.com\/document\/5551\/nbatopshot-dapp-collectibles-waves-logo-50x50_1df8605ddf761c79d5c2b6db900c1b59.png","deepLink":"https:\/\/dappradar.com\/deeplink\/5551","mobileFriendly":false,"featured":false,"protocols":["flow"],"activeProtocols":["flow"],"category":"collectibles","tracked":true},{"id":9134,"name":"Trader Joe","slug":"trader-joe","new":false,"statistic":{"balance":0,"balanceInFiat":0,"totalBalanceInFiat":0,"graph":"https:\/\/s3.amazonaws.com\/dapp-activity.dappradar.com\/avalanche_9134_89e0688aa2dc05dc29a433cc4d0afc42.png","exchangeRate":1,"currencyName":"usd","transactionCount":112868,"userActivity":39826,"volumeInFiat":81483681.05,"totalVolumeInFiat":81483681.05,"totalVolumeChangeInFiat":-12.55,"changes":{"dau":{"status":"-6.18%","label":"negative"},"volume":{"status":"-25.09%","label":"negative"},"tx":{"status":"-2.42%","label":"negative"},"tokenVolume":{"status":"-","label":"neutral"},"totalVolume":{"status":"-12.54%","label":"negative"},"totalBalance":{"status":"-","label":"neutral"}}},"godzillaId":null,"slugs":{"avalanche":"trader-joe"},"logo":"https:\/\/dashboard-assets.dappradar.com\/document\/9134\/traderjoe-dapp-exchanges-avalanche-logo-50x50_c0ec90425410e3c9190f74eb6abec085.png","deepLink":"https:\/\/dappradar.com\/deeplink\/9134","mobileFriendly":false,"featured":false,"protocols":["avalanche"],"activeProtocols":["avalanche"],"category":"exchanges","tracked":true},{"id":9641,"name":"Bomb Crypto","slug":"bomb-crypto","new":false,"statistic":{"balance":0,"balanceInFiat":0,"totalBalanceInFiat":21109827.88,"graph":"https:\/\/s3.amazonaws.com\/dapp-activity.dappradar.com\/bsc_9641_d53ad4ea6c483a20ba829630177d9e8e.png","exchangeRate":1,"currencyName":"usd","transactionCount":154398,"userActivity":31740,"volumeInFiat":0,"totalVolumeInFiat":10831098.62,"totalVolumeChangeInFiat":3.69,"changes":{"dau":{"status":"-13.80%","label":"negative"},"volume":{"status":"-","label":"neutral"},"tx":{"status":"-15.49%","label":"negative"},"tokenVolume":{"status":"+7.37%","label":"positive"},"totalVolume":{"status":"+3.69%","label":"positive"},"totalBalance":{"status":"+4502.71%","label":"positive"}}},"godzillaId":null,"slugs":{"binance-smart-chain":"bomb-crypto"},"logo":"https:\/\/dashboard-assets.dappradar.com\/document\/9641\/bombcrypto-dapp-games-bsc-logo-50x50_7c8f36975ed7c5f78c28cb2e9560ffa4.png","deepLink":"https:\/\/dappradar.com\/deeplink\/9641","mobileFriendly":false,"featured":false,"protocols":["binance-smart-chain"],"activeProtocols":["binance-smart-chain"],"category":"games","tracked":true},{"id":10507,"name":"Katana","slug":"katana","new":false,"statistic":{"balance":0,"balanceInFiat":0,"totalBalanceInFiat":1323656420.31,"graph":"https:\/\/s3.amazonaws.com\/dapp-activity.dappradar.com\/ronin_10507_7019d066cfc6579ecc7008c476d1b7e3.png","exchangeRate":1,"currencyName":"usd","transactionCount":51224,"userActivity":28313,"volumeInFiat":0,"totalVolumeInFiat":47943724.67,"totalVolumeChangeInFiat":-25.89,"changes":{"dau":{"status":"-6.39%","label":"negative"},"volume":{"status":"-","label":"neutral"},"tx":{"status":"-8.68%","label":"negative"},"tokenVolume":{"status":"-51.78%","label":"negative"},"totalVolume":{"status":"-25.89%","label":"negative"},"totalBalance":{"status":"+1.99%","label":"positive"}}},"godzillaId":null,"slugs":{"ronin":"katana"},"logo":"https:\/\/dashboard-assets.dappradar.com\/document\/10507\/katana-dapp-defi-hive-logo-50x50_b15ee35de6674acc8020df7a9dec7d43.png","deepLink":"https:\/\/dappradar.com\/deeplink\/10507","mobileFriendly":false,"featured":false,"protocols":["ronin"],"activeProtocols":["ronin"],"category":"defi","tracked":true},{"id":3915,"name":"AtomicMarket","slug":"atomicmarket","new":false,"statistic":{"balance":8838.3217,"balanceInFiat":28017.48,"totalBalanceInFiat":28017.48,"graph":"https:\/\/s3.amazonaws.com\/dapp-activity.dappradar.com\/wax_3915_aa48fa538271feba326bdb9ce5af5d41.png","exchangeRate":1,"currencyName":"usd","transactionCount":467742,"userActivity":27403,"volumeInFiat":0,"totalVolumeInFiat":423057.35000000003,"totalVolumeChangeInFiat":16.19,"changes":{"dau":{"status":"+75.18%","label":"positive"},"volume":{"status":"+48.45%","label":"positive"},"tx":{"status":"+1.19%","label":"positive"},"tokenVolume":{"status":"-16.07%","label":"negative"},"totalVolume":{"status":"+16.19%","label":"positive"},"totalBalance":{"status":"-","label":"neutral"}}},"godzillaId":43,"slugs":{"wax":"atomicmarket","eos":"atomicmarket-1"},"logo":"https:\/\/dashboard-assets.dappradar.com\/document\/3915\/atomicassets-dapp-collectibles-wax-logo-50x50_ab10916baefa840b29ce77aa405fae7d.png","deepLink":"https:\/\/dappradar.com\/deeplink\/3915","mobileFriendly":false,"featured":false,"protocols":["wax","eos"],"activeProtocols":["wax","eos"],"category":"marketplaces","tracked":true},{"id":7500,"name":"BabySwap","slug":"babyswap","new":false,"statistic":{"balance":0,"balanceInFiat":0,"totalBalanceInFiat":1970099471.66,"graph":"https:\/\/s3.amazonaws.com\/dapp-activity.dappradar.com\/bsc_7500_2aa16e72e5073e6886e4d7b4df3ce898.png","exchangeRate":1,"currencyName":"usd","transactionCount":16845,"userActivity":27237,"volumeInFiat":0,"totalVolumeInFiat":422275363.83,"totalVolumeChangeInFiat":2.06,"changes":{"dau":{"status":"-3.91%","label":"negative"},"volume":{"status":"-","label":"neutral"},"tx":{"status":"+13.95%","label":"positive"},"tokenVolume":{"status":"+4.12%","label":"positive"},"totalVolume":{"status":"+2.06%","label":"positive"},"totalBalance":{"status":"+2.56%","label":"positive"}}},"godzillaId":null,"slugs":{"binance-smart-chain":"babyswap"},"logo":"https:\/\/dashboard-assets.dappradar.com\/document\/7500\/babyswap-dapp-exchanges-bsc-logo-50x50_6dad64eed954d9a0ed0d6515397e4956.png","deepLink":"https:\/\/dappradar.com\/deeplink\/7500","mobileFriendly":false,"featured":false,"protocols":["binance-smart-chain"],"activeProtocols":["binance-smart-chain"],"category":"defi","tracked":true},{"id":6249,"name":"MOBOX: NFT Farmer","slug":"mobox-nft-farmer","new":false,"statistic":{"balance":0,"balanceInFiat":0,"totalBalanceInFiat":118683850.58,"graph":"https:\/\/s3.amazonaws.com\/dapp-activity.dappradar.com\/bsc_6249_bbbab2ffe9866aa0aff3e8ff56d4201e.png","exchangeRate":1,"currencyName":"usd","transactionCount":40593,"userActivity":27165,"volumeInFiat":114.69,"totalVolumeInFiat":1174111.47,"totalVolumeChangeInFiat":24.46,"changes":{"dau":{"status":"+151.99%","label":"positive"},"volume":{"status":"-","label":"neutral"},"tx":{"status":"+87.06%","label":"positive"},"tokenVolume":{"status":"+48.92%","label":"positive"},"totalVolume":{"status":"+24.46%","label":"positive"},"totalBalance":{"status":"-9.16%","label":"negative"}}},"godzillaId":null,"slugs":{"binance-smart-chain":"mobox-nft-farmer"},"logo":"https:\/\/dashboard-assets.dappradar.com\/document\/6249\/momonftfarmer-dapp-games-bsc-logo-50x50_ef033f390c02f0d6a1b71f59e9f63f3f.png","deepLink":"https:\/\/dappradar.com\/deeplink\/6249","mobileFriendly":false,"featured":false,"protocols":["binance-smart-chain"],"activeProtocols":["binance-smart-chain"],"category":"games","tracked":true},{"id":10231,"name":"Raydium","slug":"raydium","new":false,"statistic":{"balance":113.017598607,"balanceInFiat":21250.7,"totalBalanceInFiat":4167275.86,"graph":"https:\/\/s3.amazonaws.com\/dapp-activity.dappradar.com\/solana_10231_4d01676adb5e1a020c1b8611f36f5c98.png","exchangeRate":1,"currencyName":"usd","transactionCount":545167,"userActivity":25383,"volumeInFiat":117.88,"totalVolumeInFiat":1586461021.4,"totalVolumeChangeInFiat":45.52,"changes":{"dau":{"status":"-5.72%","label":"negative"},"volume":{"status":"+122.85%","label":"positive"},"tx":{"status":"-7.98%","label":"negative"},"tokenVolume":{"status":"-31.82%","label":"negative"},"totalVolume":{"status":"+45.52%","label":"positive"},"totalBalance":{"status":"-0.30%","label":"negative"}}},"godzillaId":null,"slugs":{"solana":"raydium"},"logo":"https:\/\/dashboard-assets.dappradar.com\/document\/10231\/raydium-dapp-defi-solana-logo-50x50_974b7e803f8692a7dc645340569c4168.png","deepLink":"https:\/\/dappradar.com\/deeplink\/10231","mobileFriendly":false,"featured":false,"protocols":["solana"],"activeProtocols":["solana"],"category":"defi","tracked":true},{"id":7069,"name":"Biswap","slug":"biswap","new":false,"statistic":{"balance":0,"balanceInFiat":0,"totalBalanceInFiat":780314494.23,"graph":"https:\/\/s3.amazonaws.com\/dapp-activity.dappradar.com\/bsc_7069_9c9cd90548ad12c91db44766e1d64398.png","exchangeRate":1,"currencyName":"usd","transactionCount":13915,"userActivity":25301,"volumeInFiat":0,"totalVolumeInFiat":608303005.98,"totalVolumeChangeInFiat":48.93,"changes":{"dau":{"status":"+83.22%","label":"positive"},"volume":{"status":"-","label":"neutral"},"tx":{"status":"+147.38%","label":"positive"},"tokenVolume":{"status":"+97.85%","label":"positive"},"totalVolume":{"status":"+48.92%","label":"positive"},"totalBalance":{"status":"+6.29%","label":"positive"}}},"godzillaId":null,"slugs":{"binance-smart-chain":"biswap"},"logo":"https:\/\/dashboard-assets.dappradar.com\/document\/7069\/biswap-dapp-defi-bsc-logo-50x50_c84ad89f82dd77d7315661119c1fa3bd.png","deepLink":"https:\/\/dappradar.com\/deeplink\/7069","mobileFriendly":false,"featured":false,"protocols":["binance-smart-chain"],"activeProtocols":["binance-smart-chain"],"category":"defi","tracked":true},{"id":3395,"name":"Galaxy Blocks","slug":"galaxy-blocks","new":false,"statistic":{"balance":3389024.5801585,"balanceInFiat":43342.37,"totalBalanceInFiat":43342.37,"graph":"https:\/\/s3.amazonaws.com\/dapp-activity.dappradar.com\/thundercore_3395_a8eb369a715c6584dc11a42d15b9f8d4.png","exchangeRate":1,"currencyName":"usd","transactionCount":24920,"userActivity":23307,"volumeInFiat":918.25,"totalVolumeInFiat":918.25,"totalVolumeChangeInFiat":-13.81,"changes":{"dau":{"status":"-29.24%","label":"negative"},"volume":{"status":"-27.62%","label":"negative"},"tx":{"status":"-27.37%","label":"negative"},"tokenVolume":{"status":"-","label":"neutral"},"totalVolume":{"status":"-13.81%","label":"negative"},"totalBalance":{"status":"-","label":"neutral"}}},"godzillaId":18,"slugs":{"thundercore":"galaxy-blocks"},"logo":"https:\/\/dashboard-assets.dappradar.com\/document\/3395\/galaxy-blocks-games-thundercore-logo-50x50_3eb30431502c46ae4fbf400fc8ba73a9.png","deepLink":"https:\/\/dappradar.com\/deeplink\/3395","mobileFriendly":false,"featured":false,"protocols":["thundercore"],"activeProtocols":["thundercore"],"category":"games","tracked":true},{"id":11314,"name":"PlayMining","slug":"playmining","new":true,"statistic":{"balance":0,"balanceInFiat":0,"totalBalanceInFiat":0,"graph":"https:\/\/s3.amazonaws.com\/dapp-activity.dappradar.com\/dep_11314_9f9847e1f4a5dc0c819e63118f22b5a4.png","exchangeRate":1,"currencyName":"usd","transactionCount":58757,"userActivity":22383,"volumeInFiat":0,"totalVolumeInFiat":0,"totalVolumeChangeInFiat":0,"changes":{"dau":{"status":"-9.69%","label":"negative"},"volume":{"status":"-","label":"neutral"},"tx":{"status":"-20.02%","label":"negative"},"tokenVolume":{"status":"-","label":"neutral"},"totalVolume":{"status":"-","label":"neutral"},"totalBalance":{"status":"-","label":"neutral"}}},"godzillaId":null,"slugs":{"dep":"playmining"},"logo":"https:\/\/dashboard-assets.dappradar.com\/document\/11314\/playmining-dapp-games-dea-logo-50x50_b009402756c7d4513ae0febd60c57c03.png","deepLink":"https:\/\/dappradar.com\/deeplink\/11314","mobileFriendly":false,"featured":false,"protocols":["dep"],"activeProtocols":["dep"],"category":"games","tracked":true},{"id":4096,"name":"Uniswap","slug":"uniswap-1","new":false,"statistic":{"balance":2.98e-5,"balanceInFiat":0.13,"totalBalanceInFiat":12700933432.83,"graph":"https:\/\/s3.amazonaws.com\/dapp-activity.dappradar.com\/ethereum_4096_cf4b3f9511af5625960d9d76657a6bf2.png","exchangeRate":1,"currencyName":"usd","transactionCount":33070,"userActivity":21768,"volumeInFiat":63260539.17,"totalVolumeInFiat":383035448.89,"totalVolumeChangeInFiat":-25.5,"changes":{"dau":{"status":"-7.38%","label":"negative"},"volume":{"status":"-17.85%","label":"negative"},"tx":{"status":"-12.06%","label":"negative"},"tokenVolume":{"status":"-33.15%","label":"negative"},"totalVolume":{"status":"-25.50%","label":"negative"},"totalBalance":{"status":"+10.34%","label":"positive"}}},"godzillaId":2056,"slugs":{"ethereum":"uniswap-1"},"logo":"https:\/\/dashboard-assets.dappradar.com\/document\/4096\/uniswapv2-dapp-exchanges-ethereum-logo-50x50_1f8f5c792a2680015b793b8b7b1ed44b.png","deepLink":"https:\/\/dappradar.com\/deeplink\/4096","mobileFriendly":false,"featured":false,"protocols":["ethereum"],"activeProtocols":["ethereum"],"category":"exchanges","tracked":true},{"id":6017,"name":"QuickSwap","slug":"quickswap","new":false,"statistic":{"balance":0,"balanceInFiat":0,"totalBalanceInFiat":318199344.18,"graph":"https:\/\/s3.amazonaws.com\/dapp-activity.dappradar.com\/matic_6017_6af67102b49b36bcfa5fcd5a45f430d6.png","exchangeRate":1,"currencyName":"usd","transactionCount":53304,"userActivity":20447,"volumeInFiat":17786994.76,"totalVolumeInFiat":176940808.28,"totalVolumeChangeInFiat":15.56,"changes":{"dau":{"status":"+6.03%","label":"positive"},"volume":{"status":"-10.51%","label":"negative"},"tx":{"status":"-3.57%","label":"negative"},"tokenVolume":{"status":"+41.63%","label":"positive"},"totalVolume":{"status":"+15.56%","label":"positive"},"totalBalance":{"status":"+0.22%","label":"positive"}}},"godzillaId":null,"slugs":{"polygon":"quickswap"},"logo":"https:\/\/dashboard-assets.dappradar.com\/document\/6017\/quickswap-dapp-defi-matic-logo-50x50_03a43140ef5d877c0bb269066443370a.png","deepLink":"https:\/\/dappradar.com\/deeplink\/6017","mobileFriendly":false,"featured":false,"protocols":["polygon"],"activeProtocols":["polygon"],"category":"exchanges","tracked":true},{"id":13,"name":"OpenSea","slug":"opensea","new":false,"statistic":{"balance":12.217636074666,"balanceInFiat":52434.8,"totalBalanceInFiat":123625.28,"graph":"https:\/\/s3.amazonaws.com\/dapp-activity.dappradar.com\/ethereum_13_ce5d74cf5c891702d865935b06049cb7.png","exchangeRate":1,"currencyName":"usd","transactionCount":36288,"userActivity":20421,"volumeInFiat":61804721.1,"totalVolumeInFiat":61804722.06,"totalVolumeChangeInFiat":15.14,"changes":{"dau":{"status":"+10.82%","label":"positive"},"volume":{"status":"+30.28%","label":"positive"},"tx":{"status":"-26.08%","label":"negative"},"tokenVolume":{"status":"-","label":"neutral"},"totalVolume":{"status":"+15.14%","label":"positive"},"totalBalance":{"status":"-0.43%","label":"negative"}}},"godzillaId":15,"slugs":{"ethereum":"opensea","polygon":"opensea"},"logo":"https:\/\/dashboard-assets.dappradar.com\/document\/13\/opensea-dapp-marketplaces-ethereum-logo-50x50_82cc11d79baa6aed6b181907d9e4360a.png","deepLink":"https:\/\/dappradar.com\/deeplink\/13","mobileFriendly":false,"featured":false,"protocols":["ethereum","polygon"],"activeProtocols":["ethereum","polygon"],"category":"marketplaces","tracked":true},{"id":8948,"name":"DeFi Kingdoms","slug":"defi-kingdoms","new":false,"statistic":{"balance":0,"balanceInFiat":0,"totalBalanceInFiat":1933619687.82,"graph":"https:\/\/s3.amazonaws.com\/dapp-activity.dappradar.com\/harmony_8948_01b8884ec05d12bad21c47e06f15af4d.png","exchangeRate":1,"currencyName":"usd","transactionCount":49695,"userActivity":19694,"volumeInFiat":4584344.54,"totalVolumeInFiat":22889042.85,"totalVolumeChangeInFiat":-27.99,"changes":{"dau":{"status":"+17.64%","label":"positive"},"volume":{"status":"-30.02%","label":"negative"},"tx":{"status":"-5.60%","label":"negative"},"tokenVolume":{"status":"-25.96%","label":"negative"},"totalVolume":{"status":"-27.99%","label":"negative"},"totalBalance":{"status":"-0.50%","label":"negative"}}},"godzillaId":null,"slugs":{"harmony":"defi-kingdoms"},"logo":"https:\/\/dashboard-assets.dappradar.com\/document\/8948\/defikingdoms-dapp-games-harmony-logo-50x50_fce610f56d1a025c8357de59e58a1449.png","deepLink":"https:\/\/dappradar.com\/deeplink\/8948","mobileFriendly":false,"featured":false,"protocols":["harmony"],"activeProtocols":["harmony"],"category":"games","tracked":true},{"id":8839,"name":"BinaryX","slug":"binaryx","new":false,"statistic":{"balance":85.221832654176,"balanceInFiat":48661.67,"totalBalanceInFiat":200304897.44,"graph":"https:\/\/s3.amazonaws.com\/dapp-activity.dappradar.com\/bsc_8839_8472a7468694155f7df11c1627c9ea1e.png","exchangeRate":1,"currencyName":"usd","transactionCount":319863,"userActivity":18434,"volumeInFiat":17214.1,"totalVolumeInFiat":1367558.4,"totalVolumeChangeInFiat":-16.09,"changes":{"dau":{"status":"+15.83%","label":"positive"},"volume":{"status":"-19.17%","label":"negative"},"tx":{"status":"-12.54%","label":"negative"},"tokenVolume":{"status":"-13.01%","label":"negative"},"totalVolume":{"status":"-16.09%","label":"negative"},"totalBalance":{"status":"-11.78%","label":"negative"}}},"godzillaId":null,"slugs":{"binance-smart-chain":"binaryx"},"logo":"https:\/\/dashboard-assets.dappradar.com\/document\/8839\/binaryx-dapp-games-bsc-logo-50x50_2a9bb8480df2f8feb2612dbcb99bf87f.png","deepLink":"https:\/\/dappradar.com\/deeplink\/8839","mobileFriendly":false,"featured":false,"protocols":["binance-smart-chain"],"activeProtocols":["binance-smart-chain"],"category":"games","tracked":true},{"id":9152,"name":"Arc8 by GAMEE","slug":"arc8-by-gamee-1","new":false,"statistic":{"balance":0,"balanceInFiat":0,"totalBalanceInFiat":1123293630.41,"graph":"https:\/\/s3.amazonaws.com\/dapp-activity.dappradar.com\/matic_9152_51c42a6c34f49a7ff4638652bff421ca.png","exchangeRate":1,"currencyName":"usd","transactionCount":76021,"userActivity":17527,"volumeInFiat":0,"totalVolumeInFiat":0,"totalVolumeChangeInFiat":0,"changes":{"dau":{"status":"-2.07%","label":"negative"},"volume":{"status":"-","label":"neutral"},"tx":{"status":"-1.95%","label":"negative"},"tokenVolume":{"status":"-","label":"neutral"},"totalVolume":{"status":"-","label":"neutral"},"totalBalance":{"status":"+4.70%","label":"positive"}}},"godzillaId":null,"slugs":{"polygon":"arc8-by-gamee-1"},"logo":"https:\/\/dashboard-assets.dappradar.com\/document\/9152\/arc8bygamee-dapp-games-matic-logo-50x50_4c0755da188efe4a0f389a85711420dd.png","deepLink":"https:\/\/dappradar.com\/deeplink\/9152","mobileFriendly":false,"featured":false,"protocols":["polygon"],"activeProtocols":["polygon"],"category":"games","tracked":true}],"ad":{"title":"PeakDeFi","text":"Provide Liquidity and Start Earning PROFITS Today!","image":"\/2021\/09\/07\/6137471401a26Screenshot-2021-09-07-at-14.03.22.png","url":"https:\/\/peakdefi.com\/download\/ ","label":"Join NOW!","geo":null}}