{"page":4,"resultsPerPage":25,"pageCount":340,"resultCount":8485,"dapps":[{"id":10447,"name":"DeFi Degen Land","slug":"defi-degen-land","new":false,"statistic":{"balance":0.79996632450551,"balanceInFiat":456.78,"totalBalanceInFiat":7209.6,"graph":"https:\/\/s3.amazonaws.com\/dapp-activity.dappradar.com\/bsc_10447_31891614721b7460609855748252ab25.png","exchangeRate":1,"currencyName":"usd","transactionCount":143,"userActivity":290,"volumeInFiat":49.32,"totalVolumeInFiat":57003.33,"totalVolumeChangeInFiat":-7.18,"changes":{"dau":{"status":"+13.73%","label":"positive"},"volume":{"status":"-","label":"neutral"},"tx":{"status":"+31.19%","label":"positive"},"tokenVolume":{"status":"-14.36%","label":"negative"},"totalVolume":{"status":"-7.18%","label":"negative"},"totalBalance":{"status":"+2.73%","label":"positive"}}},"godzillaId":null,"logo":"https:\/\/dashboard-assets.dappradar.com\/document\/10447\/defidegenland-dapp-games-bsc-logo-50x50_1d98dceb418107424bb37cc1567beeee.png","deepLink":"https:\/\/defidegenland.com\/","mobileFriendly":false,"featured":true,"slugs":{"binance-smart-chain":"defi-degen-land"},"protocols":["binance-smart-chain"],"activeProtocols":["binance-smart-chain"],"category":"games","tracked":true},{"id":663,"name":"Gods Unchained","slug":"gods-unchained","new":false,"statistic":{"balance":2706.0199293771,"balanceInFiat":11613506.91,"totalBalanceInFiat":11613598.37,"graph":"https:\/\/s3.amazonaws.com\/dapp-activity.dappradar.com\/ethereum_663_d8488d4fc22a8d39d72c22fa4ee14db5.png","exchangeRate":1,"currencyName":"usd","transactionCount":15956,"userActivity":3309,"volumeInFiat":0,"totalVolumeInFiat":961599.65,"totalVolumeChangeInFiat":15.09,"changes":{"dau":{"status":"-50.00%","label":"negative"},"volume":{"status":"+30.18%","label":"positive"},"tx":{"status":"-48.85%","label":"negative"},"tokenVolume":{"status":"-","label":"neutral"},"totalVolume":{"status":"+15.09%","label":"positive"},"totalBalance":{"status":"-0.03%","label":"negative"}}},"godzillaId":685,"slugs":{"ethereum":"gods-unchained","immutablex":"gods-unchained"},"logo":"https:\/\/dashboard-assets.dappradar.com\/document\/663\/godsunchained-dapp-games-eth-logo-50x50_38132183c5d61c326e97413cd7ee4733.png","deepLink":"https:\/\/dappradar.com\/deeplink\/663","mobileFriendly":false,"featured":false,"protocols":["ethereum","immutablex"],"activeProtocols":["ethereum","immutablex"],"category":"games","tracked":true},{"id":8922,"name":"Position Exchange","slug":"position-exchange","new":false,"statistic":{"balance":0,"balanceInFiat":0,"totalBalanceInFiat":42880787.48,"graph":"https:\/\/s3.amazonaws.com\/dapp-activity.dappradar.com\/bsc_8922_ab5fd86dee43b67d4cff0e5da966e228.png","exchangeRate":1,"currencyName":"usd","transactionCount":5609,"userActivity":3234,"volumeInFiat":0,"totalVolumeInFiat":3263018.7,"totalVolumeChangeInFiat":-16.62,"changes":{"dau":{"status":"-8.80%","label":"negative"},"volume":{"status":"-","label":"neutral"},"tx":{"status":"-10.44%","label":"negative"},"tokenVolume":{"status":"-33.23%","label":"negative"},"totalVolume":{"status":"-16.61%","label":"negative"},"totalBalance":{"status":"-2.47%","label":"negative"}}},"godzillaId":null,"slugs":{"binance-smart-chain":"position-exchange"},"logo":"https:\/\/dashboard-assets.dappradar.com\/document\/8922\/positionexchange-dapp-defi-bsc-logo-50x50_92b30421f77bd7c5fdece849b22ffc42.png","deepLink":"https:\/\/dappradar.com\/deeplink\/8922","mobileFriendly":false,"featured":false,"protocols":["binance-smart-chain"],"activeProtocols":["binance-smart-chain"],"category":"defi","tracked":true},{"id":5286,"name":"R-PLANET","slug":"r-planet","new":false,"statistic":{"balance":0,"balanceInFiat":0,"totalBalanceInFiat":0,"graph":"https:\/\/s3.amazonaws.com\/dapp-activity.dappradar.com\/wax_5286_110ef5d8ef6b0a7569bd824ee27c07e8.png","exchangeRate":1,"currencyName":"usd","transactionCount":43597,"userActivity":3169,"volumeInFiat":107.13,"totalVolumeInFiat":107.13,"totalVolumeChangeInFiat":24.88,"changes":{"dau":{"status":"+4.93%","label":"positive"},"volume":{"status":"+49.76%","label":"positive"},"tx":{"status":"+11.80%","label":"positive"},"tokenVolume":{"status":"-","label":"neutral"},"totalVolume":{"status":"+24.88%","label":"positive"},"totalBalance":{"status":"-","label":"neutral"}}},"godzillaId":null,"slugs":{"wax":"r-planet"},"logo":"https:\/\/dashboard-assets.dappradar.com\/document\/5286\/rplanet-dapp-games-wax-logo-50x50_45b23541cc4f6624b4e18bad32e52812.png","deepLink":"https:\/\/dappradar.com\/deeplink\/5286","mobileFriendly":false,"featured":false,"protocols":["wax"],"activeProtocols":["wax"],"category":"games","tracked":true},{"id":10188,"name":"Solend","slug":"solend","new":false,"statistic":{"balance":762852.38147021,"balanceInFiat":143439133.29,"totalBalanceInFiat":1378150761.42,"graph":"https:\/\/s3.amazonaws.com\/dapp-activity.dappradar.com\/solana_10188_1710cb74c7e579bb076de4cf4769163f.png","exchangeRate":1,"currencyName":"usd","transactionCount":4307,"userActivity":3110,"volumeInFiat":0,"totalVolumeInFiat":193253271.52,"totalVolumeChangeInFiat":-27.95,"changes":{"dau":{"status":"-21.13%","label":"negative"},"volume":{"status":"-","label":"neutral"},"tx":{"status":"-23.10%","label":"negative"},"tokenVolume":{"status":"-55.89%","label":"negative"},"totalVolume":{"status":"-27.95%","label":"negative"},"totalBalance":{"status":"+2.52%","label":"positive"}}},"godzillaId":null,"slugs":{"solana":"solend"},"logo":"https:\/\/dashboard-assets.dappradar.com\/document\/10188\/solend-dapp-defi-solana-logo-50x50_7ba7ac92cc9429092d8d0769f0e8bc7f.png","deepLink":"https:\/\/dappradar.com\/deeplink\/10188","mobileFriendly":false,"featured":false,"protocols":["solana"],"activeProtocols":["solana"],"category":"defi","tracked":true},{"id":8408,"name":"DeHero","slug":"dehero","new":false,"statistic":{"balance":0,"balanceInFiat":0,"totalBalanceInFiat":14729922.42,"graph":"https:\/\/s3.amazonaws.com\/dapp-activity.dappradar.com\/bsc_8408_75717afa0ef61f3b814cc76c80dabae0.png","exchangeRate":1,"currencyName":"usd","transactionCount":3905,"userActivity":3079,"volumeInFiat":0,"totalVolumeInFiat":37681.44,"totalVolumeChangeInFiat":1,"changes":{"dau":{"status":"-0.29%","label":"negative"},"volume":{"status":"-","label":"neutral"},"tx":{"status":"-3.56%","label":"negative"},"tokenVolume":{"status":"+2.00%","label":"positive"},"totalVolume":{"status":"+1.00%","label":"positive"},"totalBalance":{"status":"-1.57%","label":"negative"}}},"godzillaId":null,"slugs":{"binance-smart-chain":"dehero"},"logo":"https:\/\/dashboard-assets.dappradar.com\/document\/8408\/dehero-dapp-games-bsc-logo-50x50_6c17cae12ae3b0bf1586b04e56889a5f.png","deepLink":"https:\/\/dappradar.com\/deeplink\/8408","mobileFriendly":false,"featured":false,"protocols":["binance-smart-chain"],"activeProtocols":["binance-smart-chain"],"category":"games","tracked":true},{"id":9739,"name":"Farming Tales","slug":"farming-tales","new":false,"statistic":{"balance":0,"balanceInFiat":0,"totalBalanceInFiat":0,"graph":"https:\/\/s3.amazonaws.com\/dapp-activity.dappradar.com\/wax_9739_406d534ca9f36ade8a41dc6f3cf93c3b.png","exchangeRate":1,"currencyName":"usd","transactionCount":438394,"userActivity":3059,"volumeInFiat":0,"totalVolumeInFiat":0,"totalVolumeChangeInFiat":0,"changes":{"dau":{"status":"+0.39%","label":"positive"},"volume":{"status":"-","label":"neutral"},"tx":{"status":"-1.44%","label":"negative"},"tokenVolume":{"status":"-","label":"neutral"},"totalVolume":{"status":"-","label":"neutral"},"totalBalance":{"status":"-","label":"neutral"}}},"godzillaId":null,"slugs":{"wax":"farming-tales"},"logo":"https:\/\/dashboard-assets.dappradar.com\/document\/9739\/farmingtales-dapp-games-wax-logo-50x50_579f08a864b15a52e8dad9e915b9b3df.png","deepLink":"https:\/\/dappradar.com\/deeplink\/9739","mobileFriendly":false,"featured":false,"protocols":["wax"],"activeProtocols":["wax"],"category":"games","tracked":true},{"id":6334,"name":"Bogged.Finance","slug":"bogged-finance","new":false,"statistic":{"balance":200.12134011526,"balanceInFiat":114269.29,"totalBalanceInFiat":10153090.16,"graph":"https:\/\/s3.amazonaws.com\/dapp-activity.dappradar.com\/bsc_6334_4ca558878cf0dfb06e13eb4b6e78f613.png","exchangeRate":1,"currencyName":"usd","transactionCount":6862,"userActivity":2970,"volumeInFiat":5193011.64,"totalVolumeInFiat":9828305.6,"totalVolumeChangeInFiat":-21.73,"changes":{"dau":{"status":"-3.73%","label":"negative"},"volume":{"status":"-28.73%","label":"negative"},"tx":{"status":"-4.64%","label":"negative"},"tokenVolume":{"status":"-14.72%","label":"negative"},"totalVolume":{"status":"-21.73%","label":"negative"},"totalBalance":{"status":"-0.44%","label":"negative"}}},"godzillaId":null,"slugs":{"binance-smart-chain":"bogged-finance"},"logo":"https:\/\/dashboard-assets.dappradar.com\/document\/6334\/boggedfinance-dapp-exchanges-bsc-logo-50x50_8c77fd0e74246a0d26caa4a41b90ba05.png","deepLink":"https:\/\/dappradar.com\/deeplink\/6334","mobileFriendly":false,"featured":false,"protocols":["binance-smart-chain"],"activeProtocols":["binance-smart-chain"],"category":"exchanges","tracked":true},{"id":8141,"name":"REVV Racing","slug":"revv-racing","new":false,"statistic":{"balance":0,"balanceInFiat":0,"totalBalanceInFiat":649397447.39,"graph":"https:\/\/s3.amazonaws.com\/dapp-activity.dappradar.com\/matic_8141_68f4f59624881c9cd29e0aab70b3085b.png","exchangeRate":1,"currencyName":"usd","transactionCount":4787,"userActivity":2950,"volumeInFiat":0,"totalVolumeInFiat":89.61,"totalVolumeChangeInFiat":-41.1,"changes":{"dau":{"status":"-58.30%","label":"negative"},"volume":{"status":"-","label":"neutral"},"tx":{"status":"-66.95%","label":"negative"},"tokenVolume":{"status":"-82.20%","label":"negative"},"totalVolume":{"status":"-41.10%","label":"negative"},"totalBalance":{"status":"-0.51%","label":"negative"}}},"godzillaId":null,"slugs":{"polygon":"revv-racing"},"logo":"https:\/\/dashboard-assets.dappradar.com\/document\/8141\/revvracing-dapp-games-matic-logo-50x50_7486d5b594ffb41afa238a6a504a4d34.png","deepLink":"https:\/\/dappradar.com\/deeplink\/8141","mobileFriendly":false,"featured":false,"protocols":["polygon"],"activeProtocols":["polygon"],"category":"games","tracked":true},{"id":3671,"name":"PeakD","slug":"peakd","new":false,"statistic":{"balance":23134.308,"balanceInFiat":38171.61,"totalBalanceInFiat":38171.61,"graph":"https:\/\/s3.amazonaws.com\/dapp-activity.dappradar.com\/hive_3671_38bd6eb7c84cb4ae7a9af6b115706227.png","exchangeRate":1,"currencyName":"usd","transactionCount":16368,"userActivity":2933,"volumeInFiat":24.73,"totalVolumeInFiat":24.73,"totalVolumeChangeInFiat":-0.01,"changes":{"dau":{"status":"-2.46%","label":"negative"},"volume":{"status":"-0.02%","label":"negative"},"tx":{"status":"-2.19%","label":"negative"},"tokenVolume":{"status":"-","label":"neutral"},"totalVolume":{"status":"-0.01%","label":"negative"},"totalBalance":{"status":"-","label":"neutral"}}},"godzillaId":2,"slugs":{"hive":"peakd"},"logo":"https:\/\/dashboard-assets.dappradar.com\/document\/3671\/peakd-dapp-social-hive-logo-50x50_5ae8975a3638cbf865aaf05f565cb8ff.png","deepLink":"https:\/\/dappradar.com\/deeplink\/3671","mobileFriendly":false,"featured":false,"protocols":["hive"],"activeProtocols":["hive"],"category":"social","tracked":true},{"id":11122,"name":"Radio Caca Market","slug":"radio-caca-market","new":false,"statistic":{"balance":0,"balanceInFiat":0,"totalBalanceInFiat":7623.85,"graph":"https:\/\/s3.amazonaws.com\/dapp-activity.dappradar.com\/bsc_11122_3187dd9fa362c755da6467a3991ebf3d.png","exchangeRate":1,"currencyName":"usd","transactionCount":8457,"userActivity":2891,"volumeInFiat":0,"totalVolumeInFiat":0,"totalVolumeChangeInFiat":0,"changes":{"dau":{"status":"-25.95%","label":"negative"},"volume":{"status":"-","label":"neutral"},"tx":{"status":"-46.58%","label":"negative"},"tokenVolume":{"status":"-","label":"neutral"},"totalVolume":{"status":"-","label":"neutral"},"totalBalance":{"status":"+1.64%","label":"positive"}}},"godzillaId":null,"slugs":{"binance-smart-chain":"radio-caca-market"},"logo":"https:\/\/dashboard-assets.dappradar.com\/document\/11122\/radiocacamarket-dapp-marketplaces-bsc-logo-50x50_74d4039f42604bdb04d21e69c574819c.png","deepLink":"https:\/\/dappradar.com\/deeplink\/11122","mobileFriendly":false,"featured":false,"protocols":["binance-smart-chain"],"activeProtocols":["binance-smart-chain"],"category":"marketplaces","tracked":true},{"id":11026,"name":"Pegaxy","slug":"pegaxy","new":false,"statistic":{"balance":0,"balanceInFiat":0,"totalBalanceInFiat":48320.07,"graph":"https:\/\/s3.amazonaws.com\/dapp-activity.dappradar.com\/matic_11026_379f80521e4e2f1b6d74a315589730e4.png","exchangeRate":1,"currencyName":"usd","transactionCount":14976,"userActivity":2803,"volumeInFiat":0,"totalVolumeInFiat":813644.17,"totalVolumeChangeInFiat":31.38,"changes":{"dau":{"status":"+1.37%","label":"positive"},"volume":{"status":"-","label":"neutral"},"tx":{"status":"+4.09%","label":"positive"},"tokenVolume":{"status":"+62.75%","label":"positive"},"totalVolume":{"status":"+31.38%","label":"positive"},"totalBalance":{"status":"+23.71%","label":"positive"}}},"godzillaId":null,"slugs":{"polygon":"pegaxy"},"logo":"https:\/\/dashboard-assets.dappradar.com\/document\/11026\/pegaxy-dapp-games-matic-logo-50x50_2f128d4e244cab010725308ea7e2d783.png","deepLink":"https:\/\/dappradar.com\/deeplink\/11026","mobileFriendly":false,"featured":false,"protocols":["polygon"],"activeProtocols":["polygon"],"category":"games","tracked":true},{"id":10816,"name":"Nemesis DAO","slug":"nemesis-dao","new":false,"statistic":{"balance":0,"balanceInFiat":0,"totalBalanceInFiat":40206885.69,"graph":"https:\/\/s3.amazonaws.com\/dapp-activity.dappradar.com\/bsc_10816_7463cae1ad0c3474d217f0adf44a29c2.png","exchangeRate":1,"currencyName":"usd","transactionCount":5870,"userActivity":2688,"volumeInFiat":0,"totalVolumeInFiat":7645204.6,"totalVolumeChangeInFiat":3.23,"changes":{"dau":{"status":"-9.71%","label":"negative"},"volume":{"status":"-","label":"neutral"},"tx":{"status":"-9.94%","label":"negative"},"tokenVolume":{"status":"+6.46%","label":"positive"},"totalVolume":{"status":"+3.23%","label":"positive"},"totalBalance":{"status":"-2.60%","label":"negative"}}},"godzillaId":null,"slugs":{"binance-smart-chain":"nemesis-dao"},"logo":"https:\/\/dashboard-assets.dappradar.com\/document\/10816\/nemesisdao-dapp-defi-bsc-logo-50x50_deb799b288e30faaa821ebc50729605d.png","deepLink":"https:\/\/dappradar.com\/deeplink\/10816","mobileFriendly":false,"featured":false,"protocols":["binance-smart-chain"],"activeProtocols":["binance-smart-chain"],"category":"defi","tracked":true},{"id":9171,"name":"objkt.com","slug":"objkt-com","new":false,"statistic":{"balance":95757.652005,"balanceInFiat":546776.19,"totalBalanceInFiat":546776.19,"graph":"https:\/\/s3.amazonaws.com\/dapp-activity.dappradar.com\/tezos_9171_bdd7d05c064932796206a519dca1a211.png","exchangeRate":1,"currencyName":"usd","transactionCount":9984,"userActivity":2596,"volumeInFiat":698835.19,"totalVolumeInFiat":698835.19,"totalVolumeChangeInFiat":42.72,"changes":{"dau":{"status":"+1.64%","label":"positive"},"volume":{"status":"+85.44%","label":"positive"},"tx":{"status":"+2.28%","label":"positive"},"tokenVolume":{"status":"-","label":"neutral"},"totalVolume":{"status":"+42.72%","label":"positive"},"totalBalance":{"status":"-","label":"neutral"}}},"godzillaId":null,"slugs":{"tezos":"objkt-com"},"logo":"https:\/\/dashboard-assets.dappradar.com\/document\/9171\/objktcom-dapp-marketplaces-tezos-logo-50x50_b4b1cdebdf50eaad43e469c1cab74ce1.png","deepLink":"https:\/\/dappradar.com\/deeplink\/9171","mobileFriendly":false,"featured":false,"protocols":["tezos"],"activeProtocols":["tezos"],"category":"marketplaces","tracked":false},{"id":6354,"name":"LUMINOUS","slug":"luminous","new":false,"statistic":{"balance":45200698.334538,"balanceInFiat":4123930.91,"totalBalanceInFiat":4123930.91,"graph":"https:\/\/s3.amazonaws.com\/dapp-activity.dappradar.com\/tron_6354_ffdf3cde7a60672ba063a3c80e63ee3e.png","exchangeRate":1,"currencyName":"usd","transactionCount":10671,"userActivity":2500,"volumeInFiat":14875.81,"totalVolumeInFiat":14875.81,"totalVolumeChangeInFiat":9.31,"changes":{"dau":{"status":"+7.67%","label":"positive"},"volume":{"status":"+18.61%","label":"positive"},"tx":{"status":"-2.30%","label":"negative"},"tokenVolume":{"status":"-","label":"neutral"},"totalVolume":{"status":"+9.30%","label":"positive"},"totalBalance":{"status":"-","label":"neutral"}}},"godzillaId":null,"slugs":{"tron":"luminous"},"logo":"https:\/\/dashboard-assets.dappradar.com\/document\/6354\/luminous-dapp-gambling-tron-logo-50x50_687571021fa1241d4ca020883deada2d.png","deepLink":"https:\/\/dappradar.com\/deeplink\/6354","mobileFriendly":false,"featured":false,"protocols":["tron"],"activeProtocols":["tron"],"category":"gambling","tracked":true},{"id":10881,"name":"MiningTycoon","slug":"miningtycoon","new":false,"statistic":{"balance":0,"balanceInFiat":0,"totalBalanceInFiat":15465304.16,"graph":"https:\/\/s3.amazonaws.com\/dapp-activity.dappradar.com\/bsc_10881_916c1929fbc6320c8f7ef6f00db01e0e.png","exchangeRate":1,"currencyName":"usd","transactionCount":7839,"userActivity":2493,"volumeInFiat":0,"totalVolumeInFiat":1417516.97,"totalVolumeChangeInFiat":-15.67,"changes":{"dau":{"status":"+31.59%","label":"positive"},"volume":{"status":"-","label":"neutral"},"tx":{"status":"-2.58%","label":"negative"},"tokenVolume":{"status":"-31.34%","label":"negative"},"totalVolume":{"status":"-15.67%","label":"negative"},"totalBalance":{"status":"-0.63%","label":"negative"}}},"godzillaId":null,"slugs":{"binance-smart-chain":"miningtycoon","heco":"miningtycoon","other":"miningtycoon"},"logo":"https:\/\/dashboard-assets.dappradar.com\/document\/10881\/miningtycoon-dapp-games-bsc-logo-50x50_ad04a311bce5313ef24327467e588849.png","deepLink":"https:\/\/dappradar.com\/deeplink\/10881","mobileFriendly":false,"featured":false,"protocols":["binance-smart-chain","heco","other"],"activeProtocols":["binance-smart-chain","heco","other"],"category":"gambling","tracked":true},{"id":7307,"name":"ZIPPY","slug":"zippy","new":false,"statistic":{"balance":161642.36540936,"balanceInFiat":2067.25,"totalBalanceInFiat":2067.25,"graph":"https:\/\/s3.amazonaws.com\/dapp-activity.dappradar.com\/thundercore_7307_47362775a00e75fbcdfcb766338d4519.png","exchangeRate":1,"currencyName":"usd","transactionCount":6506,"userActivity":2454,"volumeInFiat":1030.41,"totalVolumeInFiat":1030.41,"totalVolumeChangeInFiat":-29.23,"changes":{"dau":{"status":"+2.94%","label":"positive"},"volume":{"status":"-58.46%","label":"negative"},"tx":{"status":"-4.10%","label":"negative"},"tokenVolume":{"status":"-","label":"neutral"},"totalVolume":{"status":"-29.23%","label":"negative"},"totalBalance":{"status":"-","label":"neutral"}}},"godzillaId":null,"slugs":{"thundercore":"zippy"},"logo":"https:\/\/dashboard-assets.dappradar.com\/document\/7307\/zippydice-dapp-gambling-thundercore-logo-50x50_868590cd11922e84e8eb2c3f645a93d1.png","deepLink":"https:\/\/dappradar.com\/deeplink\/7307","mobileFriendly":false,"featured":false,"protocols":["thundercore"],"activeProtocols":["thundercore"],"category":"defi","tracked":true},{"id":10314,"name":"Solsea","slug":"solsea","new":false,"statistic":{"balance":3205.402793972,"balanceInFiat":602711.89,"totalBalanceInFiat":602711.89,"graph":"https:\/\/s3.amazonaws.com\/dapp-activity.dappradar.com\/solana_10314_78f190ed50c48f35bd7fd918eef1bcc8.png","exchangeRate":1,"currencyName":"usd","transactionCount":9046,"userActivity":2389,"volumeInFiat":214484.74,"totalVolumeInFiat":214484.74,"totalVolumeChangeInFiat":-26.14,"changes":{"dau":{"status":"+10.19%","label":"positive"},"volume":{"status":"-52.28%","label":"negative"},"tx":{"status":"+5.43%","label":"positive"},"tokenVolume":{"status":"-","label":"neutral"},"totalVolume":{"status":"-26.14%","label":"negative"},"totalBalance":{"status":"-","label":"neutral"}}},"godzillaId":null,"slugs":{"solana":"solsea"},"logo":"https:\/\/dashboard-assets.dappradar.com\/document\/10314\/solsea-dapp-marketplaces-solana-logo-50x50_9b921acb877ed578ac7bc2fa5a516630.png","deepLink":"https:\/\/dappradar.com\/deeplink\/10314","mobileFriendly":false,"featured":false,"protocols":["solana"],"activeProtocols":["solana"],"category":"marketplaces","tracked":true},{"id":9233,"name":"ViperSwap","slug":"viperswap","new":false,"statistic":{"balance":0,"balanceInFiat":0,"totalBalanceInFiat":23650795.38,"graph":"https:\/\/s3.amazonaws.com\/dapp-activity.dappradar.com\/harmony_9233_aad55957640a81d69ebcad6c35720b0e.png","exchangeRate":1,"currencyName":"usd","transactionCount":5810,"userActivity":2216,"volumeInFiat":1470516.38,"totalVolumeInFiat":3018436.21,"totalVolumeChangeInFiat":-11.11,"changes":{"dau":{"status":"-24.37%","label":"negative"},"volume":{"status":"-16.79%","label":"negative"},"tx":{"status":"-21.34%","label":"negative"},"tokenVolume":{"status":"-5.43%","label":"negative"},"totalVolume":{"status":"-11.11%","label":"negative"},"totalBalance":{"status":"+1.37%","label":"positive"}}},"godzillaId":null,"slugs":{"harmony":"viperswap"},"logo":"https:\/\/dashboard-assets.dappradar.com\/document\/9233\/viperswap-dapp-defi-harmony-logo-50x50_594bd28f14cb5a795c8f92f47407a082.png","deepLink":"https:\/\/dappradar.com\/deeplink\/9233","mobileFriendly":false,"featured":false,"protocols":["harmony"],"activeProtocols":["harmony"],"category":"defi","tracked":true},{"id":10961,"name":"Solana Farm","slug":"solana-farm","new":false,"statistic":{"balance":14.86379982,"balanceInFiat":8487.23,"totalBalanceInFiat":8783.95,"graph":"https:\/\/s3.amazonaws.com\/dapp-activity.dappradar.com\/bsc_10961_e1698d3245cd1efe157e2a045c74e9ea.png","exchangeRate":1,"currencyName":"usd","transactionCount":3874,"userActivity":2208,"volumeInFiat":9098.94,"totalVolumeInFiat":9098.94,"totalVolumeChangeInFiat":-21.86,"changes":{"dau":{"status":"-2.60%","label":"negative"},"volume":{"status":"-43.72%","label":"negative"},"tx":{"status":"-10.76%","label":"negative"},"tokenVolume":{"status":"-","label":"neutral"},"totalVolume":{"status":"-21.86%","label":"negative"},"totalBalance":{"status":"+2.13%","label":"positive"}}},"godzillaId":null,"slugs":{"binance-smart-chain":"solana-farm"},"logo":"https:\/\/dashboard-assets.dappradar.com\/document\/10961\/solanafarm-dapp-defi-bsc-logo-50x50_db6f3d107bf82dfc3e870614100756da.png","deepLink":"https:\/\/dappradar.com\/deeplink\/10961","mobileFriendly":false,"featured":false,"protocols":["binance-smart-chain"],"activeProtocols":["binance-smart-chain"],"category":"defi","tracked":true},{"id":4471,"name":"DODO","slug":"dodo","new":false,"statistic":{"balance":720.10000769361,"balanceInFiat":101469.85,"totalBalanceInFiat":26556953.099999998,"graph":"https:\/\/s3.amazonaws.com\/dapp-activity.dappradar.com\/ethereum_4471_c0b5eaf807cf885bbe22836757b5c00e.png","exchangeRate":1,"currencyName":"usd","transactionCount":5465,"userActivity":2094,"volumeInFiat":0,"totalVolumeInFiat":27845281.44,"totalVolumeChangeInFiat":-25.78,"changes":{"dau":{"status":"-100.00%","label":"negative"},"volume":{"status":"-12.72%","label":"negative"},"tx":{"status":"-13.91%","label":"negative"},"tokenVolume":{"status":"-38.85%","label":"negative"},"totalVolume":{"status":"-25.78%","label":"negative"},"totalBalance":{"status":"-0.73%","label":"negative"}}},"godzillaId":null,"slugs":{"ethereum":"dodo","polygon":"dodo","binance-smart-chain":"dodo","okexchain":"dodo"},"logo":"https:\/\/dashboard-assets.dappradar.com\/document\/4471\/dodo-dapp-exchanges-ethereum-logo-50x50_bc02bf32e89173959245df592406367a.png","deepLink":"https:\/\/dappradar.com\/deeplink\/4471","mobileFriendly":false,"featured":false,"protocols":["ethereum","polygon","binance-smart-chain","okexchain"],"activeProtocols":["ethereum","polygon","binance-smart-chain","okexchain"],"category":"defi","tracked":true},{"id":11093,"name":"BUSDMatrix","slug":"busdmatrix","new":false,"statistic":{"balance":0,"balanceInFiat":0,"totalBalanceInFiat":2023258.22,"graph":"https:\/\/s3.amazonaws.com\/dapp-activity.dappradar.com\/bsc_11093_8589dff41cae12804b18238088c2e81d.png","exchangeRate":1,"currencyName":"usd","transactionCount":3548,"userActivity":2052,"volumeInFiat":0,"totalVolumeInFiat":889743.36,"totalVolumeChangeInFiat":16.6,"changes":{"dau":{"status":"+16.52%","label":"positive"},"volume":{"status":"-","label":"neutral"},"tx":{"status":"+13.39%","label":"positive"},"tokenVolume":{"status":"+33.19%","label":"positive"},"totalVolume":{"status":"+16.59%","label":"positive"},"totalBalance":{"status":"+4.64%","label":"positive"}}},"godzillaId":null,"slugs":{"binance-smart-chain":"busdmatrix"},"logo":"https:\/\/dashboard-assets.dappradar.com\/document\/11093\/busdmatrix-dapp-high-risk-bsc-logo-50x50_4674446e5f95322ee9bd088380456220.png","deepLink":"https:\/\/dappradar.com\/deeplink\/11093","mobileFriendly":false,"featured":false,"protocols":["binance-smart-chain"],"activeProtocols":["binance-smart-chain"],"category":"high-risk","tracked":true},{"id":5189,"name":"Venus","slug":"venus","new":false,"statistic":{"balance":36402.622175991,"balanceInFiat":20785897.26,"totalBalanceInFiat":2296877507.45,"graph":"https:\/\/s3.amazonaws.com\/dapp-activity.dappradar.com\/bsc_5189_c3879b9267dc9c7f555031cd6c7227e4.png","exchangeRate":1,"currencyName":"usd","transactionCount":4838,"userActivity":1996,"volumeInFiat":85975099.35,"totalVolumeInFiat":3641587392.73,"totalVolumeChangeInFiat":12.19,"changes":{"dau":{"status":"-20.26%","label":"negative"},"volume":{"status":"+9.47%","label":"positive"},"tx":{"status":"-32.25%","label":"negative"},"tokenVolume":{"status":"+14.91%","label":"positive"},"totalVolume":{"status":"+12.19%","label":"positive"},"totalBalance":{"status":"-0.34%","label":"negative"}}},"godzillaId":null,"slugs":{"binance-smart-chain":"venus"},"logo":"https:\/\/dashboard-assets.dappradar.com\/document\/5189\/venus-dapp-defi-bsc-logo-50x50_360484e0d8aed23775e0b9d831611cd8.png","deepLink":"https:\/\/dappradar.com\/deeplink\/5189","mobileFriendly":false,"featured":false,"protocols":["binance-smart-chain"],"activeProtocols":["binance-smart-chain"],"category":"defi","tracked":true},{"id":9895,"name":"CherrySwap","slug":"cherryswap","new":false,"statistic":{"balance":0,"balanceInFiat":0,"totalBalanceInFiat":0,"graph":"https:\/\/s3.amazonaws.com\/dapp-activity.dappradar.com\/okexchain_9895_ee572c564fd8829fc1d94fc0db2baa1f.png","exchangeRate":1,"currencyName":"usd","transactionCount":7732,"userActivity":1964,"volumeInFiat":105784.69,"totalVolumeInFiat":105784.69,"totalVolumeChangeInFiat":-1.15,"changes":{"dau":{"status":"+1.18%","label":"positive"},"volume":{"status":"-2.29%","label":"negative"},"tx":{"status":"-20.13%","label":"negative"},"tokenVolume":{"status":"-","label":"neutral"},"totalVolume":{"status":"-1.15%","label":"negative"},"totalBalance":{"status":"-","label":"neutral"}}},"godzillaId":null,"slugs":{"okexchain":"cherryswap"},"logo":"https:\/\/dashboard-assets.dappradar.com\/document\/9895\/cherryswap-dapp-defi-okexchain-logo-50x50_5d6de2f55684252060537addc7fb382a.png","deepLink":"https:\/\/dappradar.com\/deeplink\/9895","mobileFriendly":false,"featured":false,"protocols":["okexchain"],"activeProtocols":["okexchain"],"category":"defi","tracked":true},{"id":11520,"name":"Xpansion","slug":"xpansion","new":true,"statistic":{"balance":0,"balanceInFiat":0,"totalBalanceInFiat":0,"graph":"https:\/\/s3.amazonaws.com\/dapp-activity.dappradar.com\/wax_11520_df397e6d5253da77d4f64bd0ff77b446.png","exchangeRate":1,"currencyName":"usd","transactionCount":111254,"userActivity":1891,"volumeInFiat":0,"totalVolumeInFiat":0,"totalVolumeChangeInFiat":0,"changes":{"dau":{"status":"+4.71%","label":"positive"},"volume":{"status":"-","label":"neutral"},"tx":{"status":"+7.06%","label":"positive"},"tokenVolume":{"status":"-","label":"neutral"},"totalVolume":{"status":"-","label":"neutral"},"totalBalance":{"status":"-","label":"neutral"}}},"godzillaId":null,"slugs":{"wax":"xpansion"},"logo":"https:\/\/dashboard-assets.dappradar.com\/document\/11520\/xpansion-dapp-games-wax-logo-50x50_48387f7d29ad0ee41a8211b3ec82bc69.png","deepLink":"https:\/\/dappradar.com\/deeplink\/11520","mobileFriendly":false,"featured":false,"protocols":["wax"],"activeProtocols":["wax"],"category":"games","tracked":true},{"id":5824,"name":"Aavegotchi","slug":"aavegotchi","new":false,"statistic":{"balance":0,"balanceInFiat":0,"totalBalanceInFiat":27606.55,"graph":"https:\/\/s3.amazonaws.com\/dapp-activity.dappradar.com\/matic_5824_6e851b4cfe3662108d821af7a2297758.png","exchangeRate":1,"currencyName":"usd","transactionCount":5775,"userActivity":1877,"volumeInFiat":0,"totalVolumeInFiat":0,"totalVolumeChangeInFiat":0,"changes":{"dau":{"status":"-0.27%","label":"negative"},"volume":{"status":"-","label":"neutral"},"tx":{"status":"+4.30%","label":"positive"},"tokenVolume":{"status":"-","label":"neutral"},"totalVolume":{"status":"-","label":"neutral"},"totalBalance":{"status":"-0.80%","label":"negative"}}},"godzillaId":null,"slugs":{"polygon":"aavegotchi"},"logo":"https:\/\/dashboard-assets.dappradar.com\/document\/5824\/aavegotchi-dapp-defi-matic-logo-50x50_499142cf2f2d401b88f95a77c41ccf38.png","deepLink":"https:\/\/dappradar.com\/deeplink\/5824","mobileFriendly":false,"featured":false,"protocols":["polygon"],"activeProtocols":["polygon"],"category":"games","tracked":true}],"ad":{"title":"VodkaToken","text":"\u0421ollectible Play-to-Earn NFT game based on DeFi. ","image":"\/2021\/11\/19\/619779cb3b8d5Screenshot-2021-11-19-at-12.17.37.png","url":"https:\/\/vodkatoken.com\/?utm_source=DappRadar\u0026utm_medium=deeplink\u0026utm_campaign=visit-website","label":"BUY VODKA TOKEN!","geo":null}}